<?xml version="1.0" encoding="utf-8" standalone="no"?>
<!DOCTYPE svg PUBLIC "-//W3C//DTD SVG 1.1//EN"
  "http://www.w3.org/Graphics/SVG/1.1/DTD/svg11.dtd">
<!-- Created with matplotlib (https://matplotlib.org/) -->
<svg height="310.86825pt" version="1.1" viewBox="0 0 473.47 310.86825" width="473.47pt" xmlns="http://www.w3.org/2000/svg" xmlns:xlink="http://www.w3.org/1999/xlink">
 <defs>
  <style type="text/css">
*{stroke-linecap:butt;stroke-linejoin:round;}
  </style>
 </defs>
 <g id="figure_1">
  <g id="patch_1">
   <path d="M 0 310.86825 
L 473.47 310.86825 
L 473.47 0 
L 0 0 
z
" style="fill:#ffffff;"/>
  </g>
  <g id="axes_1">
   <g id="patch_2">
    <path d="M 109.15 273.312 
L 466.27 273.312 
L 466.27 7.2 
L 109.15 7.2 
z
" style="fill:#ffffff;"/>
   </g>
   <g id="BrokenBarHCollection_1">
    <path clip-path="url(#pb0af0dd4c0)" d="M 417.68361 270.092903 
L 417.68361 265.800774 
L 461.408898 265.800774 
L 461.408898 270.092903 
L 417.68361 270.092903 
z
" style="fill:#0000ff;"/>
   </g>
   <g id="BrokenBarHCollection_2">
    <path clip-path="url(#pb0af0dd4c0)" d="M 412.382187 261.508645 
L 412.382187 257.216516 
L 417.683482 257.216516 
L 417.683482 261.508645 
L 412.382187 261.508645 
z
" style="fill:#0000ff;"/>
   </g>
   <g id="BrokenBarHCollection_3">
    <path clip-path="url(#pb0af0dd4c0)" d="M 401.917875 252.924387 
L 401.917875 248.632258 
L 412.382068 248.632258 
L 412.382068 252.924387 
L 401.917875 252.924387 
z
" style="fill:#0000ff;"/>
   </g>
   <g id="BrokenBarHCollection_4">
    <path clip-path="url(#pb0af0dd4c0)" d="M 386.726474 244.340129 
L 386.726474 240.048 
L 401.917633 240.048 
L 401.917633 244.340129 
L 386.726474 244.340129 
z
" style="fill:#0000ff;"/>
   </g>
   <g id="BrokenBarHCollection_5">
    <path clip-path="url(#pb0af0dd4c0)" d="M 379.164787 235.755871 
L 379.164787 231.463742 
L 386.726301 231.463742 
L 386.726301 235.755871 
L 379.164787 235.755871 
z
" style="fill:#ff0000;"/>
   </g>
   <g id="BrokenBarHCollection_6">
    <path clip-path="url(#pb0af0dd4c0)" d="M 343.758439 227.171613 
L 343.758439 222.879484 
L 379.164571 222.879484 
L 379.164571 227.171613 
L 343.758439 227.171613 
z
" style="fill:#008000;"/>
   </g>
   <g id="BrokenBarHCollection_7">
    <path clip-path="url(#pb0af0dd4c0)" d="M 337.717602 218.587355 
L 337.717602 214.295226 
L 343.758269 214.295226 
L 343.758269 218.587355 
L 337.717602 218.587355 
z
" style="fill:#008000;"/>
   </g>
   <g id="BrokenBarHCollection_8">
    <path clip-path="url(#pb0af0dd4c0)" d="M 329.921011 210.003097 
L 329.921011 205.710968 
L 337.717444 205.710968 
L 337.717444 210.003097 
L 329.921011 210.003097 
z
" style="fill:#008000;"/>
   </g>
   <g id="BrokenBarHCollection_9">
    <path clip-path="url(#pb0af0dd4c0)" d="M 302.040785 201.418839 
L 302.040785 197.12671 
L 329.920828 197.12671 
L 329.920828 201.418839 
L 302.040785 201.418839 
z
" style="fill:#008000;"/>
   </g>
   <g id="BrokenBarHCollection_10">
    <path clip-path="url(#pb0af0dd4c0)" d="M 297.719101 192.834581 
L 297.719101 188.542452 
L 302.040657 188.542452 
L 302.040657 192.834581 
L 297.719101 192.834581 
z
" style="fill:#008000;"/>
   </g>
   <g id="BrokenBarHCollection_11">
    <path clip-path="url(#pb0af0dd4c0)" d="M 284.465006 184.250323 
L 284.465006 179.958194 
L 297.718939 179.958194 
L 297.718939 184.250323 
L 284.465006 184.250323 
z
" style="fill:#008000;"/>
   </g>
   <g id="BrokenBarHCollection_12">
    <path clip-path="url(#pb0af0dd4c0)" d="M 278.095376 175.666065 
L 278.095376 171.373935 
L 284.464836 171.373935 
L 284.464836 175.666065 
L 278.095376 175.666065 
z
" style="fill:#008000;"/>
   </g>
   <g id="BrokenBarHCollection_13">
    <path clip-path="url(#pb0af0dd4c0)" d="M 252.466678 167.081806 
L 252.466678 162.789677 
L 278.095204 162.789677 
L 278.095204 167.081806 
L 252.466678 167.081806 
z
" style="fill:#008000;"/>
   </g>
   <g id="BrokenBarHCollection_14">
    <path clip-path="url(#pb0af0dd4c0)" d="M 243.387992 158.497548 
L 243.387992 154.205419 
L 252.466497 154.205419 
L 252.466497 158.497548 
L 243.387992 158.497548 
z
" style="fill:#00bfbf;"/>
   </g>
   <g id="BrokenBarHCollection_15">
    <path clip-path="url(#pb0af0dd4c0)" d="M 230.383365 149.91329 
L 230.383365 145.621161 
L 243.38782 145.621161 
L 243.38782 149.91329 
L 230.383365 149.91329 
z
" style="fill:#00bfbf;"/>
   </g>
   <g id="BrokenBarHCollection_16">
    <path clip-path="url(#pb0af0dd4c0)" d="M 226.978651 141.329032 
L 226.978651 137.036903 
L 230.383232 137.036903 
L 230.383232 141.329032 
L 226.978651 141.329032 
z
" style="fill:#00bfbf;"/>
   </g>
   <g id="BrokenBarHCollection_17">
    <path clip-path="url(#pb0af0dd4c0)" d="M 221.641103 132.744774 
L 221.641103 128.452645 
L 226.978486 128.452645 
L 226.978486 132.744774 
L 221.641103 132.744774 
z
" style="fill:#00bfbf;"/>
   </g>
   <g id="BrokenBarHCollection_18">
    <path clip-path="url(#pb0af0dd4c0)" d="M 197.08602 124.160516 
L 197.08602 119.868387 
L 221.640905 119.868387 
L 221.640905 124.160516 
L 197.08602 124.160516 
z
" style="fill:#bf00bf;"/>
   </g>
   <g id="BrokenBarHCollection_19">
    <path clip-path="url(#pb0af0dd4c0)" d="M 187.446485 115.576258 
L 187.446485 111.284129 
L 197.085856 111.284129 
L 197.085856 115.576258 
L 187.446485 115.576258 
z
" style="fill:#bf00bf;"/>
   </g>
   <g id="BrokenBarHCollection_20">
    <path clip-path="url(#pb0af0dd4c0)" d="M 181.55067 106.992 
L 181.55067 102.699871 
L 187.446303 102.699871 
L 187.446303 106.992 
L 181.55067 106.992 
z
" style="fill:#bfbf00;"/>
   </g>
   <g id="BrokenBarHCollection_21">
    <path clip-path="url(#pb0af0dd4c0)" d="M 175.603976 98.407742 
L 175.603976 94.115613 
L 181.550491 94.115613 
L 181.550491 98.407742 
L 175.603976 98.407742 
z
"/>
   </g>
   <g id="BrokenBarHCollection_22">
    <path clip-path="url(#pb0af0dd4c0)" d="M 174.285459 89.823484 
L 174.285459 85.531355 
L 175.60383 85.531355 
L 175.60383 89.823484 
L 174.285459 89.823484 
z
"/>
   </g>
   <g id="BrokenBarHCollection_23">
    <path clip-path="url(#pb0af0dd4c0)" d="M 168.166909 81.239226 
L 168.166909 76.947097 
L 174.285291 76.947097 
L 174.285291 81.239226 
L 168.166909 81.239226 
z
"/>
   </g>
   <g id="BrokenBarHCollection_24">
    <path clip-path="url(#pb0af0dd4c0)" d="M 156.0863 72.654968 
L 156.0863 68.362839 
L 168.166691 68.362839 
L 168.166691 72.654968 
L 156.0863 72.654968 
z
"/>
   </g>
   <g id="BrokenBarHCollection_25">
    <path clip-path="url(#pb0af0dd4c0)" d="M 154.048396 64.07071 
L 154.048396 59.778581 
L 156.086159 59.778581 
L 156.086159 64.07071 
L 154.048396 64.07071 
z
"/>
   </g>
   <g id="BrokenBarHCollection_26">
    <path clip-path="url(#pb0af0dd4c0)" d="M 148.703816 55.486452 
L 148.703816 51.194323 
L 154.048227 51.194323 
L 154.048227 55.486452 
L 148.703816 55.486452 
z
"/>
   </g>
   <g id="BrokenBarHCollection_27">
    <path clip-path="url(#pb0af0dd4c0)" d="M 145.298806 46.902194 
L 145.298806 42.610065 
L 148.703643 42.610065 
L 148.703643 46.902194 
L 145.298806 46.902194 
z
" style="fill:#1f77b4;"/>
   </g>
   <g id="BrokenBarHCollection_28">
    <path clip-path="url(#pb0af0dd4c0)" d="M 133.768512 38.317935 
L 133.768512 34.025806 
L 145.298534 34.025806 
L 145.298534 38.317935 
L 133.768512 38.317935 
z
" style="fill:#ff7f0e;"/>
   </g>
   <g id="BrokenBarHCollection_29">
    <path clip-path="url(#pb0af0dd4c0)" d="M 121.549997 29.733677 
L 121.549997 25.441548 
L 133.768238 25.441548 
L 133.768238 29.733677 
L 121.549997 29.733677 
z
" style="fill:#7f7f7f;"/>
   </g>
   <g id="BrokenBarHCollection_30">
    <path clip-path="url(#pb0af0dd4c0)" d="M 111.057614 21.149419 
L 111.057614 16.85729 
L 121.549772 16.85729 
L 121.549772 21.149419 
L 111.057614 21.149419 
z
" style="fill:#7f7f7f;"/>
   </g>
   <g id="BrokenBarHCollection_31">
    <path clip-path="url(#pb0af0dd4c0)" d="M 109.150228 12.565161 
L 109.150228 8.273032 
L 111.057271 8.273032 
L 111.057271 12.565161 
L 109.150228 12.565161 
z
" style="fill:#8c564b;"/>
   </g>
   <g id="matplotlib.axis_1">
    <g id="xtick_1">
     <g id="line2d_1">
      <path clip-path="url(#pb0af0dd4c0)" d="M 109.15 273.312 
L 109.15 7.2 
" style="fill:none;stroke:#b0b0b0;stroke-linecap:square;stroke-width:0.8;"/>
     </g>
     <g id="line2d_2">
      <defs>
       <path d="M 0 0 
L 0 3.5 
" id="m789746b742" style="stroke:#000000;stroke-width:0.8;"/>
      </defs>
      <g>
       <use style="stroke:#000000;stroke-width:0.8;" x="109.15" xlink:href="#m789746b742" y="273.312"/>
      </g>
     </g>
     <g id="text_1">
      <!-- 0 -->
      <defs>
       <path d="M 31.78125 66.40625 
Q 24.171875 66.40625 20.328125 58.90625 
Q 16.5 51.421875 16.5 36.375 
Q 16.5 21.390625 20.328125 13.890625 
Q 24.171875 6.390625 31.78125 6.390625 
Q 39.453125 6.390625 43.28125 13.890625 
Q 47.125 21.390625 47.125 36.375 
Q 47.125 51.421875 43.28125 58.90625 
Q 39.453125 66.40625 31.78125 66.40625 
z
M 31.78125 74.21875 
Q 44.046875 74.21875 50.515625 64.515625 
Q 56.984375 54.828125 56.984375 36.375 
Q 56.984375 17.96875 50.515625 8.265625 
Q 44.046875 -1.421875 31.78125 -1.421875 
Q 19.53125 -1.421875 13.0625 8.265625 
Q 6.59375 17.96875 6.59375 36.375 
Q 6.59375 54.828125 13.0625 64.515625 
Q 19.53125 74.21875 31.78125 74.21875 
z
" id="DejaVuSans-48"/>
      </defs>
      <g transform="translate(105.96875 287.910437)scale(0.1 -0.1)">
       <use xlink:href="#DejaVuSans-48"/>
      </g>
     </g>
    </g>
    <g id="xtick_2">
     <g id="line2d_3">
      <path clip-path="url(#pb0af0dd4c0)" d="M 157.761021 273.312 
L 157.761021 7.2 
" style="fill:none;stroke:#b0b0b0;stroke-linecap:square;stroke-width:0.8;"/>
     </g>
     <g id="line2d_4">
      <g>
       <use style="stroke:#000000;stroke-width:0.8;" x="157.761021" xlink:href="#m789746b742" y="273.312"/>
      </g>
     </g>
     <g id="text_2">
      <!-- 100 -->
      <defs>
       <path d="M 12.40625 8.296875 
L 28.515625 8.296875 
L 28.515625 63.921875 
L 10.984375 60.40625 
L 10.984375 69.390625 
L 28.421875 72.90625 
L 38.28125 72.90625 
L 38.28125 8.296875 
L 54.390625 8.296875 
L 54.390625 0 
L 12.40625 0 
z
" id="DejaVuSans-49"/>
      </defs>
      <g transform="translate(148.217271 287.910437)scale(0.1 -0.1)">
       <use xlink:href="#DejaVuSans-49"/>
       <use x="63.623047" xlink:href="#DejaVuSans-48"/>
       <use x="127.246094" xlink:href="#DejaVuSans-48"/>
      </g>
     </g>
    </g>
    <g id="xtick_3">
     <g id="line2d_5">
      <path clip-path="url(#pb0af0dd4c0)" d="M 206.372041 273.312 
L 206.372041 7.2 
" style="fill:none;stroke:#b0b0b0;stroke-linecap:square;stroke-width:0.8;"/>
     </g>
     <g id="line2d_6">
      <g>
       <use style="stroke:#000000;stroke-width:0.8;" x="206.372041" xlink:href="#m789746b742" y="273.312"/>
      </g>
     </g>
     <g id="text_3">
      <!-- 200 -->
      <defs>
       <path d="M 19.1875 8.296875 
L 53.609375 8.296875 
L 53.609375 0 
L 7.328125 0 
L 7.328125 8.296875 
Q 12.9375 14.109375 22.625 23.890625 
Q 32.328125 33.6875 34.8125 36.53125 
Q 39.546875 41.84375 41.421875 45.53125 
Q 43.3125 49.21875 43.3125 52.78125 
Q 43.3125 58.59375 39.234375 62.25 
Q 35.15625 65.921875 28.609375 65.921875 
Q 23.96875 65.921875 18.8125 64.3125 
Q 13.671875 62.703125 7.8125 59.421875 
L 7.8125 69.390625 
Q 13.765625 71.78125 18.9375 73 
Q 24.125 74.21875 28.421875 74.21875 
Q 39.75 74.21875 46.484375 68.546875 
Q 53.21875 62.890625 53.21875 53.421875 
Q 53.21875 48.921875 51.53125 44.890625 
Q 49.859375 40.875 45.40625 35.40625 
Q 44.1875 33.984375 37.640625 27.21875 
Q 31.109375 20.453125 19.1875 8.296875 
z
" id="DejaVuSans-50"/>
      </defs>
      <g transform="translate(196.828291 287.910437)scale(0.1 -0.1)">
       <use xlink:href="#DejaVuSans-50"/>
       <use x="63.623047" xlink:href="#DejaVuSans-48"/>
       <use x="127.246094" xlink:href="#DejaVuSans-48"/>
      </g>
     </g>
    </g>
    <g id="xtick_4">
     <g id="line2d_7">
      <path clip-path="url(#pb0af0dd4c0)" d="M 254.983062 273.312 
L 254.983062 7.2 
" style="fill:none;stroke:#b0b0b0;stroke-linecap:square;stroke-width:0.8;"/>
     </g>
     <g id="line2d_8">
      <g>
       <use style="stroke:#000000;stroke-width:0.8;" x="254.983062" xlink:href="#m789746b742" y="273.312"/>
      </g>
     </g>
     <g id="text_4">
      <!-- 300 -->
      <defs>
       <path d="M 40.578125 39.3125 
Q 47.65625 37.796875 51.625 33 
Q 55.609375 28.21875 55.609375 21.1875 
Q 55.609375 10.40625 48.1875 4.484375 
Q 40.765625 -1.421875 27.09375 -1.421875 
Q 22.515625 -1.421875 17.65625 -0.515625 
Q 12.796875 0.390625 7.625 2.203125 
L 7.625 11.71875 
Q 11.71875 9.328125 16.59375 8.109375 
Q 21.484375 6.890625 26.8125 6.890625 
Q 36.078125 6.890625 40.9375 10.546875 
Q 45.796875 14.203125 45.796875 21.1875 
Q 45.796875 27.640625 41.28125 31.265625 
Q 36.765625 34.90625 28.71875 34.90625 
L 20.21875 34.90625 
L 20.21875 43.015625 
L 29.109375 43.015625 
Q 36.375 43.015625 40.234375 45.921875 
Q 44.09375 48.828125 44.09375 54.296875 
Q 44.09375 59.90625 40.109375 62.90625 
Q 36.140625 65.921875 28.71875 65.921875 
Q 24.65625 65.921875 20.015625 65.03125 
Q 15.375 64.15625 9.8125 62.3125 
L 9.8125 71.09375 
Q 15.4375 72.65625 20.34375 73.4375 
Q 25.25 74.21875 29.59375 74.21875 
Q 40.828125 74.21875 47.359375 69.109375 
Q 53.90625 64.015625 53.90625 55.328125 
Q 53.90625 49.265625 50.4375 45.09375 
Q 46.96875 40.921875 40.578125 39.3125 
z
" id="DejaVuSans-51"/>
      </defs>
      <g transform="translate(245.439312 287.910437)scale(0.1 -0.1)">
       <use xlink:href="#DejaVuSans-51"/>
       <use x="63.623047" xlink:href="#DejaVuSans-48"/>
       <use x="127.246094" xlink:href="#DejaVuSans-48"/>
      </g>
     </g>
    </g>
    <g id="xtick_5">
     <g id="line2d_9">
      <path clip-path="url(#pb0af0dd4c0)" d="M 303.594082 273.312 
L 303.594082 7.2 
" style="fill:none;stroke:#b0b0b0;stroke-linecap:square;stroke-width:0.8;"/>
     </g>
     <g id="line2d_10">
      <g>
       <use style="stroke:#000000;stroke-width:0.8;" x="303.594082" xlink:href="#m789746b742" y="273.312"/>
      </g>
     </g>
     <g id="text_5">
      <!-- 400 -->
      <defs>
       <path d="M 37.796875 64.3125 
L 12.890625 25.390625 
L 37.796875 25.390625 
z
M 35.203125 72.90625 
L 47.609375 72.90625 
L 47.609375 25.390625 
L 58.015625 25.390625 
L 58.015625 17.1875 
L 47.609375 17.1875 
L 47.609375 0 
L 37.796875 0 
L 37.796875 17.1875 
L 4.890625 17.1875 
L 4.890625 26.703125 
z
" id="DejaVuSans-52"/>
      </defs>
      <g transform="translate(294.050332 287.910437)scale(0.1 -0.1)">
       <use xlink:href="#DejaVuSans-52"/>
       <use x="63.623047" xlink:href="#DejaVuSans-48"/>
       <use x="127.246094" xlink:href="#DejaVuSans-48"/>
      </g>
     </g>
    </g>
    <g id="xtick_6">
     <g id="line2d_11">
      <path clip-path="url(#pb0af0dd4c0)" d="M 352.205103 273.312 
L 352.205103 7.2 
" style="fill:none;stroke:#b0b0b0;stroke-linecap:square;stroke-width:0.8;"/>
     </g>
     <g id="line2d_12">
      <g>
       <use style="stroke:#000000;stroke-width:0.8;" x="352.205103" xlink:href="#m789746b742" y="273.312"/>
      </g>
     </g>
     <g id="text_6">
      <!-- 500 -->
      <defs>
       <path d="M 10.796875 72.90625 
L 49.515625 72.90625 
L 49.515625 64.59375 
L 19.828125 64.59375 
L 19.828125 46.734375 
Q 21.96875 47.46875 24.109375 47.828125 
Q 26.265625 48.1875 28.421875 48.1875 
Q 40.625 48.1875 47.75 41.5 
Q 54.890625 34.8125 54.890625 23.390625 
Q 54.890625 11.625 47.5625 5.09375 
Q 40.234375 -1.421875 26.90625 -1.421875 
Q 22.3125 -1.421875 17.546875 -0.640625 
Q 12.796875 0.140625 7.71875 1.703125 
L 7.71875 11.625 
Q 12.109375 9.234375 16.796875 8.0625 
Q 21.484375 6.890625 26.703125 6.890625 
Q 35.15625 6.890625 40.078125 11.328125 
Q 45.015625 15.765625 45.015625 23.390625 
Q 45.015625 31 40.078125 35.4375 
Q 35.15625 39.890625 26.703125 39.890625 
Q 22.75 39.890625 18.8125 39.015625 
Q 14.890625 38.140625 10.796875 36.28125 
z
" id="DejaVuSans-53"/>
      </defs>
      <g transform="translate(342.661353 287.910437)scale(0.1 -0.1)">
       <use xlink:href="#DejaVuSans-53"/>
       <use x="63.623047" xlink:href="#DejaVuSans-48"/>
       <use x="127.246094" xlink:href="#DejaVuSans-48"/>
      </g>
     </g>
    </g>
    <g id="xtick_7">
     <g id="line2d_13">
      <path clip-path="url(#pb0af0dd4c0)" d="M 400.816123 273.312 
L 400.816123 7.2 
" style="fill:none;stroke:#b0b0b0;stroke-linecap:square;stroke-width:0.8;"/>
     </g>
     <g id="line2d_14">
      <g>
       <use style="stroke:#000000;stroke-width:0.8;" x="400.816123" xlink:href="#m789746b742" y="273.312"/>
      </g>
     </g>
     <g id="text_7">
      <!-- 600 -->
      <defs>
       <path d="M 33.015625 40.375 
Q 26.375 40.375 22.484375 35.828125 
Q 18.609375 31.296875 18.609375 23.390625 
Q 18.609375 15.53125 22.484375 10.953125 
Q 26.375 6.390625 33.015625 6.390625 
Q 39.65625 6.390625 43.53125 10.953125 
Q 47.40625 15.53125 47.40625 23.390625 
Q 47.40625 31.296875 43.53125 35.828125 
Q 39.65625 40.375 33.015625 40.375 
z
M 52.59375 71.296875 
L 52.59375 62.3125 
Q 48.875 64.0625 45.09375 64.984375 
Q 41.3125 65.921875 37.59375 65.921875 
Q 27.828125 65.921875 22.671875 59.328125 
Q 17.53125 52.734375 16.796875 39.40625 
Q 19.671875 43.65625 24.015625 45.921875 
Q 28.375 48.1875 33.59375 48.1875 
Q 44.578125 48.1875 50.953125 41.515625 
Q 57.328125 34.859375 57.328125 23.390625 
Q 57.328125 12.15625 50.6875 5.359375 
Q 44.046875 -1.421875 33.015625 -1.421875 
Q 20.359375 -1.421875 13.671875 8.265625 
Q 6.984375 17.96875 6.984375 36.375 
Q 6.984375 53.65625 15.1875 63.9375 
Q 23.390625 74.21875 37.203125 74.21875 
Q 40.921875 74.21875 44.703125 73.484375 
Q 48.484375 72.75 52.59375 71.296875 
z
" id="DejaVuSans-54"/>
      </defs>
      <g transform="translate(391.272373 287.910437)scale(0.1 -0.1)">
       <use xlink:href="#DejaVuSans-54"/>
       <use x="63.623047" xlink:href="#DejaVuSans-48"/>
       <use x="127.246094" xlink:href="#DejaVuSans-48"/>
      </g>
     </g>
    </g>
    <g id="xtick_8">
     <g id="line2d_15">
      <path clip-path="url(#pb0af0dd4c0)" d="M 449.427144 273.312 
L 449.427144 7.2 
" style="fill:none;stroke:#b0b0b0;stroke-linecap:square;stroke-width:0.8;"/>
     </g>
     <g id="line2d_16">
      <g>
       <use style="stroke:#000000;stroke-width:0.8;" x="449.427144" xlink:href="#m789746b742" y="273.312"/>
      </g>
     </g>
     <g id="text_8">
      <!-- 700 -->
      <defs>
       <path d="M 8.203125 72.90625 
L 55.078125 72.90625 
L 55.078125 68.703125 
L 28.609375 0 
L 18.3125 0 
L 43.21875 64.59375 
L 8.203125 64.59375 
z
" id="DejaVuSans-55"/>
      </defs>
      <g transform="translate(439.883394 287.910437)scale(0.1 -0.1)">
       <use xlink:href="#DejaVuSans-55"/>
       <use x="63.623047" xlink:href="#DejaVuSans-48"/>
       <use x="127.246094" xlink:href="#DejaVuSans-48"/>
      </g>
     </g>
    </g>
    <g id="text_9">
     <!-- Time (s) -->
     <defs>
      <path d="M -0.296875 72.90625 
L 61.375 72.90625 
L 61.375 64.59375 
L 35.5 64.59375 
L 35.5 0 
L 25.59375 0 
L 25.59375 64.59375 
L -0.296875 64.59375 
z
" id="DejaVuSans-84"/>
      <path d="M 9.421875 54.6875 
L 18.40625 54.6875 
L 18.40625 0 
L 9.421875 0 
z
M 9.421875 75.984375 
L 18.40625 75.984375 
L 18.40625 64.59375 
L 9.421875 64.59375 
z
" id="DejaVuSans-105"/>
      <path d="M 52 44.1875 
Q 55.375 50.25 60.0625 53.125 
Q 64.75 56 71.09375 56 
Q 79.640625 56 84.28125 50.015625 
Q 88.921875 44.046875 88.921875 33.015625 
L 88.921875 0 
L 79.890625 0 
L 79.890625 32.71875 
Q 79.890625 40.578125 77.09375 44.375 
Q 74.3125 48.1875 68.609375 48.1875 
Q 61.625 48.1875 57.5625 43.546875 
Q 53.515625 38.921875 53.515625 30.90625 
L 53.515625 0 
L 44.484375 0 
L 44.484375 32.71875 
Q 44.484375 40.625 41.703125 44.40625 
Q 38.921875 48.1875 33.109375 48.1875 
Q 26.21875 48.1875 22.15625 43.53125 
Q 18.109375 38.875 18.109375 30.90625 
L 18.109375 0 
L 9.078125 0 
L 9.078125 54.6875 
L 18.109375 54.6875 
L 18.109375 46.1875 
Q 21.1875 51.21875 25.484375 53.609375 
Q 29.78125 56 35.6875 56 
Q 41.65625 56 45.828125 52.96875 
Q 50 49.953125 52 44.1875 
z
" id="DejaVuSans-109"/>
      <path d="M 56.203125 29.59375 
L 56.203125 25.203125 
L 14.890625 25.203125 
Q 15.484375 15.921875 20.484375 11.0625 
Q 25.484375 6.203125 34.421875 6.203125 
Q 39.59375 6.203125 44.453125 7.46875 
Q 49.3125 8.734375 54.109375 11.28125 
L 54.109375 2.78125 
Q 49.265625 0.734375 44.1875 -0.34375 
Q 39.109375 -1.421875 33.890625 -1.421875 
Q 20.796875 -1.421875 13.15625 6.1875 
Q 5.515625 13.8125 5.515625 26.8125 
Q 5.515625 40.234375 12.765625 48.109375 
Q 20.015625 56 32.328125 56 
Q 43.359375 56 49.78125 48.890625 
Q 56.203125 41.796875 56.203125 29.59375 
z
M 47.21875 32.234375 
Q 47.125 39.59375 43.09375 43.984375 
Q 39.0625 48.390625 32.421875 48.390625 
Q 24.90625 48.390625 20.390625 44.140625 
Q 15.875 39.890625 15.1875 32.171875 
z
" id="DejaVuSans-101"/>
      <path id="DejaVuSans-32"/>
      <path d="M 31 75.875 
Q 24.46875 64.65625 21.28125 53.65625 
Q 18.109375 42.671875 18.109375 31.390625 
Q 18.109375 20.125 21.3125 9.0625 
Q 24.515625 -2 31 -13.1875 
L 23.1875 -13.1875 
Q 15.875 -1.703125 12.234375 9.375 
Q 8.59375 20.453125 8.59375 31.390625 
Q 8.59375 42.28125 12.203125 53.3125 
Q 15.828125 64.359375 23.1875 75.875 
z
" id="DejaVuSans-40"/>
      <path d="M 44.28125 53.078125 
L 44.28125 44.578125 
Q 40.484375 46.53125 36.375 47.5 
Q 32.28125 48.484375 27.875 48.484375 
Q 21.1875 48.484375 17.84375 46.4375 
Q 14.5 44.390625 14.5 40.28125 
Q 14.5 37.15625 16.890625 35.375 
Q 19.28125 33.59375 26.515625 31.984375 
L 29.59375 31.296875 
Q 39.15625 29.25 43.1875 25.515625 
Q 47.21875 21.78125 47.21875 15.09375 
Q 47.21875 7.46875 41.1875 3.015625 
Q 35.15625 -1.421875 24.609375 -1.421875 
Q 20.21875 -1.421875 15.453125 -0.5625 
Q 10.6875 0.296875 5.421875 2 
L 5.421875 11.28125 
Q 10.40625 8.6875 15.234375 7.390625 
Q 20.0625 6.109375 24.8125 6.109375 
Q 31.15625 6.109375 34.5625 8.28125 
Q 37.984375 10.453125 37.984375 14.40625 
Q 37.984375 18.0625 35.515625 20.015625 
Q 33.0625 21.96875 24.703125 23.78125 
L 21.578125 24.515625 
Q 13.234375 26.265625 9.515625 29.90625 
Q 5.8125 33.546875 5.8125 39.890625 
Q 5.8125 47.609375 11.28125 51.796875 
Q 16.75 56 26.8125 56 
Q 31.78125 56 36.171875 55.265625 
Q 40.578125 54.546875 44.28125 53.078125 
z
" id="DejaVuSans-115"/>
      <path d="M 8.015625 75.875 
L 15.828125 75.875 
Q 23.140625 64.359375 26.78125 53.3125 
Q 30.421875 42.28125 30.421875 31.390625 
Q 30.421875 20.453125 26.78125 9.375 
Q 23.140625 -1.703125 15.828125 -13.1875 
L 8.015625 -13.1875 
Q 14.5 -2 17.703125 9.0625 
Q 20.90625 20.125 20.90625 31.390625 
Q 20.90625 42.671875 17.703125 53.65625 
Q 14.5 64.65625 8.015625 75.875 
z
" id="DejaVuSans-41"/>
     </defs>
     <g transform="translate(267.227188 301.588562)scale(0.1 -0.1)">
      <use xlink:href="#DejaVuSans-84"/>
      <use x="61.037109" xlink:href="#DejaVuSans-105"/>
      <use x="88.820312" xlink:href="#DejaVuSans-109"/>
      <use x="186.232422" xlink:href="#DejaVuSans-101"/>
      <use x="247.755859" xlink:href="#DejaVuSans-32"/>
      <use x="279.542969" xlink:href="#DejaVuSans-40"/>
      <use x="318.556641" xlink:href="#DejaVuSans-115"/>
      <use x="370.65625" xlink:href="#DejaVuSans-41"/>
     </g>
    </g>
   </g>
   <g id="matplotlib.axis_2">
    <g id="ytick_1">
     <g id="line2d_17">
      <path clip-path="url(#pb0af0dd4c0)" d="M 109.15 269.019871 
L 466.27 269.019871 
" style="fill:none;stroke:#b0b0b0;stroke-linecap:square;stroke-width:0.8;"/>
     </g>
     <g id="line2d_18">
      <defs>
       <path d="M 0 0 
L -3.5 0 
" id="m632de8fc4e" style="stroke:#000000;stroke-width:0.8;"/>
      </defs>
      <g>
       <use style="stroke:#000000;stroke-width:0.8;" x="109.15" xlink:href="#m632de8fc4e" y="269.019871"/>
      </g>
     </g>
     <g id="text_10">
      <!-- neutron.deploy -->
      <defs>
       <path d="M 54.890625 33.015625 
L 54.890625 0 
L 45.90625 0 
L 45.90625 32.71875 
Q 45.90625 40.484375 42.875 44.328125 
Q 39.84375 48.1875 33.796875 48.1875 
Q 26.515625 48.1875 22.3125 43.546875 
Q 18.109375 38.921875 18.109375 30.90625 
L 18.109375 0 
L 9.078125 0 
L 9.078125 54.6875 
L 18.109375 54.6875 
L 18.109375 46.1875 
Q 21.34375 51.125 25.703125 53.5625 
Q 30.078125 56 35.796875 56 
Q 45.21875 56 50.046875 50.171875 
Q 54.890625 44.34375 54.890625 33.015625 
z
" id="DejaVuSans-110"/>
       <path d="M 8.5 21.578125 
L 8.5 54.6875 
L 17.484375 54.6875 
L 17.484375 21.921875 
Q 17.484375 14.15625 20.5 10.265625 
Q 23.53125 6.390625 29.59375 6.390625 
Q 36.859375 6.390625 41.078125 11.03125 
Q 45.3125 15.671875 45.3125 23.6875 
L 45.3125 54.6875 
L 54.296875 54.6875 
L 54.296875 0 
L 45.3125 0 
L 45.3125 8.40625 
Q 42.046875 3.421875 37.71875 1 
Q 33.40625 -1.421875 27.6875 -1.421875 
Q 18.265625 -1.421875 13.375 4.4375 
Q 8.5 10.296875 8.5 21.578125 
z
M 31.109375 56 
z
" id="DejaVuSans-117"/>
       <path d="M 18.3125 70.21875 
L 18.3125 54.6875 
L 36.8125 54.6875 
L 36.8125 47.703125 
L 18.3125 47.703125 
L 18.3125 18.015625 
Q 18.3125 11.328125 20.140625 9.421875 
Q 21.96875 7.515625 27.59375 7.515625 
L 36.8125 7.515625 
L 36.8125 0 
L 27.59375 0 
Q 17.1875 0 13.234375 3.875 
Q 9.28125 7.765625 9.28125 18.015625 
L 9.28125 47.703125 
L 2.6875 47.703125 
L 2.6875 54.6875 
L 9.28125 54.6875 
L 9.28125 70.21875 
z
" id="DejaVuSans-116"/>
       <path d="M 41.109375 46.296875 
Q 39.59375 47.171875 37.8125 47.578125 
Q 36.03125 48 33.890625 48 
Q 26.265625 48 22.1875 43.046875 
Q 18.109375 38.09375 18.109375 28.8125 
L 18.109375 0 
L 9.078125 0 
L 9.078125 54.6875 
L 18.109375 54.6875 
L 18.109375 46.1875 
Q 20.953125 51.171875 25.484375 53.578125 
Q 30.03125 56 36.53125 56 
Q 37.453125 56 38.578125 55.875 
Q 39.703125 55.765625 41.0625 55.515625 
z
" id="DejaVuSans-114"/>
       <path d="M 30.609375 48.390625 
Q 23.390625 48.390625 19.1875 42.75 
Q 14.984375 37.109375 14.984375 27.296875 
Q 14.984375 17.484375 19.15625 11.84375 
Q 23.34375 6.203125 30.609375 6.203125 
Q 37.796875 6.203125 41.984375 11.859375 
Q 46.1875 17.53125 46.1875 27.296875 
Q 46.1875 37.015625 41.984375 42.703125 
Q 37.796875 48.390625 30.609375 48.390625 
z
M 30.609375 56 
Q 42.328125 56 49.015625 48.375 
Q 55.71875 40.765625 55.71875 27.296875 
Q 55.71875 13.875 49.015625 6.21875 
Q 42.328125 -1.421875 30.609375 -1.421875 
Q 18.84375 -1.421875 12.171875 6.21875 
Q 5.515625 13.875 5.515625 27.296875 
Q 5.515625 40.765625 12.171875 48.375 
Q 18.84375 56 30.609375 56 
z
" id="DejaVuSans-111"/>
       <path d="M 10.6875 12.40625 
L 21 12.40625 
L 21 0 
L 10.6875 0 
z
" id="DejaVuSans-46"/>
       <path d="M 45.40625 46.390625 
L 45.40625 75.984375 
L 54.390625 75.984375 
L 54.390625 0 
L 45.40625 0 
L 45.40625 8.203125 
Q 42.578125 3.328125 38.25 0.953125 
Q 33.9375 -1.421875 27.875 -1.421875 
Q 17.96875 -1.421875 11.734375 6.484375 
Q 5.515625 14.40625 5.515625 27.296875 
Q 5.515625 40.1875 11.734375 48.09375 
Q 17.96875 56 27.875 56 
Q 33.9375 56 38.25 53.625 
Q 42.578125 51.265625 45.40625 46.390625 
z
M 14.796875 27.296875 
Q 14.796875 17.390625 18.875 11.75 
Q 22.953125 6.109375 30.078125 6.109375 
Q 37.203125 6.109375 41.296875 11.75 
Q 45.40625 17.390625 45.40625 27.296875 
Q 45.40625 37.203125 41.296875 42.84375 
Q 37.203125 48.484375 30.078125 48.484375 
Q 22.953125 48.484375 18.875 42.84375 
Q 14.796875 37.203125 14.796875 27.296875 
z
" id="DejaVuSans-100"/>
       <path d="M 18.109375 8.203125 
L 18.109375 -20.796875 
L 9.078125 -20.796875 
L 9.078125 54.6875 
L 18.109375 54.6875 
L 18.109375 46.390625 
Q 20.953125 51.265625 25.265625 53.625 
Q 29.59375 56 35.59375 56 
Q 45.5625 56 51.78125 48.09375 
Q 58.015625 40.1875 58.015625 27.296875 
Q 58.015625 14.40625 51.78125 6.484375 
Q 45.5625 -1.421875 35.59375 -1.421875 
Q 29.59375 -1.421875 25.265625 0.953125 
Q 20.953125 3.328125 18.109375 8.203125 
z
M 48.6875 27.296875 
Q 48.6875 37.203125 44.609375 42.84375 
Q 40.53125 48.484375 33.40625 48.484375 
Q 26.265625 48.484375 22.1875 42.84375 
Q 18.109375 37.203125 18.109375 27.296875 
Q 18.109375 17.390625 22.1875 11.75 
Q 26.265625 6.109375 33.40625 6.109375 
Q 40.53125 6.109375 44.609375 11.75 
Q 48.6875 17.390625 48.6875 27.296875 
z
" id="DejaVuSans-112"/>
       <path d="M 9.421875 75.984375 
L 18.40625 75.984375 
L 18.40625 0 
L 9.421875 0 
z
" id="DejaVuSans-108"/>
       <path d="M 32.171875 -5.078125 
Q 28.375 -14.84375 24.75 -17.8125 
Q 21.140625 -20.796875 15.09375 -20.796875 
L 7.90625 -20.796875 
L 7.90625 -13.28125 
L 13.1875 -13.28125 
Q 16.890625 -13.28125 18.9375 -11.515625 
Q 21 -9.765625 23.484375 -3.21875 
L 25.09375 0.875 
L 2.984375 54.6875 
L 12.5 54.6875 
L 29.59375 11.921875 
L 46.6875 54.6875 
L 56.203125 54.6875 
z
" id="DejaVuSans-121"/>
      </defs>
      <g transform="translate(25.99375 272.81909)scale(0.1 -0.1)">
       <use xlink:href="#DejaVuSans-110"/>
       <use x="63.378906" xlink:href="#DejaVuSans-101"/>
       <use x="124.902344" xlink:href="#DejaVuSans-117"/>
       <use x="188.28125" xlink:href="#DejaVuSans-116"/>
       <use x="227.490234" xlink:href="#DejaVuSans-114"/>
       <use x="268.572266" xlink:href="#DejaVuSans-111"/>
       <use x="329.753906" xlink:href="#DejaVuSans-110"/>
       <use x="393.132812" xlink:href="#DejaVuSans-46"/>
       <use x="424.919922" xlink:href="#DejaVuSans-100"/>
       <use x="488.396484" xlink:href="#DejaVuSans-101"/>
       <use x="549.919922" xlink:href="#DejaVuSans-112"/>
       <use x="613.396484" xlink:href="#DejaVuSans-108"/>
       <use x="641.179688" xlink:href="#DejaVuSans-111"/>
       <use x="702.361328" xlink:href="#DejaVuSans-121"/>
      </g>
     </g>
    </g>
    <g id="ytick_2">
     <g id="line2d_19">
      <path clip-path="url(#pb0af0dd4c0)" d="M 109.15 260.435613 
L 466.27 260.435613 
" style="fill:none;stroke:#b0b0b0;stroke-linecap:square;stroke-width:0.8;"/>
     </g>
     <g id="line2d_20">
      <g>
       <use style="stroke:#000000;stroke-width:0.8;" x="109.15" xlink:href="#m632de8fc4e" y="260.435613"/>
      </g>
     </g>
     <g id="text_11">
      <!-- neutron.register -->
      <defs>
       <path d="M 45.40625 27.984375 
Q 45.40625 37.75 41.375 43.109375 
Q 37.359375 48.484375 30.078125 48.484375 
Q 22.859375 48.484375 18.828125 43.109375 
Q 14.796875 37.75 14.796875 27.984375 
Q 14.796875 18.265625 18.828125 12.890625 
Q 22.859375 7.515625 30.078125 7.515625 
Q 37.359375 7.515625 41.375 12.890625 
Q 45.40625 18.265625 45.40625 27.984375 
z
M 54.390625 6.78125 
Q 54.390625 -7.171875 48.1875 -13.984375 
Q 42 -20.796875 29.203125 -20.796875 
Q 24.46875 -20.796875 20.265625 -20.09375 
Q 16.0625 -19.390625 12.109375 -17.921875 
L 12.109375 -9.1875 
Q 16.0625 -11.328125 19.921875 -12.34375 
Q 23.78125 -13.375 27.78125 -13.375 
Q 36.625 -13.375 41.015625 -8.765625 
Q 45.40625 -4.15625 45.40625 5.171875 
L 45.40625 9.625 
Q 42.625 4.78125 38.28125 2.390625 
Q 33.9375 0 27.875 0 
Q 17.828125 0 11.671875 7.65625 
Q 5.515625 15.328125 5.515625 27.984375 
Q 5.515625 40.671875 11.671875 48.328125 
Q 17.828125 56 27.875 56 
Q 33.9375 56 38.28125 53.609375 
Q 42.625 51.21875 45.40625 46.390625 
L 45.40625 54.6875 
L 54.390625 54.6875 
z
" id="DejaVuSans-103"/>
      </defs>
      <g transform="translate(20.878125 264.234832)scale(0.1 -0.1)">
       <use xlink:href="#DejaVuSans-110"/>
       <use x="63.378906" xlink:href="#DejaVuSans-101"/>
       <use x="124.902344" xlink:href="#DejaVuSans-117"/>
       <use x="188.28125" xlink:href="#DejaVuSans-116"/>
       <use x="227.490234" xlink:href="#DejaVuSans-114"/>
       <use x="268.572266" xlink:href="#DejaVuSans-111"/>
       <use x="329.753906" xlink:href="#DejaVuSans-110"/>
       <use x="393.132812" xlink:href="#DejaVuSans-46"/>
       <use x="424.919922" xlink:href="#DejaVuSans-114"/>
       <use x="466.001953" xlink:href="#DejaVuSans-101"/>
       <use x="527.525391" xlink:href="#DejaVuSans-103"/>
       <use x="591.001953" xlink:href="#DejaVuSans-105"/>
       <use x="618.785156" xlink:href="#DejaVuSans-115"/>
       <use x="670.884766" xlink:href="#DejaVuSans-116"/>
       <use x="710.09375" xlink:href="#DejaVuSans-101"/>
       <use x="771.617188" xlink:href="#DejaVuSans-114"/>
      </g>
     </g>
    </g>
    <g id="ytick_3">
     <g id="line2d_21">
      <path clip-path="url(#pb0af0dd4c0)" d="M 109.15 251.851355 
L 466.27 251.851355 
" style="fill:none;stroke:#b0b0b0;stroke-linecap:square;stroke-width:0.8;"/>
     </g>
     <g id="line2d_22">
      <g>
       <use style="stroke:#000000;stroke-width:0.8;" x="109.15" xlink:href="#m632de8fc4e" y="251.851355"/>
      </g>
     </g>
     <g id="text_12">
      <!-- neutron.config -->
      <defs>
       <path d="M 48.78125 52.59375 
L 48.78125 44.1875 
Q 44.96875 46.296875 41.140625 47.34375 
Q 37.3125 48.390625 33.40625 48.390625 
Q 24.65625 48.390625 19.8125 42.84375 
Q 14.984375 37.3125 14.984375 27.296875 
Q 14.984375 17.28125 19.8125 11.734375 
Q 24.65625 6.203125 33.40625 6.203125 
Q 37.3125 6.203125 41.140625 7.25 
Q 44.96875 8.296875 48.78125 10.40625 
L 48.78125 2.09375 
Q 45.015625 0.34375 40.984375 -0.53125 
Q 36.96875 -1.421875 32.421875 -1.421875 
Q 20.0625 -1.421875 12.78125 6.34375 
Q 5.515625 14.109375 5.515625 27.296875 
Q 5.515625 40.671875 12.859375 48.328125 
Q 20.21875 56 33.015625 56 
Q 37.15625 56 41.109375 55.140625 
Q 45.0625 54.296875 48.78125 52.59375 
z
" id="DejaVuSans-99"/>
       <path d="M 37.109375 75.984375 
L 37.109375 68.5 
L 28.515625 68.5 
Q 23.6875 68.5 21.796875 66.546875 
Q 19.921875 64.59375 19.921875 59.515625 
L 19.921875 54.6875 
L 34.71875 54.6875 
L 34.71875 47.703125 
L 19.921875 47.703125 
L 19.921875 0 
L 10.890625 0 
L 10.890625 47.703125 
L 2.296875 47.703125 
L 2.296875 54.6875 
L 10.890625 54.6875 
L 10.890625 58.5 
Q 10.890625 67.625 15.140625 71.796875 
Q 19.390625 75.984375 28.609375 75.984375 
z
" id="DejaVuSans-102"/>
      </defs>
      <g transform="translate(29.057812 255.650574)scale(0.1 -0.1)">
       <use xlink:href="#DejaVuSans-110"/>
       <use x="63.378906" xlink:href="#DejaVuSans-101"/>
       <use x="124.902344" xlink:href="#DejaVuSans-117"/>
       <use x="188.28125" xlink:href="#DejaVuSans-116"/>
       <use x="227.490234" xlink:href="#DejaVuSans-114"/>
       <use x="268.572266" xlink:href="#DejaVuSans-111"/>
       <use x="329.753906" xlink:href="#DejaVuSans-110"/>
       <use x="393.132812" xlink:href="#DejaVuSans-46"/>
       <use x="424.919922" xlink:href="#DejaVuSans-99"/>
       <use x="479.900391" xlink:href="#DejaVuSans-111"/>
       <use x="541.082031" xlink:href="#DejaVuSans-110"/>
       <use x="604.460938" xlink:href="#DejaVuSans-102"/>
       <use x="639.666016" xlink:href="#DejaVuSans-105"/>
       <use x="667.449219" xlink:href="#DejaVuSans-103"/>
      </g>
     </g>
    </g>
    <g id="ytick_4">
     <g id="line2d_23">
      <path clip-path="url(#pb0af0dd4c0)" d="M 109.15 243.267097 
L 466.27 243.267097 
" style="fill:none;stroke:#b0b0b0;stroke-linecap:square;stroke-width:0.8;"/>
     </g>
     <g id="line2d_24">
      <g>
       <use style="stroke:#000000;stroke-width:0.8;" x="109.15" xlink:href="#m632de8fc4e" y="243.267097"/>
      </g>
     </g>
     <g id="text_13">
      <!-- neutron.pull -->
      <g transform="translate(41.417188 247.066316)scale(0.1 -0.1)">
       <use xlink:href="#DejaVuSans-110"/>
       <use x="63.378906" xlink:href="#DejaVuSans-101"/>
       <use x="124.902344" xlink:href="#DejaVuSans-117"/>
       <use x="188.28125" xlink:href="#DejaVuSans-116"/>
       <use x="227.490234" xlink:href="#DejaVuSans-114"/>
       <use x="268.572266" xlink:href="#DejaVuSans-111"/>
       <use x="329.753906" xlink:href="#DejaVuSans-110"/>
       <use x="393.132812" xlink:href="#DejaVuSans-46"/>
       <use x="424.919922" xlink:href="#DejaVuSans-112"/>
       <use x="488.396484" xlink:href="#DejaVuSans-117"/>
       <use x="551.775391" xlink:href="#DejaVuSans-108"/>
       <use x="579.558594" xlink:href="#DejaVuSans-108"/>
      </g>
     </g>
    </g>
    <g id="ytick_5">
     <g id="line2d_25">
      <path clip-path="url(#pb0af0dd4c0)" d="M 109.15 234.682839 
L 466.27 234.682839 
" style="fill:none;stroke:#b0b0b0;stroke-linecap:square;stroke-width:0.8;"/>
     </g>
     <g id="line2d_26">
      <g>
       <use style="stroke:#000000;stroke-width:0.8;" x="109.15" xlink:href="#m632de8fc4e" y="234.682839"/>
      </g>
     </g>
     <g id="text_14">
      <!-- ovs.deploy -->
      <defs>
       <path d="M 2.984375 54.6875 
L 12.5 54.6875 
L 29.59375 8.796875 
L 46.6875 54.6875 
L 56.203125 54.6875 
L 35.6875 0 
L 23.484375 0 
z
" id="DejaVuSans-118"/>
      </defs>
      <g transform="translate(48.059375 238.482057)scale(0.1 -0.1)">
       <use xlink:href="#DejaVuSans-111"/>
       <use x="61.181641" xlink:href="#DejaVuSans-118"/>
       <use x="120.361328" xlink:href="#DejaVuSans-115"/>
       <use x="172.460938" xlink:href="#DejaVuSans-46"/>
       <use x="204.248047" xlink:href="#DejaVuSans-100"/>
       <use x="267.724609" xlink:href="#DejaVuSans-101"/>
       <use x="329.248047" xlink:href="#DejaVuSans-112"/>
       <use x="392.724609" xlink:href="#DejaVuSans-108"/>
       <use x="420.507812" xlink:href="#DejaVuSans-111"/>
       <use x="481.689453" xlink:href="#DejaVuSans-121"/>
      </g>
     </g>
    </g>
    <g id="ytick_6">
     <g id="line2d_27">
      <path clip-path="url(#pb0af0dd4c0)" d="M 109.15 226.098581 
L 466.27 226.098581 
" style="fill:none;stroke:#b0b0b0;stroke-linecap:square;stroke-width:0.8;"/>
     </g>
     <g id="line2d_28">
      <g>
       <use style="stroke:#000000;stroke-width:0.8;" x="109.15" xlink:href="#m632de8fc4e" y="226.098581"/>
      </g>
     </g>
     <g id="text_15">
      <!-- nova.cell_setup -->
      <defs>
       <path d="M 34.28125 27.484375 
Q 23.390625 27.484375 19.1875 25 
Q 14.984375 22.515625 14.984375 16.5 
Q 14.984375 11.71875 18.140625 8.90625 
Q 21.296875 6.109375 26.703125 6.109375 
Q 34.1875 6.109375 38.703125 11.40625 
Q 43.21875 16.703125 43.21875 25.484375 
L 43.21875 27.484375 
z
M 52.203125 31.203125 
L 52.203125 0 
L 43.21875 0 
L 43.21875 8.296875 
Q 40.140625 3.328125 35.546875 0.953125 
Q 30.953125 -1.421875 24.3125 -1.421875 
Q 15.921875 -1.421875 10.953125 3.296875 
Q 6 8.015625 6 15.921875 
Q 6 25.140625 12.171875 29.828125 
Q 18.359375 34.515625 30.609375 34.515625 
L 43.21875 34.515625 
L 43.21875 35.40625 
Q 43.21875 41.609375 39.140625 45 
Q 35.0625 48.390625 27.6875 48.390625 
Q 23 48.390625 18.546875 47.265625 
Q 14.109375 46.140625 10.015625 43.890625 
L 10.015625 52.203125 
Q 14.9375 54.109375 19.578125 55.046875 
Q 24.21875 56 28.609375 56 
Q 40.484375 56 46.34375 49.84375 
Q 52.203125 43.703125 52.203125 31.203125 
z
" id="DejaVuSans-97"/>
       <path d="M 50.984375 -16.609375 
L 50.984375 -23.578125 
L -0.984375 -23.578125 
L -0.984375 -16.609375 
z
" id="DejaVuSans-95"/>
      </defs>
      <g transform="translate(24.292187 229.897799)scale(0.1 -0.1)">
       <use xlink:href="#DejaVuSans-110"/>
       <use x="63.378906" xlink:href="#DejaVuSans-111"/>
       <use x="124.560547" xlink:href="#DejaVuSans-118"/>
       <use x="183.740234" xlink:href="#DejaVuSans-97"/>
       <use x="245.019531" xlink:href="#DejaVuSans-46"/>
       <use x="276.806641" xlink:href="#DejaVuSans-99"/>
       <use x="331.787109" xlink:href="#DejaVuSans-101"/>
       <use x="393.310547" xlink:href="#DejaVuSans-108"/>
       <use x="421.09375" xlink:href="#DejaVuSans-108"/>
       <use x="448.876953" xlink:href="#DejaVuSans-95"/>
       <use x="498.876953" xlink:href="#DejaVuSans-115"/>
       <use x="550.976562" xlink:href="#DejaVuSans-101"/>
       <use x="612.5" xlink:href="#DejaVuSans-116"/>
       <use x="651.708984" xlink:href="#DejaVuSans-117"/>
       <use x="715.087891" xlink:href="#DejaVuSans-112"/>
      </g>
     </g>
    </g>
    <g id="ytick_7">
     <g id="line2d_29">
      <path clip-path="url(#pb0af0dd4c0)" d="M 109.15 217.514323 
L 466.27 217.514323 
" style="fill:none;stroke:#b0b0b0;stroke-linecap:square;stroke-width:0.8;"/>
     </g>
     <g id="line2d_30">
      <g>
       <use style="stroke:#000000;stroke-width:0.8;" x="109.15" xlink:href="#m632de8fc4e" y="217.514323"/>
      </g>
     </g>
     <g id="text_16">
      <!-- nova.restart -->
      <g transform="translate(40.91875 221.313541)scale(0.1 -0.1)">
       <use xlink:href="#DejaVuSans-110"/>
       <use x="63.378906" xlink:href="#DejaVuSans-111"/>
       <use x="124.560547" xlink:href="#DejaVuSans-118"/>
       <use x="183.740234" xlink:href="#DejaVuSans-97"/>
       <use x="245.019531" xlink:href="#DejaVuSans-46"/>
       <use x="276.806641" xlink:href="#DejaVuSans-114"/>
       <use x="317.888672" xlink:href="#DejaVuSans-101"/>
       <use x="379.412109" xlink:href="#DejaVuSans-115"/>
       <use x="431.511719" xlink:href="#DejaVuSans-116"/>
       <use x="470.720703" xlink:href="#DejaVuSans-97"/>
       <use x="532" xlink:href="#DejaVuSans-114"/>
       <use x="573.113281" xlink:href="#DejaVuSans-116"/>
      </g>
     </g>
    </g>
    <g id="ytick_8">
     <g id="line2d_31">
      <path clip-path="url(#pb0af0dd4c0)" d="M 109.15 208.930065 
L 466.27 208.930065 
" style="fill:none;stroke:#b0b0b0;stroke-linecap:square;stroke-width:0.8;"/>
     </g>
     <g id="line2d_32">
      <g>
       <use style="stroke:#000000;stroke-width:0.8;" x="109.15" xlink:href="#m632de8fc4e" y="208.930065"/>
      </g>
     </g>
     <g id="text_17">
      <!-- nova.upapidb -->
      <defs>
       <path d="M 48.6875 27.296875 
Q 48.6875 37.203125 44.609375 42.84375 
Q 40.53125 48.484375 33.40625 48.484375 
Q 26.265625 48.484375 22.1875 42.84375 
Q 18.109375 37.203125 18.109375 27.296875 
Q 18.109375 17.390625 22.1875 11.75 
Q 26.265625 6.109375 33.40625 6.109375 
Q 40.53125 6.109375 44.609375 11.75 
Q 48.6875 17.390625 48.6875 27.296875 
z
M 18.109375 46.390625 
Q 20.953125 51.265625 25.265625 53.625 
Q 29.59375 56 35.59375 56 
Q 45.5625 56 51.78125 48.09375 
Q 58.015625 40.1875 58.015625 27.296875 
Q 58.015625 14.40625 51.78125 6.484375 
Q 45.5625 -1.421875 35.59375 -1.421875 
Q 29.59375 -1.421875 25.265625 0.953125 
Q 20.953125 3.328125 18.109375 8.203125 
L 18.109375 0 
L 9.078125 0 
L 9.078125 75.984375 
L 18.109375 75.984375 
z
" id="DejaVuSans-98"/>
      </defs>
      <g transform="translate(33.83125 212.729283)scale(0.1 -0.1)">
       <use xlink:href="#DejaVuSans-110"/>
       <use x="63.378906" xlink:href="#DejaVuSans-111"/>
       <use x="124.560547" xlink:href="#DejaVuSans-118"/>
       <use x="183.740234" xlink:href="#DejaVuSans-97"/>
       <use x="245.019531" xlink:href="#DejaVuSans-46"/>
       <use x="276.806641" xlink:href="#DejaVuSans-117"/>
       <use x="340.185547" xlink:href="#DejaVuSans-112"/>
       <use x="403.662109" xlink:href="#DejaVuSans-97"/>
       <use x="464.941406" xlink:href="#DejaVuSans-112"/>
       <use x="528.417969" xlink:href="#DejaVuSans-105"/>
       <use x="556.201172" xlink:href="#DejaVuSans-100"/>
       <use x="619.677734" xlink:href="#DejaVuSans-98"/>
      </g>
     </g>
    </g>
    <g id="ytick_9">
     <g id="line2d_33">
      <path clip-path="url(#pb0af0dd4c0)" d="M 109.15 200.345806 
L 466.27 200.345806 
" style="fill:none;stroke:#b0b0b0;stroke-linecap:square;stroke-width:0.8;"/>
     </g>
     <g id="line2d_34">
      <g>
       <use style="stroke:#000000;stroke-width:0.8;" x="109.15" xlink:href="#m632de8fc4e" y="200.345806"/>
      </g>
     </g>
     <g id="text_18">
      <!-- nova.updb -->
      <g transform="translate(49.085938 204.145025)scale(0.1 -0.1)">
       <use xlink:href="#DejaVuSans-110"/>
       <use x="63.378906" xlink:href="#DejaVuSans-111"/>
       <use x="124.560547" xlink:href="#DejaVuSans-118"/>
       <use x="183.740234" xlink:href="#DejaVuSans-97"/>
       <use x="245.019531" xlink:href="#DejaVuSans-46"/>
       <use x="276.806641" xlink:href="#DejaVuSans-117"/>
       <use x="340.185547" xlink:href="#DejaVuSans-112"/>
       <use x="403.662109" xlink:href="#DejaVuSans-100"/>
       <use x="467.138672" xlink:href="#DejaVuSans-98"/>
      </g>
     </g>
    </g>
    <g id="ytick_10">
     <g id="line2d_35">
      <path clip-path="url(#pb0af0dd4c0)" d="M 109.15 191.761548 
L 466.27 191.761548 
" style="fill:none;stroke:#b0b0b0;stroke-linecap:square;stroke-width:0.8;"/>
     </g>
     <g id="line2d_36">
      <g>
       <use style="stroke:#000000;stroke-width:0.8;" x="109.15" xlink:href="#m632de8fc4e" y="191.761548"/>
      </g>
     </g>
     <g id="text_19">
      <!-- nova.create_db -->
      <g transform="translate(24.810937 195.560767)scale(0.1 -0.1)">
       <use xlink:href="#DejaVuSans-110"/>
       <use x="63.378906" xlink:href="#DejaVuSans-111"/>
       <use x="124.560547" xlink:href="#DejaVuSans-118"/>
       <use x="183.740234" xlink:href="#DejaVuSans-97"/>
       <use x="245.019531" xlink:href="#DejaVuSans-46"/>
       <use x="276.806641" xlink:href="#DejaVuSans-99"/>
       <use x="331.787109" xlink:href="#DejaVuSans-114"/>
       <use x="372.869141" xlink:href="#DejaVuSans-101"/>
       <use x="434.392578" xlink:href="#DejaVuSans-97"/>
       <use x="495.671875" xlink:href="#DejaVuSans-116"/>
       <use x="534.880859" xlink:href="#DejaVuSans-101"/>
       <use x="596.404297" xlink:href="#DejaVuSans-95"/>
       <use x="646.404297" xlink:href="#DejaVuSans-100"/>
       <use x="709.880859" xlink:href="#DejaVuSans-98"/>
      </g>
     </g>
    </g>
    <g id="ytick_11">
     <g id="line2d_37">
      <path clip-path="url(#pb0af0dd4c0)" d="M 109.15 183.17729 
L 466.27 183.17729 
" style="fill:none;stroke:#b0b0b0;stroke-linecap:square;stroke-width:0.8;"/>
     </g>
     <g id="line2d_38">
      <g>
       <use style="stroke:#000000;stroke-width:0.8;" x="109.15" xlink:href="#m632de8fc4e" y="183.17729"/>
      </g>
     </g>
     <g id="text_20">
      <!-- nova.register -->
      <g transform="translate(35.6875 186.976509)scale(0.1 -0.1)">
       <use xlink:href="#DejaVuSans-110"/>
       <use x="63.378906" xlink:href="#DejaVuSans-111"/>
       <use x="124.560547" xlink:href="#DejaVuSans-118"/>
       <use x="183.740234" xlink:href="#DejaVuSans-97"/>
       <use x="245.019531" xlink:href="#DejaVuSans-46"/>
       <use x="276.806641" xlink:href="#DejaVuSans-114"/>
       <use x="317.888672" xlink:href="#DejaVuSans-101"/>
       <use x="379.412109" xlink:href="#DejaVuSans-103"/>
       <use x="442.888672" xlink:href="#DejaVuSans-105"/>
       <use x="470.671875" xlink:href="#DejaVuSans-115"/>
       <use x="522.771484" xlink:href="#DejaVuSans-116"/>
       <use x="561.980469" xlink:href="#DejaVuSans-101"/>
       <use x="623.503906" xlink:href="#DejaVuSans-114"/>
      </g>
     </g>
    </g>
    <g id="ytick_12">
     <g id="line2d_39">
      <path clip-path="url(#pb0af0dd4c0)" d="M 109.15 174.593032 
L 466.27 174.593032 
" style="fill:none;stroke:#b0b0b0;stroke-linecap:square;stroke-width:0.8;"/>
     </g>
     <g id="line2d_40">
      <g>
       <use style="stroke:#000000;stroke-width:0.8;" x="109.15" xlink:href="#m632de8fc4e" y="174.593032"/>
      </g>
     </g>
     <g id="text_21">
      <!-- nova.config -->
      <g transform="translate(43.867188 178.392251)scale(0.1 -0.1)">
       <use xlink:href="#DejaVuSans-110"/>
       <use x="63.378906" xlink:href="#DejaVuSans-111"/>
       <use x="124.560547" xlink:href="#DejaVuSans-118"/>
       <use x="183.740234" xlink:href="#DejaVuSans-97"/>
       <use x="245.019531" xlink:href="#DejaVuSans-46"/>
       <use x="276.806641" xlink:href="#DejaVuSans-99"/>
       <use x="331.787109" xlink:href="#DejaVuSans-111"/>
       <use x="392.96875" xlink:href="#DejaVuSans-110"/>
       <use x="456.347656" xlink:href="#DejaVuSans-102"/>
       <use x="491.552734" xlink:href="#DejaVuSans-105"/>
       <use x="519.335938" xlink:href="#DejaVuSans-103"/>
      </g>
     </g>
    </g>
    <g id="ytick_13">
     <g id="line2d_41">
      <path clip-path="url(#pb0af0dd4c0)" d="M 109.15 166.008774 
L 466.27 166.008774 
" style="fill:none;stroke:#b0b0b0;stroke-linecap:square;stroke-width:0.8;"/>
     </g>
     <g id="line2d_42">
      <g>
       <use style="stroke:#000000;stroke-width:0.8;" x="109.15" xlink:href="#m632de8fc4e" y="166.008774"/>
      </g>
     </g>
     <g id="text_22">
      <!-- nova.pull -->
      <g transform="translate(56.226562 169.807993)scale(0.1 -0.1)">
       <use xlink:href="#DejaVuSans-110"/>
       <use x="63.378906" xlink:href="#DejaVuSans-111"/>
       <use x="124.560547" xlink:href="#DejaVuSans-118"/>
       <use x="183.740234" xlink:href="#DejaVuSans-97"/>
       <use x="245.019531" xlink:href="#DejaVuSans-46"/>
       <use x="276.806641" xlink:href="#DejaVuSans-112"/>
       <use x="340.283203" xlink:href="#DejaVuSans-117"/>
       <use x="403.662109" xlink:href="#DejaVuSans-108"/>
       <use x="431.445312" xlink:href="#DejaVuSans-108"/>
      </g>
     </g>
    </g>
    <g id="ytick_14">
     <g id="line2d_43">
      <path clip-path="url(#pb0af0dd4c0)" d="M 109.15 157.424516 
L 466.27 157.424516 
" style="fill:none;stroke:#b0b0b0;stroke-linecap:square;stroke-width:0.8;"/>
     </g>
     <g id="line2d_44">
      <g>
       <use style="stroke:#000000;stroke-width:0.8;" x="109.15" xlink:href="#m632de8fc4e" y="157.424516"/>
      </g>
     </g>
     <g id="text_23">
      <!-- glance.deploy -->
      <g transform="translate(32.0625 161.223735)scale(0.1 -0.1)">
       <use xlink:href="#DejaVuSans-103"/>
       <use x="63.476562" xlink:href="#DejaVuSans-108"/>
       <use x="91.259766" xlink:href="#DejaVuSans-97"/>
       <use x="152.539062" xlink:href="#DejaVuSans-110"/>
       <use x="215.917969" xlink:href="#DejaVuSans-99"/>
       <use x="270.898438" xlink:href="#DejaVuSans-101"/>
       <use x="332.421875" xlink:href="#DejaVuSans-46"/>
       <use x="364.208984" xlink:href="#DejaVuSans-100"/>
       <use x="427.685547" xlink:href="#DejaVuSans-101"/>
       <use x="489.208984" xlink:href="#DejaVuSans-112"/>
       <use x="552.685547" xlink:href="#DejaVuSans-108"/>
       <use x="580.46875" xlink:href="#DejaVuSans-111"/>
       <use x="641.650391" xlink:href="#DejaVuSans-121"/>
      </g>
     </g>
    </g>
    <g id="ytick_15">
     <g id="line2d_45">
      <path clip-path="url(#pb0af0dd4c0)" d="M 109.15 148.840258 
L 466.27 148.840258 
" style="fill:none;stroke:#b0b0b0;stroke-linecap:square;stroke-width:0.8;"/>
     </g>
     <g id="line2d_46">
      <g>
       <use style="stroke:#000000;stroke-width:0.8;" x="109.15" xlink:href="#m632de8fc4e" y="148.840258"/>
      </g>
     </g>
     <g id="text_24">
      <!-- glance.register -->
      <g transform="translate(26.946875 152.639477)scale(0.1 -0.1)">
       <use xlink:href="#DejaVuSans-103"/>
       <use x="63.476562" xlink:href="#DejaVuSans-108"/>
       <use x="91.259766" xlink:href="#DejaVuSans-97"/>
       <use x="152.539062" xlink:href="#DejaVuSans-110"/>
       <use x="215.917969" xlink:href="#DejaVuSans-99"/>
       <use x="270.898438" xlink:href="#DejaVuSans-101"/>
       <use x="332.421875" xlink:href="#DejaVuSans-46"/>
       <use x="364.208984" xlink:href="#DejaVuSans-114"/>
       <use x="405.291016" xlink:href="#DejaVuSans-101"/>
       <use x="466.814453" xlink:href="#DejaVuSans-103"/>
       <use x="530.291016" xlink:href="#DejaVuSans-105"/>
       <use x="558.074219" xlink:href="#DejaVuSans-115"/>
       <use x="610.173828" xlink:href="#DejaVuSans-116"/>
       <use x="649.382812" xlink:href="#DejaVuSans-101"/>
       <use x="710.90625" xlink:href="#DejaVuSans-114"/>
      </g>
     </g>
    </g>
    <g id="ytick_16">
     <g id="line2d_47">
      <path clip-path="url(#pb0af0dd4c0)" d="M 109.15 140.256 
L 466.27 140.256 
" style="fill:none;stroke:#b0b0b0;stroke-linecap:square;stroke-width:0.8;"/>
     </g>
     <g id="line2d_48">
      <g>
       <use style="stroke:#000000;stroke-width:0.8;" x="109.15" xlink:href="#m632de8fc4e" y="140.256"/>
      </g>
     </g>
     <g id="text_25">
      <!-- glance.config -->
      <g transform="translate(35.126563 144.055219)scale(0.1 -0.1)">
       <use xlink:href="#DejaVuSans-103"/>
       <use x="63.476562" xlink:href="#DejaVuSans-108"/>
       <use x="91.259766" xlink:href="#DejaVuSans-97"/>
       <use x="152.539062" xlink:href="#DejaVuSans-110"/>
       <use x="215.917969" xlink:href="#DejaVuSans-99"/>
       <use x="270.898438" xlink:href="#DejaVuSans-101"/>
       <use x="332.421875" xlink:href="#DejaVuSans-46"/>
       <use x="364.208984" xlink:href="#DejaVuSans-99"/>
       <use x="419.189453" xlink:href="#DejaVuSans-111"/>
       <use x="480.371094" xlink:href="#DejaVuSans-110"/>
       <use x="543.75" xlink:href="#DejaVuSans-102"/>
       <use x="578.955078" xlink:href="#DejaVuSans-105"/>
       <use x="606.738281" xlink:href="#DejaVuSans-103"/>
      </g>
     </g>
    </g>
    <g id="ytick_17">
     <g id="line2d_49">
      <path clip-path="url(#pb0af0dd4c0)" d="M 109.15 131.671742 
L 466.27 131.671742 
" style="fill:none;stroke:#b0b0b0;stroke-linecap:square;stroke-width:0.8;"/>
     </g>
     <g id="line2d_50">
      <g>
       <use style="stroke:#000000;stroke-width:0.8;" x="109.15" xlink:href="#m632de8fc4e" y="131.671742"/>
      </g>
     </g>
     <g id="text_26">
      <!-- glance.pull -->
      <g transform="translate(47.485938 135.470961)scale(0.1 -0.1)">
       <use xlink:href="#DejaVuSans-103"/>
       <use x="63.476562" xlink:href="#DejaVuSans-108"/>
       <use x="91.259766" xlink:href="#DejaVuSans-97"/>
       <use x="152.539062" xlink:href="#DejaVuSans-110"/>
       <use x="215.917969" xlink:href="#DejaVuSans-99"/>
       <use x="270.898438" xlink:href="#DejaVuSans-101"/>
       <use x="332.421875" xlink:href="#DejaVuSans-46"/>
       <use x="364.208984" xlink:href="#DejaVuSans-112"/>
       <use x="427.685547" xlink:href="#DejaVuSans-117"/>
       <use x="491.064453" xlink:href="#DejaVuSans-108"/>
       <use x="518.847656" xlink:href="#DejaVuSans-108"/>
      </g>
     </g>
    </g>
    <g id="ytick_18">
     <g id="line2d_51">
      <path clip-path="url(#pb0af0dd4c0)" d="M 109.15 123.087484 
L 466.27 123.087484 
" style="fill:none;stroke:#b0b0b0;stroke-linecap:square;stroke-width:0.8;"/>
     </g>
     <g id="line2d_52">
      <g>
       <use style="stroke:#000000;stroke-width:0.8;" x="109.15" xlink:href="#m632de8fc4e" y="123.087484"/>
      </g>
     </g>
     <g id="text_27">
      <!-- kst.deploy -->
      <defs>
       <path d="M 9.078125 75.984375 
L 18.109375 75.984375 
L 18.109375 31.109375 
L 44.921875 54.6875 
L 56.390625 54.6875 
L 27.390625 29.109375 
L 57.625 0 
L 45.90625 0 
L 18.109375 26.703125 
L 18.109375 0 
L 9.078125 0 
z
" id="DejaVuSans-107"/>
      </defs>
      <g transform="translate(50.385938 126.886703)scale(0.1 -0.1)">
       <use xlink:href="#DejaVuSans-107"/>
       <use x="57.910156" xlink:href="#DejaVuSans-115"/>
       <use x="110.009766" xlink:href="#DejaVuSans-116"/>
       <use x="149.21875" xlink:href="#DejaVuSans-46"/>
       <use x="181.005859" xlink:href="#DejaVuSans-100"/>
       <use x="244.482422" xlink:href="#DejaVuSans-101"/>
       <use x="306.005859" xlink:href="#DejaVuSans-112"/>
       <use x="369.482422" xlink:href="#DejaVuSans-108"/>
       <use x="397.265625" xlink:href="#DejaVuSans-111"/>
       <use x="458.447266" xlink:href="#DejaVuSans-121"/>
      </g>
     </g>
    </g>
    <g id="ytick_19">
     <g id="line2d_53">
      <path clip-path="url(#pb0af0dd4c0)" d="M 109.15 114.503226 
L 466.27 114.503226 
" style="fill:none;stroke:#b0b0b0;stroke-linecap:square;stroke-width:0.8;"/>
     </g>
     <g id="line2d_54">
      <g>
       <use style="stroke:#000000;stroke-width:0.8;" x="109.15" xlink:href="#m632de8fc4e" y="114.503226"/>
      </g>
     </g>
     <g id="text_28">
      <!-- kst.pull -->
      <g transform="translate(65.809375 118.302445)scale(0.1 -0.1)">
       <use xlink:href="#DejaVuSans-107"/>
       <use x="57.910156" xlink:href="#DejaVuSans-115"/>
       <use x="110.009766" xlink:href="#DejaVuSans-116"/>
       <use x="149.21875" xlink:href="#DejaVuSans-46"/>
       <use x="181.005859" xlink:href="#DejaVuSans-112"/>
       <use x="244.482422" xlink:href="#DejaVuSans-117"/>
       <use x="307.861328" xlink:href="#DejaVuSans-108"/>
       <use x="335.644531" xlink:href="#DejaVuSans-108"/>
      </g>
     </g>
    </g>
    <g id="ytick_20">
     <g id="line2d_55">
      <path clip-path="url(#pb0af0dd4c0)" d="M 109.15 105.918968 
L 466.27 105.918968 
" style="fill:none;stroke:#b0b0b0;stroke-linecap:square;stroke-width:0.8;"/>
     </g>
     <g id="line2d_56">
      <g>
       <use style="stroke:#000000;stroke-width:0.8;" x="109.15" xlink:href="#m632de8fc4e" y="105.918968"/>
      </g>
     </g>
     <g id="text_29">
      <!-- rmq.deploy -->
      <defs>
       <path d="M 14.796875 27.296875 
Q 14.796875 17.390625 18.875 11.75 
Q 22.953125 6.109375 30.078125 6.109375 
Q 37.203125 6.109375 41.296875 11.75 
Q 45.40625 17.390625 45.40625 27.296875 
Q 45.40625 37.203125 41.296875 42.84375 
Q 37.203125 48.484375 30.078125 48.484375 
Q 22.953125 48.484375 18.875 42.84375 
Q 14.796875 37.203125 14.796875 27.296875 
z
M 45.40625 8.203125 
Q 42.578125 3.328125 38.25 0.953125 
Q 33.9375 -1.421875 27.875 -1.421875 
Q 17.96875 -1.421875 11.734375 6.484375 
Q 5.515625 14.40625 5.515625 27.296875 
Q 5.515625 40.1875 11.734375 48.09375 
Q 17.96875 56 27.875 56 
Q 33.9375 56 38.25 53.625 
Q 42.578125 51.265625 45.40625 46.390625 
L 45.40625 54.6875 
L 54.390625 54.6875 
L 54.390625 -20.796875 
L 45.40625 -20.796875 
z
" id="DejaVuSans-113"/>
      </defs>
      <g transform="translate(45.107813 109.718186)scale(0.1 -0.1)">
       <use xlink:href="#DejaVuSans-114"/>
       <use x="41.097656" xlink:href="#DejaVuSans-109"/>
       <use x="138.509766" xlink:href="#DejaVuSans-113"/>
       <use x="201.986328" xlink:href="#DejaVuSans-46"/>
       <use x="233.773438" xlink:href="#DejaVuSans-100"/>
       <use x="297.25" xlink:href="#DejaVuSans-101"/>
       <use x="358.773438" xlink:href="#DejaVuSans-112"/>
       <use x="422.25" xlink:href="#DejaVuSans-108"/>
       <use x="450.033203" xlink:href="#DejaVuSans-111"/>
       <use x="511.214844" xlink:href="#DejaVuSans-121"/>
      </g>
     </g>
    </g>
    <g id="ytick_21">
     <g id="line2d_57">
      <path clip-path="url(#pb0af0dd4c0)" d="M 109.15 97.33471 
L 466.27 97.33471 
" style="fill:none;stroke:#b0b0b0;stroke-linecap:square;stroke-width:0.8;"/>
     </g>
     <g id="line2d_58">
      <g>
       <use style="stroke:#000000;stroke-width:0.8;" x="109.15" xlink:href="#m632de8fc4e" y="97.33471"/>
      </g>
     </g>
     <g id="text_30">
      <!-- mdb.check -->
      <defs>
       <path d="M 54.890625 33.015625 
L 54.890625 0 
L 45.90625 0 
L 45.90625 32.71875 
Q 45.90625 40.484375 42.875 44.328125 
Q 39.84375 48.1875 33.796875 48.1875 
Q 26.515625 48.1875 22.3125 43.546875 
Q 18.109375 38.921875 18.109375 30.90625 
L 18.109375 0 
L 9.078125 0 
L 9.078125 75.984375 
L 18.109375 75.984375 
L 18.109375 46.1875 
Q 21.34375 51.125 25.703125 53.5625 
Q 30.078125 56 35.796875 56 
Q 45.21875 56 50.046875 50.171875 
Q 54.890625 44.34375 54.890625 33.015625 
z
" id="DejaVuSans-104"/>
      </defs>
      <g transform="translate(47.25625 101.133928)scale(0.1 -0.1)">
       <use xlink:href="#DejaVuSans-109"/>
       <use x="97.412109" xlink:href="#DejaVuSans-100"/>
       <use x="160.888672" xlink:href="#DejaVuSans-98"/>
       <use x="224.365234" xlink:href="#DejaVuSans-46"/>
       <use x="256.152344" xlink:href="#DejaVuSans-99"/>
       <use x="311.132812" xlink:href="#DejaVuSans-104"/>
       <use x="374.511719" xlink:href="#DejaVuSans-101"/>
       <use x="436.035156" xlink:href="#DejaVuSans-99"/>
       <use x="491.015625" xlink:href="#DejaVuSans-107"/>
      </g>
     </g>
    </g>
    <g id="ytick_22">
     <g id="line2d_59">
      <path clip-path="url(#pb0af0dd4c0)" d="M 109.15 88.750452 
L 466.27 88.750452 
" style="fill:none;stroke:#b0b0b0;stroke-linecap:square;stroke-width:0.8;"/>
     </g>
     <g id="line2d_60">
      <g>
       <use style="stroke:#000000;stroke-width:0.8;" x="109.15" xlink:href="#m632de8fc4e" y="88.750452"/>
      </g>
     </g>
     <g id="text_31">
      <!-- mdb.register -->
      <g transform="translate(37.753125 92.54967)scale(0.1 -0.1)">
       <use xlink:href="#DejaVuSans-109"/>
       <use x="97.412109" xlink:href="#DejaVuSans-100"/>
       <use x="160.888672" xlink:href="#DejaVuSans-98"/>
       <use x="224.365234" xlink:href="#DejaVuSans-46"/>
       <use x="256.152344" xlink:href="#DejaVuSans-114"/>
       <use x="297.234375" xlink:href="#DejaVuSans-101"/>
       <use x="358.757812" xlink:href="#DejaVuSans-103"/>
       <use x="422.234375" xlink:href="#DejaVuSans-105"/>
       <use x="450.017578" xlink:href="#DejaVuSans-115"/>
       <use x="502.117188" xlink:href="#DejaVuSans-116"/>
       <use x="541.326172" xlink:href="#DejaVuSans-101"/>
       <use x="602.849609" xlink:href="#DejaVuSans-114"/>
      </g>
     </g>
    </g>
    <g id="ytick_23">
     <g id="line2d_61">
      <path clip-path="url(#pb0af0dd4c0)" d="M 109.15 80.166194 
L 466.27 80.166194 
" style="fill:none;stroke:#b0b0b0;stroke-linecap:square;stroke-width:0.8;"/>
     </g>
     <g id="line2d_62">
      <g>
       <use style="stroke:#000000;stroke-width:0.8;" x="109.15" xlink:href="#m632de8fc4e" y="80.166194"/>
      </g>
     </g>
     <g id="text_32">
      <!-- mdb.restart -->
      <g transform="translate(42.984375 83.965412)scale(0.1 -0.1)">
       <use xlink:href="#DejaVuSans-109"/>
       <use x="97.412109" xlink:href="#DejaVuSans-100"/>
       <use x="160.888672" xlink:href="#DejaVuSans-98"/>
       <use x="224.365234" xlink:href="#DejaVuSans-46"/>
       <use x="256.152344" xlink:href="#DejaVuSans-114"/>
       <use x="297.234375" xlink:href="#DejaVuSans-101"/>
       <use x="358.757812" xlink:href="#DejaVuSans-115"/>
       <use x="410.857422" xlink:href="#DejaVuSans-116"/>
       <use x="450.066406" xlink:href="#DejaVuSans-97"/>
       <use x="511.345703" xlink:href="#DejaVuSans-114"/>
       <use x="552.458984" xlink:href="#DejaVuSans-116"/>
      </g>
     </g>
    </g>
    <g id="ytick_24">
     <g id="line2d_63">
      <path clip-path="url(#pb0af0dd4c0)" d="M 109.15 71.581935 
L 466.27 71.581935 
" style="fill:none;stroke:#b0b0b0;stroke-linecap:square;stroke-width:0.8;"/>
     </g>
     <g id="line2d_64">
      <g>
       <use style="stroke:#000000;stroke-width:0.8;" x="109.15" xlink:href="#m632de8fc4e" y="71.581935"/>
      </g>
     </g>
     <g id="text_33">
      <!-- mdb.bootstrap -->
      <g transform="translate(28.310938 75.381154)scale(0.1 -0.1)">
       <use xlink:href="#DejaVuSans-109"/>
       <use x="97.412109" xlink:href="#DejaVuSans-100"/>
       <use x="160.888672" xlink:href="#DejaVuSans-98"/>
       <use x="224.365234" xlink:href="#DejaVuSans-46"/>
       <use x="256.152344" xlink:href="#DejaVuSans-98"/>
       <use x="319.628906" xlink:href="#DejaVuSans-111"/>
       <use x="380.810547" xlink:href="#DejaVuSans-111"/>
       <use x="441.992188" xlink:href="#DejaVuSans-116"/>
       <use x="481.201172" xlink:href="#DejaVuSans-115"/>
       <use x="533.300781" xlink:href="#DejaVuSans-116"/>
       <use x="572.509766" xlink:href="#DejaVuSans-114"/>
       <use x="613.623047" xlink:href="#DejaVuSans-97"/>
       <use x="674.902344" xlink:href="#DejaVuSans-112"/>
      </g>
     </g>
    </g>
    <g id="ytick_25">
     <g id="line2d_65">
      <path clip-path="url(#pb0af0dd4c0)" d="M 109.15 62.997677 
L 466.27 62.997677 
" style="fill:none;stroke:#b0b0b0;stroke-linecap:square;stroke-width:0.8;"/>
     </g>
     <g id="line2d_66">
      <g>
       <use style="stroke:#000000;stroke-width:0.8;" x="109.15" xlink:href="#m632de8fc4e" y="62.997677"/>
      </g>
     </g>
     <g id="text_34">
      <!-- mdb.config -->
      <g transform="translate(45.932813 66.796896)scale(0.1 -0.1)">
       <use xlink:href="#DejaVuSans-109"/>
       <use x="97.412109" xlink:href="#DejaVuSans-100"/>
       <use x="160.888672" xlink:href="#DejaVuSans-98"/>
       <use x="224.365234" xlink:href="#DejaVuSans-46"/>
       <use x="256.152344" xlink:href="#DejaVuSans-99"/>
       <use x="311.132812" xlink:href="#DejaVuSans-111"/>
       <use x="372.314453" xlink:href="#DejaVuSans-110"/>
       <use x="435.693359" xlink:href="#DejaVuSans-102"/>
       <use x="470.898438" xlink:href="#DejaVuSans-105"/>
       <use x="498.681641" xlink:href="#DejaVuSans-103"/>
      </g>
     </g>
    </g>
    <g id="ytick_26">
     <g id="line2d_67">
      <path clip-path="url(#pb0af0dd4c0)" d="M 109.15 54.413419 
L 466.27 54.413419 
" style="fill:none;stroke:#b0b0b0;stroke-linecap:square;stroke-width:0.8;"/>
     </g>
     <g id="line2d_68">
      <g>
       <use style="stroke:#000000;stroke-width:0.8;" x="109.15" xlink:href="#m632de8fc4e" y="54.413419"/>
      </g>
     </g>
     <g id="text_35">
      <!-- mdb.pull -->
      <g transform="translate(58.292188 58.212638)scale(0.1 -0.1)">
       <use xlink:href="#DejaVuSans-109"/>
       <use x="97.412109" xlink:href="#DejaVuSans-100"/>
       <use x="160.888672" xlink:href="#DejaVuSans-98"/>
       <use x="224.365234" xlink:href="#DejaVuSans-46"/>
       <use x="256.152344" xlink:href="#DejaVuSans-112"/>
       <use x="319.628906" xlink:href="#DejaVuSans-117"/>
       <use x="383.007812" xlink:href="#DejaVuSans-108"/>
       <use x="410.791016" xlink:href="#DejaVuSans-108"/>
      </g>
     </g>
    </g>
    <g id="ytick_27">
     <g id="line2d_69">
      <path clip-path="url(#pb0af0dd4c0)" d="M 109.15 45.829161 
L 466.27 45.829161 
" style="fill:none;stroke:#b0b0b0;stroke-linecap:square;stroke-width:0.8;"/>
     </g>
     <g id="line2d_70">
      <g>
       <use style="stroke:#000000;stroke-width:0.8;" x="109.15" xlink:href="#m632de8fc4e" y="45.829161"/>
      </g>
     </g>
     <g id="text_36">
      <!-- mem.deploy -->
      <g transform="translate(39.671875 49.62838)scale(0.1 -0.1)">
       <use xlink:href="#DejaVuSans-109"/>
       <use x="97.412109" xlink:href="#DejaVuSans-101"/>
       <use x="158.935547" xlink:href="#DejaVuSans-109"/>
       <use x="256.347656" xlink:href="#DejaVuSans-46"/>
       <use x="288.134766" xlink:href="#DejaVuSans-100"/>
       <use x="351.611328" xlink:href="#DejaVuSans-101"/>
       <use x="413.134766" xlink:href="#DejaVuSans-112"/>
       <use x="476.611328" xlink:href="#DejaVuSans-108"/>
       <use x="504.394531" xlink:href="#DejaVuSans-111"/>
       <use x="565.576172" xlink:href="#DejaVuSans-121"/>
      </g>
     </g>
    </g>
    <g id="ytick_28">
     <g id="line2d_71">
      <path clip-path="url(#pb0af0dd4c0)" d="M 109.15 37.244903 
L 466.27 37.244903 
" style="fill:none;stroke:#b0b0b0;stroke-linecap:square;stroke-width:0.8;"/>
     </g>
     <g id="line2d_72">
      <g>
       <use style="stroke:#000000;stroke-width:0.8;" x="109.15" xlink:href="#m632de8fc4e" y="37.244903"/>
      </g>
     </g>
     <g id="text_37">
      <!-- hap.deploy -->
      <g transform="translate(46.492188 41.044122)scale(0.1 -0.1)">
       <use xlink:href="#DejaVuSans-104"/>
       <use x="63.378906" xlink:href="#DejaVuSans-97"/>
       <use x="124.658203" xlink:href="#DejaVuSans-112"/>
       <use x="188.134766" xlink:href="#DejaVuSans-46"/>
       <use x="219.921875" xlink:href="#DejaVuSans-100"/>
       <use x="283.398438" xlink:href="#DejaVuSans-101"/>
       <use x="344.921875" xlink:href="#DejaVuSans-112"/>
       <use x="408.398438" xlink:href="#DejaVuSans-108"/>
       <use x="436.181641" xlink:href="#DejaVuSans-111"/>
       <use x="497.363281" xlink:href="#DejaVuSans-121"/>
      </g>
     </g>
    </g>
    <g id="ytick_29">
     <g id="line2d_73">
      <path clip-path="url(#pb0af0dd4c0)" d="M 109.15 28.660645 
L 466.27 28.660645 
" style="fill:none;stroke:#b0b0b0;stroke-linecap:square;stroke-width:0.8;"/>
     </g>
     <g id="line2d_74">
      <g>
       <use style="stroke:#000000;stroke-width:0.8;" x="109.15" xlink:href="#m632de8fc4e" y="28.660645"/>
      </g>
     </g>
     <g id="text_38">
      <!-- com.deploy -->
      <g transform="translate(43.948438 32.459864)scale(0.1 -0.1)">
       <use xlink:href="#DejaVuSans-99"/>
       <use x="54.980469" xlink:href="#DejaVuSans-111"/>
       <use x="116.162109" xlink:href="#DejaVuSans-109"/>
       <use x="213.574219" xlink:href="#DejaVuSans-46"/>
       <use x="245.361328" xlink:href="#DejaVuSans-100"/>
       <use x="308.837891" xlink:href="#DejaVuSans-101"/>
       <use x="370.361328" xlink:href="#DejaVuSans-112"/>
       <use x="433.837891" xlink:href="#DejaVuSans-108"/>
       <use x="461.621094" xlink:href="#DejaVuSans-111"/>
       <use x="522.802734" xlink:href="#DejaVuSans-121"/>
      </g>
     </g>
    </g>
    <g id="ytick_30">
     <g id="line2d_75">
      <path clip-path="url(#pb0af0dd4c0)" d="M 109.15 20.076387 
L 466.27 20.076387 
" style="fill:none;stroke:#b0b0b0;stroke-linecap:square;stroke-width:0.8;"/>
     </g>
     <g id="line2d_76">
      <g>
       <use style="stroke:#000000;stroke-width:0.8;" x="109.15" xlink:href="#m632de8fc4e" y="20.076387"/>
      </g>
     </g>
     <g id="text_39">
      <!-- com.ktb_deploy -->
      <g transform="translate(22.889062 23.875606)scale(0.1 -0.1)">
       <use xlink:href="#DejaVuSans-99"/>
       <use x="54.980469" xlink:href="#DejaVuSans-111"/>
       <use x="116.162109" xlink:href="#DejaVuSans-109"/>
       <use x="213.574219" xlink:href="#DejaVuSans-46"/>
       <use x="245.361328" xlink:href="#DejaVuSans-107"/>
       <use x="303.271484" xlink:href="#DejaVuSans-116"/>
       <use x="342.480469" xlink:href="#DejaVuSans-98"/>
       <use x="405.957031" xlink:href="#DejaVuSans-95"/>
       <use x="455.957031" xlink:href="#DejaVuSans-100"/>
       <use x="519.433594" xlink:href="#DejaVuSans-101"/>
       <use x="580.957031" xlink:href="#DejaVuSans-112"/>
       <use x="644.433594" xlink:href="#DejaVuSans-108"/>
       <use x="672.216797" xlink:href="#DejaVuSans-111"/>
       <use x="733.398438" xlink:href="#DejaVuSans-121"/>
      </g>
     </g>
    </g>
    <g id="ytick_31">
     <g id="line2d_77">
      <path clip-path="url(#pb0af0dd4c0)" d="M 109.15 11.492129 
L 466.27 11.492129 
" style="fill:none;stroke:#b0b0b0;stroke-linecap:square;stroke-width:0.8;"/>
     </g>
     <g id="line2d_78">
      <g>
       <use style="stroke:#000000;stroke-width:0.8;" x="109.15" xlink:href="#m632de8fc4e" y="11.492129"/>
      </g>
     </g>
     <g id="text_40">
      <!-- facts.deploy -->
      <g transform="translate(41.029688 15.291348)scale(0.1 -0.1)">
       <use xlink:href="#DejaVuSans-102"/>
       <use x="35.205078" xlink:href="#DejaVuSans-97"/>
       <use x="96.484375" xlink:href="#DejaVuSans-99"/>
       <use x="151.464844" xlink:href="#DejaVuSans-116"/>
       <use x="190.673828" xlink:href="#DejaVuSans-115"/>
       <use x="242.773438" xlink:href="#DejaVuSans-46"/>
       <use x="274.560547" xlink:href="#DejaVuSans-100"/>
       <use x="338.037109" xlink:href="#DejaVuSans-101"/>
       <use x="399.560547" xlink:href="#DejaVuSans-112"/>
       <use x="463.037109" xlink:href="#DejaVuSans-108"/>
       <use x="490.820312" xlink:href="#DejaVuSans-111"/>
       <use x="552.001953" xlink:href="#DejaVuSans-121"/>
      </g>
     </g>
    </g>
    <g id="text_41">
     <!-- Transitions -->
     <g transform="translate(14.798437 167.763031)rotate(-90)scale(0.1 -0.1)">
      <use xlink:href="#DejaVuSans-84"/>
      <use x="60.865234" xlink:href="#DejaVuSans-114"/>
      <use x="101.978516" xlink:href="#DejaVuSans-97"/>
      <use x="163.257812" xlink:href="#DejaVuSans-110"/>
      <use x="226.636719" xlink:href="#DejaVuSans-115"/>
      <use x="278.736328" xlink:href="#DejaVuSans-105"/>
      <use x="306.519531" xlink:href="#DejaVuSans-116"/>
      <use x="345.728516" xlink:href="#DejaVuSans-105"/>
      <use x="373.511719" xlink:href="#DejaVuSans-111"/>
      <use x="434.693359" xlink:href="#DejaVuSans-110"/>
      <use x="498.072266" xlink:href="#DejaVuSans-115"/>
     </g>
    </g>
   </g>
   <g id="patch_3">
    <path d="M 109.15 273.312 
L 109.15 7.2 
" style="fill:none;stroke:#000000;stroke-linecap:square;stroke-linejoin:miter;stroke-width:0.8;"/>
   </g>
   <g id="patch_4">
    <path d="M 109.15 273.312 
L 466.27 273.312 
" style="fill:none;stroke:#000000;stroke-linecap:square;stroke-linejoin:miter;stroke-width:0.8;"/>
   </g>
  </g>
 </g>
 <defs>
  <clipPath id="pb0af0dd4c0">
   <rect height="266.112" width="357.12" x="109.15" y="7.2"/>
  </clipPath>
 </defs>
</svg>
