{
	"facts": {
		"?": [
			{
				"name": "deploy",
				"start": 0,
				"end": 4.13090402359885
			}
		]
	},
	"common": {
		"?": [
			{
				"name": "ktb_deploy",
				"start": 4.13090402359885,
				"end": 38.89852437219961
			},
			{
				"name": "deploy",
				"start": 38.89852437219961,
				"end": 67.45756610459867
			}
		]
	},
	"haproxy": {
		"?": [
			{
				"name": "deploy",
				"start": 67.45756610459867,
				"end": 91.28471967059886
			}
		]
	},
	"memcached": {
		"?": [
			{
				"name": "deploy",
				"start": 91.28471967059886,
				"end": 98.25396065719906
			}
		]
	},
	"mariadb": {
		"?": [
			{
				"name": "pull",
				"start": 98.25396065719906,
				"end": 109.2264511247995
			},
			{
				"name": "config",
				"start": 109.2264511247995,
				"end": 113.43948106040042
			},
			{
				"name": "bootstrap",
				"start": 113.43948106040042,
				"end": 138.1630622736011
			},
			{
				"name": "restart",
				"start": 138.1630622736011,
				"end": 150.78056082980112
			},
			{
				"name": "register",
				"start": 150.78056082980112,
				"end": 153.5001659684007
			},
			{
				"name": "check",
				"start": 153.5001659684007,
				"end": 165.73233687499962
			}
		]
	},
	"rabbitmq": {
		"?": [
			{
				"name": "deploy",
				"start": 165.73233687499962,
				"end": 178.09038882259995
			}
		]
	},
	"keystone": {
		"?": [
			{
				"name": "pull",
				"start": 178.09038882259995,
				"end": 198.05436250659915
			},
			{
				"name": "deploy",
				"start": 198.05436250659915,
				"end": 246.9932116710006
			}
		]
	},
	"openvswitch": {
		"?": [
			{
				"name": "deploy",
				"start": 573.8077588805986,
				"end": 589.226446140799
			}
		]
	},
	"glance": {
		"?": [
			{
				"name": "pull",
				"start": 246.9932116710006,
				"end": 258.13416761120095
			},
			{
				"name": "config",
				"start": 258.13416761120095,
				"end": 265.03500532860124
			},
			{
				"name": "register",
				"start": 265.03500532860124,
				"end": 293.11336016460046
			},
			{
				"name": "deploy",
				"start": 293.11336016460046,
				"end": 311.9081423392003
			}
		]
	},
	"neutron": {
		"?": [
			{
				"name": "pull",
				"start": 589.226446140799,
				"end": 620.9088621651993
			},
			{
				"name": "config",
				"start": 620.9088621651993,
				"end": 642.4878515363989
			},
			{
				"name": "register",
				"start": 642.4878515363989,
				"end": 653.4630007445985
			},
			{
				"name": "deploy",
				"start": 653.4630007445985,
				"end": 744.028660016199
			}
		]
	},
	"nova": {
		"?": [
			{
				"name": "pull",
				"start": 311.9081423392003,
				"end": 364.9241413171986
			},
			{
				"name": "config",
				"start": 364.9241413171986,
				"end": 377.99466800019877
			},
			{
				"name": "register",
				"start": 377.99466800019877,
				"end": 405.2072238745983
			},
			{
				"name": "create_db",
				"start": 405.2072238745983,
				"end": 414.0908695961975
			},
			{
				"name": "upgrade_db",
				"start": 414.0908695961975,
				"end": 472.04475171759697
			},
			{
				"name": "upgrade_api_db",
				"start": 472.04475171759697,
				"end": 488.0801328913978
			},
			{
				"name": "restart",
				"start": 488.0801328913978,
				"end": 500.6471646875994
			},
			{
				"name": "cell_setup",
				"start": 500.6471646875994,
				"end": 573.8077588805986
			}
		]
	}
}