{
	"facts": {
		"?": [
			{
				"name": "deploy",
				"start": 0,
				"end": 3.935552977601037
			}
		]
	},
	"common": {
		"?": [
			{
				"name": "ktb_deploy",
				"start": 3.935552977601037,
				"end": 8.885657477801214
			},
			{
				"name": "deploy",
				"start": 43.41860788580015,
				"end": 57.86712795439961
			}
		]
	},
	"haproxy": {
		"?": [
			{
				"name": "deploy",
				"start": 3.935552977601037,
				"end": 19.375433828400855
			}
		]
	},
	"memcached": {
		"?": [
			{
				"name": "deploy",
				"start": 3.935552977601037,
				"end": 7.590307347400449
			}
		]
	},
	"mariadb": {
		"?": [
			{
				"name": "pull",
				"start": 0,
				"end": 3.143788312199831
			},
			{
				"name": "config",
				"start": 0,
				"end": 4.169015283000772
			},
			{
				"name": "bootstrap",
				"start": 4.169015283000772,
				"end": 28.09738375020097
			},
			{
				"name": "restart",
				"start": 28.09738375020097,
				"end": 40.71867793580131
			},
			{
				"name": "register",
				"start": 40.71867793580131,
				"end": 43.41860788580015
			},
			{
				"name": "check",
				"start": 43.41860788580015,
				"end": 55.66297014059964
			}
		]
	},
	"rabbitmq": {
		"?": [
			{
				"name": "deploy",
				"start": 3.935552977601037,
				"end": 10.771533463000742
			}
		]
	},
	"keystone": {
		"?": [
			{
				"name": "pull",
				"start": 0,
				"end": 3.273553142200035
			},
			{
				"name": "deploy",
				"start": 55.66297014059964,
				"end": 104.64922448200014
			}
		]
	},
	"openvswitch": {
		"?": [
			{
				"name": "deploy",
				"start": 3.935552977601037,
				"end": 11.79786764020064
			}
		]
	},
	"glance": {
		"?": [
			{
				"name": "pull",
				"start": 0,
				"end": 4.833075495799494
			},
			{
				"name": "config",
				"start": 55.66297014059964,
				"end": 62.232212178600086
			},
			{
				"name": "register",
				"start": 104.64922448200014,
				"end": 131.46496352020077
			},
			{
				"name": "deploy",
				"start": 131.46496352020077,
				"end": 150.33466551240127
			}
		]
	},
	"neutron": {
		"?": [
			{
				"name": "pull",
				"start": 0,
				"end": 8.492934025999784
			},
			{
				"name": "config",
				"start": 55.66297014059964,
				"end": 75.44144555699931
			},
			{
				"name": "register",
				"start": 104.64922448200014,
				"end": 115.61089515640052
			},
			{
				"name": "deploy",
				"start": 115.61089515640052,
				"end": 206.52200689200038
			}
		]
	},
	"nova": {
		"?": [
			{
				"name": "pull",
				"start": 0,
				"end": 11.71526851500057
			},
			{
				"name": "config",
				"start": 0,
				"end": 13.033893202999389
			},
			{
				"name": "create_db",
				"start": 55.66297014059964,
				"end": 64.61071724459907
			},
			{
				"name": "upgrade_api_db",
				"start": 64.61071724459907,
				"end": 80.7751574739992
			},
			{
				"name": "upgrade_db",
				"start": 64.61071724459907,
				"end": 122.90812437739987
			},
			{
				"name": "register",
				"start": 104.64922448200014,
				"end": 131.82660907559875
			},
			{
				"name": "restart",
				"start": 122.90812437739987,
				"end": 135.53197153959954
			},
			{
				"name": "cell_setup",
				"start": 135.53197153959954,
				"end": 209.16189223300023
			}
		]
	}
}