{
	"facts": {
		"?": [
			{
				"name": "deploy",
				"start": 0,
				"end": 4.786258786499934
			}
		]
	},
	"common": {
		"?": [
			{
				"name": "ktb_deploy",
				"start": 4.786258786499934,
				"end": 33.14119286199987
			},
			{
				"name": "deploy",
				"start": 33.14119286199987,
				"end": 55.47642898659947
			}
		]
	},
	"haproxy": {
		"?": [
			{
				"name": "deploy",
				"start": 55.47642898659947,
				"end": 73.29871776599914
			}
		]
	},
	"memcached": {
		"?": [
			{
				"name": "deploy",
				"start": 73.29871776599914,
				"end": 77.61985943019957
			}
		]
	},
	"mariadb": {
		"?": [
			{
				"name": "pull",
				"start": 77.61985943019957,
				"end": 86.24655906270007
			},
			{
				"name": "config",
				"start": 86.24655906270007,
				"end": 90.4845842487997
			},
			{
				"name": "bootstrap",
				"start": 90.4845842487997,
				"end": 112.68238451529912
			},
			{
				"name": "restart",
				"start": 112.68238451529912,
				"end": 124.90899805939887
			},
			{
				"name": "register",
				"start": 124.90899805939887,
				"end": 127.62948408119902
			},
			{
				"name": "check",
				"start": 127.62948408119902,
				"end": 139.8525995366989
			}
		]
	},
	"rabbitmq": {
		"?": [
			{
				"name": "deploy",
				"start": 139.8525995366989,
				"end": 148.5355307727987
			}
		]
	},
	"keystone": {
		"?": [
			{
				"name": "pull",
				"start": 148.5355307727987,
				"end": 165.70174303219886
			},
			{
				"name": "deploy",
				"start": 165.70174303219886,
				"end": 198.86255400129878
			}
		]
	},
	"openvswitch": {
		"?": [
			{
				"name": "deploy",
				"start": 406.79329052429756,
				"end": 417.0871327073976
			}
		]
	},
	"glance": {
		"?": [
			{
				"name": "pull",
				"start": 198.86255400129878,
				"end": 205.12404950439876
			},
			{
				"name": "config",
				"start": 205.12404950439876,
				"end": 209.48983243019867
			},
			{
				"name": "register",
				"start": 209.48983243019867,
				"end": 237.27241645919898
			},
			{
				"name": "deploy",
				"start": 237.27241645919898,
				"end": 248.7273165690989
			}
		]
	},
	"neutron": {
		"?": [
			{
				"name": "pull",
				"start": 417.0871327073976,
				"end": 438.7483493839982
			},
			{
				"name": "config",
				"start": 438.7483493839982,
				"end": 451.92474657309805
			},
			{
				"name": "register",
				"start": 451.92474657309805,
				"end": 462.67000037369786
			},
			{
				"name": "deploy",
				"start": 462.67000037369786,
				"end": 480.44997186879755
			}
		]
	},
	"nova": {
		"?": [
			{
				"name": "pull",
				"start": 248.7273165690989,
				"end": 292.77656883329877
			},
			{
				"name": "config",
				"start": 292.77656883329877,
				"end": 306.06972807829857
			},
			{
				"name": "register",
				"start": 306.06972807829857,
				"end": 332.9784280920985
			},
			{
				"name": "create_db",
				"start": 332.9784280920985,
				"end": 341.6718891205984
			},
			{
				"name": "upgrade_db",
				"start": 341.6718891205984,
				"end": 357.93773132529833
			},
			{
				"name": "upgrade_api_db",
				"start": 357.93773132529833,
				"end": 366.0137159370982
			},
			{
				"name": "restart",
				"start": 366.0137159370982,
				"end": 375.4811838362978
			},
			{
				"name": "cell_setup",
				"start": 375.4811838362978,
				"end": 406.79329052429756
			}
		]
	}
}