{
	"facts": {
		"?": [
			{
				"name": "deploy",
				"start": 0,
				"end": 4.263817760200254
			}
		]
	},
	"common": {
		"?": [
			{
				"name": "ktb_deploy",
				"start": 4.263817760200254,
				"end": 33.36721065250022
			},
			{
				"name": "deploy",
				"start": 33.36721065250022,
				"end": 59.196998103799345
			}
		]
	},
	"haproxy": {
		"?": [
			{
				"name": "deploy",
				"start": 59.196998103799345,
				"end": 80.6554185001005
			}
		]
	},
	"memcached": {
		"?": [
			{
				"name": "deploy",
				"start": 80.6554185001005,
				"end": 86.74910869209961
			}
		]
	},
	"mariadb": {
		"?": [
			{
				"name": "pull",
				"start": 86.74910869209961,
				"end": 97.21454733379977
			},
			{
				"name": "config",
				"start": 97.21454733379977,
				"end": 101.48914005230034
			},
			{
				"name": "bootstrap",
				"start": 101.48914005230034,
				"end": 123.4890416743994
			},
			{
				"name": "restart",
				"start": 123.4890416743994,
				"end": 135.7254678224981
			},
			{
				"name": "register",
				"start": 135.7254678224981,
				"end": 138.4451281750982
			},
			{
				"name": "check",
				"start": 138.4451281750982,
				"end": 150.66797166379692
			}
		]
	},
	"rabbitmq": {
		"?": [
			{
				"name": "deploy",
				"start": 150.66797166379692,
				"end": 161.1962473089963
			}
		]
	},
	"keystone": {
		"?": [
			{
				"name": "pull",
				"start": 161.1962473089963,
				"end": 180.1478823050969
			},
			{
				"name": "deploy",
				"start": 180.1478823050969,
				"end": 212.62899602479663
			}
		]
	},
	"openvswitch": {
		"?": [
			{
				"name": "deploy",
				"start": 429.740513504697,
				"end": 443.1273133261972
			}
		]
	},
	"glance": {
		"?": [
			{
				"name": "pull",
				"start": 212.62899602479663,
				"end": 222.35469407929702
			},
			{
				"name": "config",
				"start": 222.35469407929702,
				"end": 226.73583777119708
			},
			{
				"name": "register",
				"start": 226.73583777119708,
				"end": 255.55989752859747
			},
			{
				"name": "deploy",
				"start": 255.55989752859747,
				"end": 267.0575468735973
			}
		]
	},
	"neutron": {
		"?": [
			{
				"name": "pull",
				"start": 443.1273133261972,
				"end": 471.6206463017969
			},
			{
				"name": "config",
				"start": 471.6206463017969,
				"end": 484.89658373069676
			},
			{
				"name": "register",
				"start": 484.89658373069676,
				"end": 495.67921951179693
			},
			{
				"name": "deploy",
				"start": 495.67921951179693,
				"end": 513.4816133445964
			}
		]
	},
	"nova": {
		"?": [
			{
				"name": "pull",
				"start": 267.0575468735973,
				"end": 316.9049359768982
			},
			{
				"name": "config",
				"start": 316.9049359768982,
				"end": 330.16792591599733
			},
			{
				"name": "register",
				"start": 330.16792591599733,
				"end": 356.4146528137975
			},
			{
				"name": "create_db",
				"start": 356.4146528137975,
				"end": 365.1241035602972
			},
			{
				"name": "upgrade_db",
				"start": 365.1241035602972,
				"end": 381.42769696309693
			},
			{
				"name": "upgrade_api_db",
				"start": 381.42769696309693,
				"end": 388.8579311947967
			},
			{
				"name": "restart",
				"start": 388.8579311947967,
				"end": 398.35598597809724
			},
			{
				"name": "cell_setup",
				"start": 398.35598597809724,
				"end": 429.740513504697
			}
		]
	}
}