{
	"facts": {
		"?": [
			{
				"name": "deploy",
				"start": 0,
				"end": 4.7865455665994885
			}
		]
	},
	"common": {
		"?": [
			{
				"name": "deploy",
				"start": 4.7865455665994885,
				"end": 21.544928148899817
			}
		]
	},
	"haproxy": {
		"?": [
			{
				"name": "deploy",
				"start": 4.7865455665994885,
				"end": 20.693703510799786
			}
		]
	},
	"memcached": {
		"?": [
			{
				"name": "deploy",
				"start": 4.7865455665994885,
				"end": 8.691637106999952
			}
		]
	},
	"mariadb": {
		"?": [
			{
				"name": "pull",
				"start": 0,
				"end": 3.5521703050008
			},
			{
				"name": "deploy",
				"start": 21.544928148899817,
				"end": 84.86212621239974
			}
		]
	},
	"rabbitmq": {
		"?": [
			{
				"name": "deploy",
				"start": 4.7865455665994885,
				"end": 11.688677470899528
			}
		]
	},
	"keystone": {
		"?": [
			{
				"name": "pull",
				"start": 0,
				"end": 3.6139254741992772
			},
			{
				"name": "deploy",
				"start": 84.86212621239974,
				"end": 117.82167034260037
			}
		]
	},
	"openvswitch": {
		"?": [
			{
				"name": "deploy",
				"start": 4.7865455665994885,
				"end": 12.606378578599468
			}
		]
	},
	"glance": {
		"?": [
			{
				"name": "pull",
				"start": 0,
				"end": 5.3181940138003485
			},
			{
				"name": "deploy",
				"start": 117.82167034260037,
				"end": 149.8148942510996
			}
		]
	},
	"neutron": {
		"?": [
			{
				"name": "pull",
				"start": 0,
				"end": 9.08413826870019
			},
			{
				"name": "deploy",
				"start": 117.82167034260037,
				"end": 164.17124562510088
			}
		]
	},
	"nova": {
		"?": [
			{
				"name": "pull",
				"start": 0,
				"end": 12.603853882499607
			},
			{
				"name": "deploy",
				"start": 117.82167034260037,
				"end": 228.873095890701
			}
		]
	}
}