{
	"facts": {
		"?": [
			{
				"name": "deploy",
				"start": 0,
				"end": 4.147961855000176
			}
		]
	},
	"common": {
		"?": [
			{
				"name": "ktb_deploy",
				"start": 4.147961855000176,
				"end": 8.670141967000745
			},
			{
				"name": "deploy",
				"start": 8.670141967000745,
				"end": 22.44510057700063
			}
		]
	},
	"haproxy": {
		"?": [
			{
				"name": "deploy",
				"start": 22.44510057700063,
				"end": 37.03444582500197
			}
		]
	},
	"memcached": {
		"?": [
			{
				"name": "deploy",
				"start": 37.03444582500197,
				"end": 40.36913481600277
			}
		]
	},
	"mariadb": {
		"?": [
			{
				"name": "pull",
				"start": 40.36913481600277,
				"end": 43.60660618500333
			},
			{
				"name": "config",
				"start": 43.60660618500333,
				"end": 47.82920445600212
			},
			{
				"name": "bootstrap",
				"start": 47.82920445600212,
				"end": 69.64673333500286
			},
			{
				"name": "restart",
				"start": 69.64673333500286,
				"end": 81.85417204300211
			},
			{
				"name": "register",
				"start": 81.85417204300211,
				"end": 84.53221070300242
			},
			{
				"name": "check",
				"start": 84.53221070300242,
				"end": 96.72481698600313
			}
		]
	},
	"rabbitmq": {
		"?": [
			{
				"name": "deploy",
				"start": 96.72481698600313,
				"end": 102.75535262400263
			}
		]
	},
	"keystone": {
		"?": [
			{
				"name": "pull",
				"start": 102.75535262400263,
				"end": 106.00182029200369
			},
			{
				"name": "deploy",
				"start": 106.00182029200369,
				"end": 136.42509579700345
			}
		]
	},
	"openvswitch": {
		"?": [
			{
				"name": "deploy",
				"start": 301.6233363160063,
				"end": 308.640890211007
			}
		]
	},
	"glance": {
		"?": [
			{
				"name": "pull",
				"start": 136.42509579700345,
				"end": 141.35449647300265
			},
			{
				"name": "config",
				"start": 141.35449647300265,
				"end": 145.6951861220041
			},
			{
				"name": "register",
				"start": 145.6951861220041,
				"end": 166.7702492630051
			},
			{
				"name": "deploy",
				"start": 166.7702492630051,
				"end": 178.03735658900405
			}
		]
	},
	"neutron": {
		"?": [
			{
				"name": "pull",
				"start": 308.640890211007,
				"end": 317.25709248400744
			},
			{
				"name": "config",
				"start": 317.25709248400744,
				"end": 330.3149212520075
			},
			{
				"name": "register",
				"start": 330.3149212520075,
				"end": 341.00861693300794
			},
			{
				"name": "deploy",
				"start": 341.00861693300794,
				"end": 358.636508064008
			}
		]
	},
	"nova": {
		"?": [
			{
				"name": "pull",
				"start": 178.03735658900405,
				"end": 190.09989505100384
			},
			{
				"name": "config",
				"start": 190.09989505100384,
				"end": 203.21350344400526
			},
			{
				"name": "register",
				"start": 203.21350344400526,
				"end": 229.1466230780061
			},
			{
				"name": "create_db",
				"start": 229.1466230780061,
				"end": 237.7747424330064
			},
			{
				"name": "upgrade_db",
				"start": 237.7747424330064,
				"end": 253.86340999400818
			},
			{
				"name": "upgrade_api_db",
				"start": 253.86340999400818,
				"end": 261.060463731008
			},
			{
				"name": "restart",
				"start": 261.060463731008,
				"end": 270.4791860850073
			},
			{
				"name": "cell_setup",
				"start": 270.4791860850073,
				"end": 301.6233363160063
			}
		]
	}
}