{
	"facts": {
		"?": [
			{
				"name": "deploy",
				"start": 0,
				"end": 4.409775145999447
			}
		]
	},
	"common": {
		"?": [
			{
				"name": "deploy",
				"start": 4.409775145999447,
				"end": 54.32185371999367
			}
		]
	},
	"haproxy": {
		"?": [
			{
				"name": "deploy",
				"start": 4.409775145999447,
				"end": 30.0230249740016
			}
		]
	},
	"memcached": {
		"?": [
			{
				"name": "deploy",
				"start": 4.409775145999447,
				"end": 23.821899016002135
			}
		]
	},
	"mariadb": {
		"?": [
			{
				"name": "pull",
				"start": 0,
				"end": 22.918709759003832
			},
			{
				"name": "deploy",
				"start": 54.32185371999367,
				"end": 117.6197125679937
			}
		]
	},
	"rabbitmq": {
		"?": [
			{
				"name": "deploy",
				"start": 4.409775145999447,
				"end": 26.558302985999035
			}
		]
	},
	"keystone": {
		"?": [
			{
				"name": "pull",
				"start": 0,
				"end": 32.92343706000247
			},
			{
				"name": "deploy",
				"start": 117.6197125679937,
				"end": 148.22062722199553
			}
		]
	},
	"openvswitch": {
		"?": [
			{
				"name": "deploy",
				"start": 4.409775145999447,
				"end": 22.496765305997542
			}
		]
	},
	"glance": {
		"?": [
			{
				"name": "pull",
				"start": 0,
				"end": 36.10583186100121
			},
			{
				"name": "deploy",
				"start": 148.22062722199553,
				"end": 176.95406113999707
			}
		]
	},
	"neutron": {
		"?": [
			{
				"name": "pull",
				"start": 0,
				"end": 42.31722670800082
			},
			{
				"name": "deploy",
				"start": 148.22062722199553,
				"end": 192.17793167799755
			}
		]
	},
	"nova": {
		"?": [
			{
				"name": "pull",
				"start": 0,
				"end": 51.98789537599805
			},
			{
				"name": "deploy",
				"start": 148.22062722199553,
				"end": 256.71803666699634
			}
		]
	}
}