{
	"facts": {
		"?": [
			{
				"name": "deploy",
				"start": 0,
				"end": 5.558660443999543
			}
		]
	},
	"common": {
		"?": [
			{
				"name": "deploy",
				"start": 5.558660443999543,
				"end": 57.26509143399744
			}
		]
	},
	"haproxy": {
		"?": [
			{
				"name": "deploy",
				"start": 5.558660443999543,
				"end": 32.399629324998386
			}
		]
	},
	"memcached": {
		"?": [
			{
				"name": "deploy",
				"start": 5.558660443999543,
				"end": 27.051923304999946
			}
		]
	},
	"mariadb": {
		"?": [
			{
				"name": "pull",
				"start": 0,
				"end": 23.59564070399938
			},
			{
				"name": "deploy",
				"start": 57.26509143399744,
				"end": 120.90717062199838
			}
		]
	},
	"rabbitmq": {
		"?": [
			{
				"name": "deploy",
				"start": 5.558660443999543,
				"end": 29.175135810997745
			}
		]
	},
	"keystone": {
		"?": [
			{
				"name": "pull",
				"start": 0,
				"end": 33.44264404400019
			},
			{
				"name": "deploy",
				"start": 120.90717062199838,
				"end": 154.94289118199958
			}
		]
	},
	"openvswitch": {
		"?": [
			{
				"name": "deploy",
				"start": 5.558660443999543,
				"end": 25.45735118599987
			}
		]
	},
	"glance": {
		"?": [
			{
				"name": "pull",
				"start": 0,
				"end": 36.55795242200111
			},
			{
				"name": "deploy",
				"start": 154.94289118199958,
				"end": 187.2577031769979
			}
		]
	},
	"neutron": {
		"?": [
			{
				"name": "pull",
				"start": 0,
				"end": 43.08467609299987
			},
			{
				"name": "deploy",
				"start": 154.94289118199958,
				"end": 202.92336844799866
			}
		]
	},
	"nova": {
		"?": [
			{
				"name": "pull",
				"start": 0,
				"end": 52.720296932002384
			},
			{
				"name": "deploy",
				"start": 154.94289118199958,
				"end": 267.185277509001
			}
		]
	}
}