{
	"facts": {
		"?": [
			{
				"name": "deploy",
				"start": 0,
				"end": 4.13006186200073
			}
		]
	},
	"common": {
		"?": [
			{
				"name": "ktb_deploy",
				"start": 4.13006186200073,
				"end": 33.13100991900137
			},
			{
				"name": "deploy",
				"start": 33.13100991900137,
				"end": 58.799441183000454
			}
		]
	},
	"haproxy": {
		"?": [
			{
				"name": "deploy",
				"start": 58.799441183000454,
				"end": 80.09096404000229
			}
		]
	},
	"memcached": {
		"?": [
			{
				"name": "deploy",
				"start": 80.09096404000229,
				"end": 86.06170068999927
			}
		]
	},
	"mariadb": {
		"?": [
			{
				"name": "pull",
				"start": 86.06170068999927,
				"end": 96.36997101099769
			},
			{
				"name": "config",
				"start": 96.36997101099769,
				"end": 100.57055339699582
			},
			{
				"name": "bootstrap",
				"start": 100.57055339699582,
				"end": 122.39906652299396
			},
			{
				"name": "restart",
				"start": 122.39906652299396,
				"end": 134.59995977699145
			},
			{
				"name": "register",
				"start": 134.59995977699145,
				"end": 137.29927437598963
			},
			{
				"name": "check",
				"start": 137.29927437598963,
				"end": 149.49820711698703
			}
		]
	},
	"rabbitmq": {
		"?": [
			{
				"name": "deploy",
				"start": 149.49820711698703,
				"end": 159.87996717198257
			}
		]
	},
	"keystone": {
		"?": [
			{
				"name": "pull",
				"start": 159.87996717198257,
				"end": 178.76347205798447
			},
			{
				"name": "deploy",
				"start": 178.76347205798447,
				"end": 209.41447951798546
			}
		]
	},
	"openvswitch": {
		"?": [
			{
				"name": "deploy",
				"start": 422.7469061709744,
				"end": 435.8250185069737
			}
		]
	},
	"glance": {
		"?": [
			{
				"name": "pull",
				"start": 209.41447951798546,
				"end": 218.97287610598505
			},
			{
				"name": "config",
				"start": 218.97287610598505,
				"end": 223.30893278898293
			},
			{
				"name": "register",
				"start": 223.30893278898293,
				"end": 250.4738006909829
			},
			{
				"name": "deploy",
				"start": 250.4738006909829,
				"end": 261.7608347379828
			}
		]
	},
	"neutron": {
		"?": [
			{
				"name": "pull",
				"start": 435.8250185069737,
				"end": 464.07850317997145
			},
			{
				"name": "config",
				"start": 464.07850317997145,
				"end": 477.1712454889712
			},
			{
				"name": "register",
				"start": 477.1712454889712,
				"end": 487.83587314097167
			},
			{
				"name": "deploy",
				"start": 487.83587314097167,
				"end": 505.4571209599708
			}
		]
	},
	"nova": {
		"?": [
			{
				"name": "pull",
				"start": 261.7608347379828,
				"end": 311.0972980429833
			},
			{
				"name": "config",
				"start": 311.0972980429833,
				"end": 324.28659523998067
			},
			{
				"name": "register",
				"start": 324.28659523998067,
				"end": 350.2675374269784
			},
			{
				"name": "create_db",
				"start": 350.2675374269784,
				"end": 358.92640539397325
			},
			{
				"name": "upgrade_db",
				"start": 358.92640539397325,
				"end": 375.0134634919741
			},
			{
				"name": "upgrade_api_db",
				"start": 375.0134634919741,
				"end": 382.33372955797313
			},
			{
				"name": "restart",
				"start": 382.33372955797313,
				"end": 391.654477653974
			},
			{
				"name": "cell_setup",
				"start": 391.654477653974,
				"end": 422.7469061709744
			}
		]
	}
}