{
	"facts": {
		"?": [
			{
				"name": "deploy",
				"start": 0,
				"end": 6.485404990999996
			}
		]
	},
	"common": {
		"?": [
			{
				"name": "deploy",
				"start": 6.485404990999996,
				"end": 71.00799625299987
			}
		]
	},
	"haproxy": {
		"?": [
			{
				"name": "deploy",
				"start": 6.485404990999996,
				"end": 31.916857284999878
			}
		]
	},
	"memcached": {
		"?": [
			{
				"name": "deploy",
				"start": 6.485404990999996,
				"end": 20.902074698999968
			}
		]
	},
	"mariadb": {
		"?": [
			{
				"name": "pull",
				"start": 0,
				"end": 24.733988401000033
			},
			{
				"name": "deploy",
				"start": 71.00799625299987,
				"end": 134.60779684299996
			}
		]
	},
	"rabbitmq": {
		"?": [
			{
				"name": "deploy",
				"start": 6.485404990999996,
				"end": 22.79729232300042
			}
		]
	},
	"keystone": {
		"?": [
			{
				"name": "pull",
				"start": 0,
				"end": 34.57985292800004
			},
			{
				"name": "deploy",
				"start": 134.60779684299996,
				"end": 168.6464648359979
			}
		]
	},
	"openvswitch": {
		"?": [
			{
				"name": "deploy",
				"start": 6.485404990999996,
				"end": 24.452682776000074
			}
		]
	},
	"glance": {
		"?": [
			{
				"name": "pull",
				"start": 0,
				"end": 36.168568121000135
			},
			{
				"name": "deploy",
				"start": 168.6464648359979,
				"end": 201.20820610599822
			}
		]
	},
	"neutron": {
		"?": [
			{
				"name": "pull",
				"start": 0,
				"end": 37.97588424800006
			},
			{
				"name": "deploy",
				"start": 168.6464648359979,
				"end": 216.97705377099828
			}
		]
	},
	"nova": {
		"?": [
			{
				"name": "pull",
				"start": 0,
				"end": 50.66309694200004
			},
			{
				"name": "deploy",
				"start": 168.6464648359979,
				"end": 280.9694652699982
			}
		]
	}
}