{
	"facts": {
		"?": [
			{
				"name": "deploy",
				"start": 0,
				"end": 4.981244832599259
			}
		]
	},
	"common": {
		"?": [
			{
				"name": "deploy",
				"start": 4.981244832599259,
				"end": 55.82453141669903
			}
		]
	},
	"haproxy": {
		"?": [
			{
				"name": "deploy",
				"start": 4.981244832599259,
				"end": 31.220807566199436
			}
		]
	},
	"memcached": {
		"?": [
			{
				"name": "deploy",
				"start": 4.981244832599259,
				"end": 25.514474367300135
			}
		]
	},
	"mariadb": {
		"?": [
			{
				"name": "pull",
				"start": 0,
				"end": 23.10272997119937
			},
			{
				"name": "deploy",
				"start": 55.82453141669903,
				"end": 119.26247916729918
			}
		]
	},
	"rabbitmq": {
		"?": [
			{
				"name": "deploy",
				"start": 4.981244832599259,
				"end": 27.826320605198998
			}
		]
	},
	"keystone": {
		"?": [
			{
				"name": "pull",
				"start": 0,
				"end": 33.10204617399977
			},
			{
				"name": "deploy",
				"start": 119.26247916729918,
				"end": 152.1795974289991
			}
		]
	},
	"openvswitch": {
		"?": [
			{
				"name": "deploy",
				"start": 4.981244832599259,
				"end": 24.506313156698525
			}
		]
	},
	"glance": {
		"?": [
			{
				"name": "pull",
				"start": 0,
				"end": 36.282481614800055
			},
			{
				"name": "deploy",
				"start": 152.1795974289991,
				"end": 183.80178111139867
			}
		]
	},
	"neutron": {
		"?": [
			{
				"name": "pull",
				"start": 0,
				"end": 42.663904409301175
			},
			{
				"name": "deploy",
				"start": 152.1795974289991,
				"end": 198.42426671370012
			}
		]
	},
	"nova": {
		"?": [
			{
				"name": "pull",
				"start": 0,
				"end": 52.3299111515993
			},
			{
				"name": "deploy",
				"start": 152.1795974289991,
				"end": 263.0745287101996
			}
		]
	}
}