digraph G {
	rankdir=BT;
	subgraph cluster_1 {
		color = black;
		label = "facts";
		v157 [label="('facts', ('deploy', 1), 'beginning')"] [shape=point];
		v36 [label="('facts', ('initiated', 1), 'leaving')"] [shape=triangle];
		v182 [label="('facts', ('deployed', 1), 'place')"] [shape=box];
		v7 [label="('facts', ('initiated', 1), 'place')"] [shape=box];
		v80 [label="('facts', ('deploy', 1), 'end')"] [shape=point];
		v154 [label="('facts', ('deployed', 1), 'leaving')"] [shape=triangle];
		v7 -> v36 [label=""];
		v182 -> v154 [label=""];
		v36 -> v157 [label=""];
		v157 -> v80 [label="('facts', 'deploy')"];
		v80 -> v182 [label=""];
	}
	subgraph cluster_2 {
		color = black;
		label = "common";
		v24 [label="('common', ('ktb_deployed', 1), 'leaving')"] [shape=triangle];
		v86 [label="('common', ('deployed', 1), 'place')"] [shape=box];
		v123 [label="('common', ('initiated', 1), 'leaving')"] [shape=triangle];
		v37 [label="('common', ('ktb_deploy', 1), 'end')"] [shape=point];
		v171 [label="('common', ('deploy', 1), 'beginning')"] [shape=point];
		v148 [label="('common', ('deployed', 1), 'leaving')"] [shape=triangle];
		v126 [label="('common', ('ktb_deployed', 1), 'place')"] [shape=box];
		v10 [label="('common', ('ktb_deploy', 1), 'beginning')"] [shape=point];
		v52 [label="('common', ('deploy', 1), 'end')"] [shape=point];
		v23 [label="('common', ('initiated', 1), 'place')"] [shape=box];
		v23 -> v123 [label=""];
		v86 -> v148 [label=""];
		v123 -> v10 [label=""];
		v126 -> v24 [label=""];
		v24 -> v171 [label=""];
		v10 -> v37 [label="('common', 'ktb_deploy')"];
		v37 -> v126 [label=""];
		v171 -> v52 [label="('common', 'deploy')"];
		v52 -> v86 [label=""];
	}
	subgraph cluster_3 {
		color = black;
		label = "haproxy";
		v76 [label="('haproxy', ('deployed', 2), 'leaving')"] [shape=triangle];
		v100 [label="('haproxy', ('deploy', 1), 'end')"] [shape=point];
		v89 [label="('haproxy', ('deployed', 1), 'leaving')"] [shape=triangle];
		v21 [label="('haproxy', ('deploy', 1), 'beginning')"] [shape=point];
		v83 [label="('haproxy', ('initiated', 1), 'leaving')"] [shape=triangle];
		v137 [label="('haproxy', ('deployed', 1), 'place')"] [shape=box];
		v72 [label="('haproxy', ('initiated', 1), 'place')"] [shape=box];
		v72 -> v83 [label=""];
		v137 -> v89 [label=""];
		v83 -> v21 [label=""];
		v21 -> v100 [label="('haproxy', 'deploy')"];
		v100 -> v137 [label=""];
	}
	subgraph cluster_4 {
		color = black;
		label = "memcached";
		v13 [label="('memcached', ('initiated', 1), 'leaving')"] [shape=triangle];
		v97 [label="('memcached', ('deploy', 1), 'beginning')"] [shape=point];
		v25 [label="('memcached', ('initiated', 1), 'place')"] [shape=box];
		v3 [label="('memcached', ('deployed', 1), 'leaving')"] [shape=triangle];
		v146 [label="('memcached', ('deployed', 1), 'place')"] [shape=box];
		v19 [label="('memcached', ('deploy', 1), 'end')"] [shape=point];
		v25 -> v13 [label=""];
		v146 -> v3 [label=""];
		v13 -> v97 [label=""];
		v97 -> v19 [label="('memcached', 'deploy')"];
		v19 -> v146 [label=""];
	}
	subgraph cluster_5 {
		color = black;
		label = "mariadb";
		v98 [label="('mariadb', ('register', 1), 'end')"] [shape=point];
		v143 [label="('mariadb', ('restarted', 1), 'leaving')"] [shape=triangle];
		v145 [label="('mariadb', ('registered', 1), 'place')"] [shape=box];
		v47 [label="('mariadb', ('bootstrapped', 1), 'leaving')"] [shape=triangle];
		v103 [label="('mariadb', ('configured', 1), 'place')"] [shape=box];
		v111 [label="('mariadb', ('deployed', 1), 'leaving')"] [shape=triangle];
		v56 [label="('mariadb', ('check', 1), 'beginning')"] [shape=point];
		v112 [label="('mariadb', ('pulled', 1), 'leaving')"] [shape=triangle];
		v156 [label="('mariadb', ('initiated', 1), 'place')"] [shape=box];
		v158 [label="('mariadb', ('config', 1), 'end')"] [shape=point];
		v114 [label="('mariadb', ('restart', 1), 'beginning')"] [shape=point];
		v58 [label="('mariadb', ('bootstrap', 1), 'end')"] [shape=point];
		v20 [label="('mariadb', ('register', 1), 'beginning')"] [shape=point];
		v168 [label="('mariadb', ('pull', 1), 'end')"] [shape=point];
		v172 [label="('mariadb', ('check', 1), 'end')"] [shape=point];
		v127 [label="('mariadb', ('config', 1), 'beginning')"] [shape=point];
		v130 [label="('mariadb', ('configured', 1), 'leaving')"] [shape=triangle];
		v129 [label="('mariadb', ('deployed', 1), 'place')"] [shape=box];
		v84 [label="('mariadb', ('registered', 1), 'leaving')"] [shape=triangle];
		v179 [label="('mariadb', ('initiated', 1), 'leaving')"] [shape=triangle];
		v35 [label="('mariadb', ('pulled', 1), 'place')"] [shape=box];
		v90 [label="('mariadb', ('restarted', 1), 'place')"] [shape=box];
		v136 [label="('mariadb', ('restart', 1), 'end')"] [shape=point];
		v138 [label="('mariadb', ('pull', 1), 'beginning')"] [shape=point];
		v94 [label="('mariadb', ('bootstrapped', 1), 'place')"] [shape=box];
		v95 [label="('mariadb', ('bootstrap', 1), 'beginning')"] [shape=point];
		v156 -> v179 [label=""];
		v129 -> v111 [label=""];
		v179 -> v138 [label=""];
		v35 -> v112 [label=""];
		v112 -> v127 [label=""];
		v138 -> v168 [label="('mariadb', 'pull')"];
		v168 -> v35 [label=""];
		v103 -> v130 [label=""];
		v130 -> v95 [label=""];
		v127 -> v158 [label="('mariadb', 'config')"];
		v158 -> v103 [label=""];
		v94 -> v47 [label=""];
		v47 -> v114 [label=""];
		v95 -> v58 [label="('mariadb', 'bootstrap')"];
		v58 -> v94 [label=""];
		v90 -> v143 [label=""];
		v143 -> v20 [label=""];
		v114 -> v136 [label="('mariadb', 'restart')"];
		v136 -> v90 [label=""];
		v145 -> v84 [label=""];
		v84 -> v56 [label=""];
		v20 -> v98 [label="('mariadb', 'register')"];
		v98 -> v145 [label=""];
		v56 -> v172 [label="('mariadb', 'check')"];
		v172 -> v129 [label=""];
	}
	subgraph cluster_6 {
		color = black;
		label = "rabbitmq";
		v34 [label="('rabbitmq', ('initiated', 1), 'place')"] [shape=box];
		v180 [label="('rabbitmq', ('deploy', 1), 'end')"] [shape=point];
		v167 [label="('rabbitmq', ('deployed', 1), 'leaving')"] [shape=triangle];
		v8 [label="('rabbitmq', ('initiated', 1), 'leaving')"] [shape=triangle];
		v66 [label="('rabbitmq', ('deploy', 1), 'beginning')"] [shape=point];
		v166 [label="('rabbitmq', ('deployed', 1), 'place')"] [shape=box];
		v34 -> v8 [label=""];
		v166 -> v167 [label=""];
		v8 -> v66 [label=""];
		v66 -> v180 [label="('rabbitmq', 'deploy')"];
		v180 -> v166 [label=""];
	}
	subgraph cluster_7 {
		color = black;
		label = "keystone";
		v15 [label="('keystone', ('pull', 1), 'beginning')"] [shape=point];
		v124 [label="('keystone', ('deploy', 1), 'end')"] [shape=point];
		v39 [label="('keystone', ('deployed', 1), 'leaving')"] [shape=triangle];
		v173 [label="('keystone', ('pull', 1), 'end')"] [shape=point];
		v44 [label="('keystone', ('deploy', 1), 'beginning')"] [shape=point];
		v51 [label="('keystone', ('pulled', 1), 'place')"] [shape=box];
		v108 [label="('keystone', ('deployed', 1), 'place')"] [shape=box];
		v161 [label="('keystone', ('initiated', 1), 'leaving')"] [shape=triangle];
		v70 [label="('keystone', ('initiated', 1), 'place')"] [shape=box];
		v177 [label="('keystone', ('pulled', 1), 'leaving')"] [shape=triangle];
		v70 -> v161 [label=""];
		v108 -> v39 [label=""];
		v161 -> v15 [label=""];
		v51 -> v177 [label=""];
		v177 -> v44 [label=""];
		v15 -> v173 [label="('keystone', 'pull')"];
		v173 -> v51 [label=""];
		v44 -> v124 [label="('keystone', 'deploy')"];
		v124 -> v108 [label=""];
	}
	subgraph cluster_8 {
		color = black;
		label = "openvswitch";
		v131 [label="('openvswitch', ('initiated', 1), 'place')"] [shape=box];
		v88 [label="('openvswitch', ('deploy', 1), 'end')"] [shape=point];
		v30 [label="('openvswitch', ('deployed', 1), 'leaving')"] [shape=triangle];
		v116 [label="('openvswitch', ('deployed', 1), 'place')"] [shape=box];
		v110 [label="('openvswitch', ('initiated', 1), 'leaving')"] [shape=triangle];
		v11 [label="('openvswitch', ('deploy', 1), 'beginning')"] [shape=point];
		v131 -> v110 [label=""];
		v116 -> v30 [label=""];
		v110 -> v11 [label=""];
		v11 -> v88 [label="('openvswitch', 'deploy')"];
		v88 -> v116 [label=""];
	}
	subgraph cluster_9 {
		color = black;
		label = "glance";
		v74 [label="('glance', ('pulled', 1), 'leaving')"] [shape=triangle];
		v121 [label="('glance', ('config', 1), 'end')"] [shape=point];
		v174 [label="('glance', ('register', 1), 'end')"] [shape=point];
		v135 [label="('glance', ('deploy', 1), 'end')"] [shape=point];
		v2 [label="('glance', ('configured', 1), 'place')"] [shape=box];
		v144 [label="('glance', ('register', 1), 'beginning')"] [shape=point];
		v16 [label="('glance', ('pull', 1), 'end')"] [shape=point];
		v38 [label="('glance', ('configured', 1), 'leaving')"] [shape=triangle];
		v104 [label="('glance', ('deployed', 1), 'leaving')"] [shape=triangle];
		v40 [label="('glance', ('config', 1), 'beginning')"] [shape=point];
		v79 [label="('glance', ('pulled', 1), 'place')"] [shape=box];
		v107 [label="('glance', ('deploy', 1), 'beginning')"] [shape=point];
		v93 [label="('glance', ('initiated', 1), 'leaving')"] [shape=triangle];
		v128 [label="('glance', ('deployed', 1), 'place')"] [shape=box];
		v43 [label="('glance', ('registered', 1), 'leaving')"] [shape=triangle];
		v189 [label="('glance', ('registered', 1), 'place')"] [shape=box];
		v132 [label="('glance', ('pull', 1), 'beginning')"] [shape=point];
		v55 [label="('glance', ('initiated', 1), 'place')"] [shape=box];
		v55 -> v93 [label=""];
		v128 -> v104 [label=""];
		v93 -> v132 [label=""];
		v79 -> v74 [label=""];
		v74 -> v40 [label=""];
		v132 -> v16 [label="('glance', 'pull')"];
		v16 -> v79 [label=""];
		v2 -> v38 [label=""];
		v38 -> v144 [label=""];
		v40 -> v121 [label="('glance', 'config')"];
		v121 -> v2 [label=""];
		v189 -> v43 [label=""];
		v43 -> v107 [label=""];
		v144 -> v174 [label="('glance', 'register')"];
		v174 -> v189 [label=""];
		v107 -> v135 [label="('glance', 'deploy')"];
		v135 -> v128 [label=""];
	}
	subgraph cluster_10 {
		color = black;
		label = "neutron";
		v96 [label="('neutron', ('pulled', 1), 'leaving')"] [shape=triangle];
		v142 [label="('neutron', ('config', 1), 'end')"] [shape=point];
		v113 [label="('neutron', ('deploy', 1), 'end')"] [shape=point];
		v26 [label="('neutron', ('configured', 1), 'place')"] [shape=box];
		v122 [label="('neutron', ('register', 1), 'beginning')"] [shape=point];
		v183 [label="('neutron', ('pull', 1), 'end')"] [shape=point];
		v17 [label="('neutron', ('configured', 1), 'leaving')"] [shape=triangle];
		v125 [label="('neutron', ('deployed', 1), 'leaving')"] [shape=triangle];
		v115 [label="('neutron', ('config', 1), 'beginning')"] [shape=point];
		v49 [label="('neutron', ('pulled', 1), 'place')"] [shape=box];
		v9 [label="('neutron', ('register', 1), 'end')"] [shape=point];
		v31 [label="('neutron', ('deploy', 1), 'beginning')"] [shape=point];
		v67 [label="('neutron', ('initiated', 1), 'leaving')"] [shape=triangle];
		v109 [label="('neutron', ('deployed', 1), 'place')"] [shape=box];
		v69 [label="('neutron', ('registered', 1), 'leaving')"] [shape=triangle];
		v163 [label="('neutron', ('registered', 1), 'place')"] [shape=box];
		v153 [label="('neutron', ('pull', 1), 'beginning')"] [shape=point];
		v85 [label="('neutron', ('initiated', 1), 'place')"] [shape=box];
		v85 -> v67 [label=""];
		v109 -> v125 [label=""];
		v67 -> v153 [label=""];
		v49 -> v96 [label=""];
		v96 -> v115 [label=""];
		v153 -> v183 [label="('neutron', 'pull')"];
		v183 -> v49 [label=""];
		v26 -> v17 [label=""];
		v17 -> v122 [label=""];
		v115 -> v142 [label="('neutron', 'config')"];
		v142 -> v26 [label=""];
		v163 -> v69 [label=""];
		v69 -> v31 [label=""];
		v122 -> v9 [label="('neutron', 'register')"];
		v9 -> v163 [label=""];
		v31 -> v113 [label="('neutron', 'deploy')"];
		v113 -> v109 [label=""];
	}
	subgraph cluster_11 {
		color = black;
		label = "nova";
		v141 [label="('nova', ('upgraded_api', 1), 'leaving')"] [shape=triangle];
		v0 [label="('nova', ('registered', 1), 'leaving')"] [shape=triangle];
		v99 [label="('nova', ('created', 1), 'place')"] [shape=box];
		v46 [label="('nova', ('created', 1), 'leaving')"] [shape=triangle];
		v101 [label="('nova', ('configured', 1), 'leaving')"] [shape=triangle];
		v102 [label="('nova', ('create_db', 1), 'end')"] [shape=point];
		v4 [label="('nova', ('config', 1), 'beginning')"] [shape=point];
		v6 [label="('nova', ('upgrade_api_db', 1), 'end')"] [shape=point];
		v48 [label="('nova', ('configured', 1), 'place')"] [shape=box];
		v147 [label="('nova', ('register', 1), 'beginning')"] [shape=point];
		v149 [label="('nova', ('registered', 1), 'place')"] [shape=box];
		v106 [label="('nova', ('pull', 1), 'end')"] [shape=point];
		v50 [label="('nova', ('initiated', 1), 'place')"] [shape=box];
		v151 [label="('nova', ('deployed', 1), 'leaving')"] [shape=triangle];
		v155 [label="('nova', ('cell_setup', 1), 'beginning')"] [shape=point];
		v57 [label="('nova', ('upgrade_db', 1), 'beginning')"] [shape=point];
		v60 [label="('nova', ('restarted', 1), 'leaving')"] [shape=triangle];
		v159 [label="('nova', ('upgraded', 1), 'leaving')"] [shape=triangle];
		v68 [label="('nova', ('create_db', 1), 'beginning')"] [shape=point];
		v117 [label="('nova', ('config', 1), 'end')"] [shape=point];
		v162 [label="('nova', ('pulled', 1), 'leaving')"] [shape=triangle];
		v71 [label="('nova', ('pulled', 1), 'place')"] [shape=box];
		v164 [label="('nova', ('upgrade_api_db', 1), 'beginning')"] [shape=point];
		v160 [label="('nova', ('restarted', 1), 'place')"] [shape=box];
		v119 [label="('nova', ('register', 1), 'end')"] [shape=point];
		v29 [label="('nova', ('restart', 1), 'end')"] [shape=point];
		v175 [label="('nova', ('upgrade_db', 1), 'end')"] [shape=point];
		v176 [label="('nova', ('upgraded', 1), 'place')"] [shape=box];
		v178 [label="('nova', ('initiated', 1), 'leaving')"] [shape=triangle];
		v181 [label="('nova', ('pull', 1), 'beginning')"] [shape=point];
		v87 [label="('nova', ('upgraded_api', 1), 'place')"] [shape=box];
		v184 [label="('nova', ('cell_setup', 1), 'end')"] [shape=point];
		v185 [label="('nova', ('deployed', 1), 'place')"] [shape=box];
		v140 [label="('nova', ('restart', 1), 'beginning')"] [shape=point];
		v50 -> v178 [label=""];
		v185 -> v151 [label=""];
		v178 -> v181 [label=""];
		v71 -> v162 [label=""];
		v162 -> v4 [label=""];
		v181 -> v106 [label="('nova', 'pull')"];
		v106 -> v71 [label=""];
		v48 -> v101 [label=""];
		v101 -> v147 [label=""];
		v4 -> v117 [label="('nova', 'config')"];
		v117 -> v48 [label=""];
		v149 -> v0 [label=""];
		v0 -> v68 [label=""];
		v147 -> v119 [label="('nova', 'register')"];
		v119 -> v149 [label=""];
		v99 -> v46 [label=""];
		v46 -> v57 [label=""];
		v68 -> v102 [label="('nova', 'create_db')"];
		v102 -> v99 [label=""];
		v176 -> v159 [label=""];
		v159 -> v164 [label=""];
		v57 -> v175 [label="('nova', 'upgrade_db')"];
		v175 -> v176 [label=""];
		v87 -> v141 [label=""];
		v141 -> v140 [label=""];
		v164 -> v6 [label="('nova', 'upgrade_api_db')"];
		v6 -> v87 [label=""];
		v160 -> v60 [label=""];
		v60 -> v155 [label=""];
		v140 -> v29 [label="('nova', 'restart')"];
		v29 -> v160 [label=""];
		v155 -> v184 [label="('nova', 'cell_setup')"];
		v184 -> v185 [label=""];
	}
	v12 [label="source"] [shape=oval];
	v133 [label="('facts', 'facts', 'start')"] [shape=diamond];
	v65 [label="('common', 'facts', 'start')"] [shape=diamond];
	v150 [label="('facts', 'facts', 'stop')"] [shape=diamond];
	v5 [label="('common', 'facts', 'stop')"] [shape=diamond];
	v61 [label="('common', 'common', 'start')"] [shape=diamond];
	v28 [label="('haproxy', 'common', 'start')"] [shape=diamond];
	v169 [label="('common', 'common', 'stop')"] [shape=diamond];
	v92 [label="('haproxy', 'common', 'stop')"] [shape=diamond];
	v45 [label="('haproxy', 'haproxy', 'start')"] [shape=diamond];
	v78 [label="('memcached', 'haproxy', 'start')"] [shape=diamond];
	v64 [label="('haproxy', 'haproxy', 'stop')"] [shape=diamond];
	v63 [label="('memcached', 'haproxy', 'stop')"] [shape=diamond];
	v18 [label="('memcached', 'memcached', 'start')"] [shape=diamond];
	v81 [label="('mariadb', 'memcached', 'start')"] [shape=diamond];
	v27 [label="('memcached', 'memcached', 'stop')"] [shape=diamond];
	v53 [label="('mariadb', 'memcached', 'stop')"] [shape=diamond];
	v32 [label="('mariadb', 'mariadb', 'start')"] [shape=diamond];
	v186 [label="('rabbitmq', 'mariadb', 'start')"] [shape=diamond];
	v14 [label="('mariadb', 'mariadb', 'stop')"] [shape=diamond];
	v105 [label="('rabbitmq', 'mariadb', 'stop')"] [shape=diamond];
	v170 [label="('rabbitmq', 'rabbitmq', 'start')"] [shape=diamond];
	v41 [label="('keystone', 'rabbitmq', 'start')"] [shape=diamond];
	v62 [label="('rabbitmq', 'rabbitmq', 'stop')"] [shape=diamond];
	v77 [label="('keystone', 'rabbitmq', 'stop')"] [shape=diamond];
	v188 [label="('keystone', 'keystone', 'start')"] [shape=diamond];
	v152 [label="('glance', 'keystone', 'start')"] [shape=diamond];
	v73 [label="('keystone', 'keystone', 'stop')"] [shape=diamond];
	v134 [label="('glance', 'keystone', 'stop')"] [shape=diamond];
	v165 [label="('glance', 'glance', 'start')"] [shape=diamond];
	v82 [label="('nova', 'glance', 'start')"] [shape=diamond];
	v91 [label="('glance', 'glance', 'stop')"] [shape=diamond];
	v54 [label="('nova', 'glance', 'stop')"] [shape=diamond];
	v59 [label="('nova', 'nova', 'start')"] [shape=diamond];
	v22 [label="('openvswitch', 'nova', 'start')"] [shape=diamond];
	v1 [label="('nova', 'nova', 'stop')"] [shape=diamond];
	v42 [label="('openvswitch', 'nova', 'stop')"] [shape=diamond];
	v139 [label="('openvswitch', 'openvswitch', 'start')"] [shape=diamond];
	v187 [label="('neutron', 'openvswitch', 'start')"] [shape=diamond];
	v120 [label="('openvswitch', 'openvswitch', 'stop')"] [shape=diamond];
	v75 [label="('neutron', 'openvswitch', 'stop')"] [shape=diamond];
	v33 [label="wait_all_1"] [shape=oval];
	v118 [label="('neutron', 'neutron', 'start')"] [shape=diamond];
	v12 -> v7 [label=""];
	v12 -> v23 [label=""];
	v12 -> v72 [label=""];
	v12 -> v25 [label=""];
	v12 -> v156 [label=""];
	v12 -> v34 [label=""];
	v12 -> v70 [label=""];
	v12 -> v131 [label=""];
	v12 -> v137 [label=""];
	v12 -> v55 [label=""];
	v12 -> v85 [label=""];
	v12 -> v50 [label=""];
	v12 -> v33 [label=""];
	v133 -> v65 [label=""];
	v65 -> v10 [label=""];
	v150 -> v154 [label=""];
	v5 -> v150 [label=""];
	v61 -> v28 [label=""];
	v28 -> v21 [label=""];
	v169 -> v148 [label=""];
	v92 -> v169 [label=""];
	v45 -> v78 [label=""];
	v78 -> v97 [label=""];
	v64 -> v89 [label=""];
	v64 -> v76 [label=""];
	v63 -> v64 [label=""];
	v18 -> v81 [label=""];
	v81 -> v138 [label=""];
	v27 -> v3 [label=""];
	v53 -> v27 [label=""];
	v32 -> v186 [label=""];
	v186 -> v66 [label=""];
	v14 -> v111 [label=""];
	v105 -> v14 [label=""];
	v170 -> v41 [label=""];
	v41 -> v15 [label=""];
	v62 -> v167 [label=""];
	v77 -> v62 [label=""];
	v188 -> v152 [label=""];
	v152 -> v132 [label=""];
	v73 -> v39 [label=""];
	v134 -> v73 [label=""];
	v165 -> v82 [label=""];
	v82 -> v181 [label=""];
	v91 -> v104 [label=""];
	v54 -> v91 [label=""];
	v59 -> v22 [label=""];
	v22 -> v11 [label=""];
	v1 -> v151 [label=""];
	v42 -> v1 [label=""];
	v139 -> v187 [label=""];
	v187 -> v153 [label=""];
	v120 -> v30 [label=""];
	v75 -> v120 [label=""];
	v137 -> v45 [label=""];
	v182 -> v33 [label=""];
	v182 -> v133 [label=""];
	v86 -> v33 [label=""];
	v86 -> v61 [label=""];
	v146 -> v33 [label=""];
	v146 -> v18 [label=""];
	v129 -> v33 [label=""];
	v129 -> v32 [label=""];
	v166 -> v33 [label=""];
	v166 -> v170 [label=""];
	v108 -> v33 [label=""];
	v108 -> v188 [label=""];
	v116 -> v33 [label=""];
	v116 -> v139 [label=""];
	v128 -> v33 [label=""];
	v128 -> v165 [label=""];
	v109 -> v33 [label=""];
	v109 -> v118 [label=""];
	v185 -> v33 [label=""];
	v185 -> v59 [label=""];
	v37 -> v5 [label=""];
	v100 -> v92 [label=""];
	v19 -> v63 [label=""];
	v168 -> v53 [label=""];
	v180 -> v105 [label=""];
	v173 -> v77 [label=""];
	v88 -> v42 [label=""];
	v16 -> v134 [label=""];
	v183 -> v75 [label=""];
	v106 -> v54 [label=""];
}
