digraph G {
	rankdir=BT;
	subgraph cluster_1 {
		color = black;
		label = "facts";
		v30 [label="('facts', ('deployed', 1), 'leaving')"] [shape=triangle];
		v65 [label="('facts', ('initiated', 1), 'place')"] [shape=box];
		v72 [label="('facts', ('initiated', 1), 'leaving')"] [shape=triangle];
		v66 [label="('facts', ('deploy', 1), 'beginning')"] [shape=point];
		v67 [label="('facts', ('deployed', 1), 'place')"] [shape=box];
		v55 [label="('facts', ('deploy', 1), 'end')"] [shape=point];
		v65 -> v72 [label=""];
		v67 -> v30 [label=""];
		v72 -> v66 [label=""];
		v66 -> v55 [label="('facts', 'deploy')"];
		v55 -> v67 [label=""];
	}
	subgraph cluster_2 {
		color = black;
		label = "common";
		v29 [label="('common', ('deployed', 1), 'place')"] [shape=box];
		v42 [label="('common', ('initiated', 1), 'place')"] [shape=box];
		v43 [label="('common', ('deploy', 1), 'beginning')"] [shape=point];
		v13 [label="('common', ('deploy', 1), 'end')"] [shape=point];
		v85 [label="('common', ('initiated', 1), 'leaving')"] [shape=triangle];
		v68 [label="('common', ('deployed', 1), 'leaving')"] [shape=triangle];
		v42 -> v85 [label=""];
		v29 -> v68 [label=""];
		v85 -> v43 [label=""];
		v43 -> v13 [label="('common', 'deploy')"];
		v13 -> v29 [label=""];
	}
	subgraph cluster_3 {
		color = black;
		label = "haproxy";
		v28 [label="('haproxy', ('deployed', 1), 'leaving')"] [shape=triangle];
		v16 [label="('haproxy', ('deploy', 1), 'end')"] [shape=point];
		v106 [label="('haproxy', ('initiated', 1), 'leaving')"] [shape=triangle];
		v33 [label="('haproxy', ('initiated', 1), 'place')"] [shape=box];
		v44 [label="('haproxy', ('deploy', 1), 'beginning')"] [shape=point];
		v52 [label="('haproxy', ('deployed', 1), 'place')"] [shape=box];
		v33 -> v106 [label=""];
		v52 -> v28 [label=""];
		v106 -> v44 [label=""];
		v44 -> v16 [label="('haproxy', 'deploy')"];
		v16 -> v52 [label=""];
	}
	subgraph cluster_4 {
		color = black;
		label = "memcached";
		v36 [label="('memcached', ('initiated', 1), 'place')"] [shape=box];
		v82 [label="('memcached', ('deployed', 1), 'leaving')"] [shape=triangle];
		v7 [label="('memcached', ('deployed', 1), 'place')"] [shape=box];
		v100 [label="('memcached', ('deploy', 1), 'end')"] [shape=point];
		v10 [label="('memcached', ('deploy', 1), 'beginning')"] [shape=point];
		v94 [label="('memcached', ('initiated', 1), 'leaving')"] [shape=triangle];
		v36 -> v94 [label=""];
		v7 -> v82 [label=""];
		v94 -> v10 [label=""];
		v10 -> v100 [label="('memcached', 'deploy')"];
		v100 -> v7 [label=""];
	}
	subgraph cluster_5 {
		color = black;
		label = "mariadb";
		v105 [label="('mariadb', ('deploy', 1), 'beginning')"] [shape=point];
		v104 [label="('mariadb', ('initiated', 1), 'place')"] [shape=box];
		v31 [label="('mariadb', ('deploy', 1), 'end')"] [shape=point];
		v83 [label="('mariadb', ('initiated', 1), 'leaving')"] [shape=triangle];
		v8 [label="('mariadb', ('deployed', 1), 'leaving')"] [shape=triangle];
		v21 [label="('mariadb', ('deployed', 1), 'place')"] [shape=box];
		v104 -> v83 [label=""];
		v21 -> v8 [label=""];
		v83 -> v105 [label=""];
		v105 -> v31 [label="('mariadb', 'deploy')"];
		v31 -> v21 [label=""];
	}
	subgraph cluster_6 {
		color = black;
		label = "rabbitmq";
		v96 [label="('rabbitmq', ('deployed', 1), 'leaving')"] [shape=triangle];
		v32 [label="('rabbitmq', ('deploy', 1), 'end')"] [shape=point];
		v37 [label="('rabbitmq', ('initiated', 1), 'leaving')"] [shape=triangle];
		v99 [label="('rabbitmq', ('initiated', 1), 'place')"] [shape=box];
		v58 [label="('rabbitmq', ('deploy', 1), 'beginning')"] [shape=point];
		v87 [label="('rabbitmq', ('deployed', 1), 'place')"] [shape=box];
		v99 -> v37 [label=""];
		v87 -> v96 [label=""];
		v37 -> v58 [label=""];
		v58 -> v32 [label="('rabbitmq', 'deploy')"];
		v32 -> v87 [label=""];
	}
	subgraph cluster_7 {
		color = black;
		label = "keystone";
		v98 [label="('keystone', ('initiated', 1), 'leaving')"] [shape=triangle];
		v50 [label="('keystone', ('deploy', 1), 'end')"] [shape=point];
		v24 [label="('keystone', ('initiated', 1), 'place')"] [shape=box];
		v35 [label="('keystone', ('deploy', 1), 'beginning')"] [shape=point];
		v108 [label="('keystone', ('deployed', 1), 'place')"] [shape=box];
		v89 [label="('keystone', ('deployed', 1), 'leaving')"] [shape=triangle];
		v24 -> v98 [label=""];
		v108 -> v89 [label=""];
		v98 -> v35 [label=""];
		v35 -> v50 [label="('keystone', 'deploy')"];
		v50 -> v108 [label=""];
	}
	subgraph cluster_8 {
		color = black;
		label = "openvswitch";
		v17 [label="('openvswitch', ('initiated', 1), 'leaving')"] [shape=triangle];
		v20 [label="('openvswitch', ('deploy', 1), 'end')"] [shape=point];
		v107 [label="('openvswitch', ('initiated', 1), 'place')"] [shape=box];
		v3 [label="('openvswitch', ('deploy', 1), 'beginning')"] [shape=point];
		v79 [label="('openvswitch', ('deployed', 1), 'place')"] [shape=box];
		v4 [label="('openvswitch', ('deployed', 1), 'leaving')"] [shape=triangle];
		v107 -> v17 [label=""];
		v79 -> v4 [label=""];
		v17 -> v3 [label=""];
		v3 -> v20 [label="('openvswitch', 'deploy')"];
		v20 -> v79 [label=""];
	}
	subgraph cluster_9 {
		color = black;
		label = "glance";
		v63 [label="('glance', ('initiated', 1), 'place')"] [shape=box];
		v38 [label="('glance', ('deployed', 1), 'place')"] [shape=box];
		v5 [label="('glance', ('deploy', 1), 'beginning')"] [shape=point];
		v39 [label="('glance', ('initiated', 1), 'leaving')"] [shape=triangle];
		v49 [label="('glance', ('deployed', 1), 'leaving')"] [shape=triangle];
		v53 [label="('glance', ('deploy', 1), 'end')"] [shape=point];
		v63 -> v39 [label=""];
		v38 -> v49 [label=""];
		v39 -> v5 [label=""];
		v5 -> v53 [label="('glance', 'deploy')"];
		v53 -> v38 [label=""];
	}
	subgraph cluster_10 {
		color = black;
		label = "neutron";
		v57 [label="('neutron', ('initiated', 1), 'leaving')"] [shape=triangle];
		v70 [label="('neutron', ('deploy', 1), 'end')"] [shape=point];
		v101 [label="('neutron', ('deployed', 1), 'leaving')"] [shape=triangle];
		v46 [label="('neutron', ('deploy', 1), 'beginning')"] [shape=point];
		v25 [label="('neutron', ('deployed', 1), 'place')"] [shape=box];
		v45 [label="('neutron', ('initiated', 1), 'place')"] [shape=box];
		v45 -> v57 [label=""];
		v25 -> v101 [label=""];
		v57 -> v46 [label=""];
		v46 -> v70 [label="('neutron', 'deploy')"];
		v70 -> v25 [label=""];
	}
	subgraph cluster_11 {
		color = black;
		label = "nova";
		v64 [label="('nova', ('deployed', 1), 'leaving')"] [shape=triangle];
		v12 [label="('nova', ('initiated', 1), 'place')"] [shape=box];
		v77 [label="('nova', ('initiated', 1), 'leaving')"] [shape=triangle];
		v14 [label="('nova', ('deploy', 1), 'beginning')"] [shape=point];
		v88 [label="('nova', ('deployed', 1), 'place')"] [shape=box];
		v54 [label="('nova', ('deploy', 1), 'end')"] [shape=point];
		v12 -> v77 [label=""];
		v88 -> v64 [label=""];
		v77 -> v14 [label=""];
		v14 -> v54 [label="('nova', 'deploy')"];
		v54 -> v88 [label=""];
	}
	v40 [label="source"] [shape=oval];
	v73 [label="('facts', 'facts', 'start')"] [shape=diamond];
	v19 [label="('common', 'facts', 'start')"] [shape=diamond];
	v1 [label="('facts', 'facts', 'stop')"] [shape=diamond];
	v69 [label="('common', 'facts', 'stop')"] [shape=diamond];
	v102 [label="('common', 'common', 'start')"] [shape=diamond];
	v78 [label="('haproxy', 'common', 'start')"] [shape=diamond];
	v9 [label="('common', 'common', 'stop')"] [shape=diamond];
	v18 [label="('haproxy', 'common', 'stop')"] [shape=diamond];
	v81 [label="('haproxy', 'haproxy', 'start')"] [shape=diamond];
	v93 [label="('memcached', 'haproxy', 'start')"] [shape=diamond];
	v95 [label="('haproxy', 'haproxy', 'stop')"] [shape=diamond];
	v34 [label="('memcached', 'haproxy', 'stop')"] [shape=diamond];
	v47 [label="('memcached', 'memcached', 'start')"] [shape=diamond];
	v26 [label="('mariadb', 'memcached', 'start')"] [shape=diamond];
	v60 [label="('memcached', 'memcached', 'stop')"] [shape=diamond];
	v15 [label="('mariadb', 'memcached', 'stop')"] [shape=diamond];
	v59 [label="('mariadb', 'mariadb', 'start')"] [shape=diamond];
	v11 [label="('rabbitmq', 'mariadb', 'start')"] [shape=diamond];
	v76 [label="('mariadb', 'mariadb', 'stop')"] [shape=diamond];
	v80 [label="('rabbitmq', 'mariadb', 'stop')"] [shape=diamond];
	v61 [label="('rabbitmq', 'rabbitmq', 'start')"] [shape=diamond];
	v56 [label="('keystone', 'rabbitmq', 'start')"] [shape=diamond];
	v74 [label="('rabbitmq', 'rabbitmq', 'stop')"] [shape=diamond];
	v86 [label="('keystone', 'rabbitmq', 'stop')"] [shape=diamond];
	v6 [label="('keystone', 'keystone', 'start')"] [shape=diamond];
	v90 [label="('glance', 'keystone', 'start')"] [shape=diamond];
	v97 [label="('keystone', 'keystone', 'stop')"] [shape=diamond];
	v51 [label="('glance', 'keystone', 'stop')"] [shape=diamond];
	v75 [label="('glance', 'glance', 'start')"] [shape=diamond];
	v23 [label="('nova', 'glance', 'start')"] [shape=diamond];
	v22 [label="('glance', 'glance', 'stop')"] [shape=diamond];
	v2 [label="('nova', 'glance', 'stop')"] [shape=diamond];
	v0 [label="('nova', 'nova', 'start')"] [shape=diamond];
	v84 [label="('openvswitch', 'nova', 'start')"] [shape=diamond];
	v92 [label="('nova', 'nova', 'stop')"] [shape=diamond];
	v103 [label="('openvswitch', 'nova', 'stop')"] [shape=diamond];
	v71 [label="('openvswitch', 'openvswitch', 'start')"] [shape=diamond];
	v62 [label="('neutron', 'openvswitch', 'start')"] [shape=diamond];
	v48 [label="('openvswitch', 'openvswitch', 'stop')"] [shape=diamond];
	v41 [label="('neutron', 'openvswitch', 'stop')"] [shape=diamond];
	v91 [label="wait_all_1"] [shape=oval];
	v27 [label="('neutron', 'neutron', 'start')"] [shape=diamond];
	v40 -> v65 [label=""];
	v40 -> v42 [label=""];
	v40 -> v33 [label=""];
	v40 -> v36 [label=""];
	v40 -> v104 [label=""];
	v40 -> v99 [label=""];
	v40 -> v107 [label=""];
	v40 -> v24 [label=""];
	v40 -> v63 [label=""];
	v40 -> v45 [label=""];
	v40 -> v12 [label=""];
	v40 -> v91 [label=""];
	v73 -> v19 [label=""];
	v19 -> v43 [label=""];
	v1 -> v30 [label=""];
	v69 -> v1 [label=""];
	v102 -> v78 [label=""];
	v78 -> v44 [label=""];
	v9 -> v68 [label=""];
	v18 -> v9 [label=""];
	v81 -> v93 [label=""];
	v93 -> v10 [label=""];
	v95 -> v28 [label=""];
	v34 -> v95 [label=""];
	v47 -> v26 [label=""];
	v26 -> v105 [label=""];
	v60 -> v82 [label=""];
	v15 -> v60 [label=""];
	v59 -> v11 [label=""];
	v11 -> v58 [label=""];
	v76 -> v8 [label=""];
	v80 -> v76 [label=""];
	v61 -> v56 [label=""];
	v56 -> v35 [label=""];
	v74 -> v96 [label=""];
	v86 -> v74 [label=""];
	v6 -> v90 [label=""];
	v90 -> v5 [label=""];
	v97 -> v89 [label=""];
	v51 -> v97 [label=""];
	v75 -> v23 [label=""];
	v23 -> v14 [label=""];
	v22 -> v49 [label=""];
	v2 -> v22 [label=""];
	v0 -> v84 [label=""];
	v84 -> v3 [label=""];
	v92 -> v64 [label=""];
	v103 -> v92 [label=""];
	v71 -> v62 [label=""];
	v62 -> v46 [label=""];
	v48 -> v4 [label=""];
	v41 -> v48 [label=""];
	v67 -> v91 [label=""];
	v67 -> v73 [label=""];
	v29 -> v91 [label=""];
	v29 -> v102 [label=""];
	v52 -> v91 [label=""];
	v52 -> v81 [label=""];
	v7 -> v91 [label=""];
	v7 -> v47 [label=""];
	v21 -> v91 [label=""];
	v21 -> v59 [label=""];
	v87 -> v91 [label=""];
	v87 -> v61 [label=""];
	v108 -> v91 [label=""];
	v108 -> v6 [label=""];
	v79 -> v91 [label=""];
	v79 -> v71 [label=""];
	v38 -> v91 [label=""];
	v38 -> v75 [label=""];
	v25 -> v91 [label=""];
	v25 -> v27 [label=""];
	v88 -> v91 [label=""];
	v88 -> v0 [label=""];
	v13 -> v69 [label=""];
	v16 -> v18 [label=""];
	v100 -> v34 [label=""];
	v31 -> v15 [label=""];
	v32 -> v80 [label=""];
	v50 -> v86 [label=""];
	v20 -> v103 [label=""];
	v53 -> v51 [label=""];
	v70 -> v41 [label=""];
	v54 -> v2 [label=""];
}
