<?xml version="1.0" encoding="UTF-8"?>
<svg xmlns="http://www.w3.org/2000/svg" xmlns:xlink="http://www.w3.org/1999/xlink" width="883pt" height="1042pt" viewBox="0 0 883 1042" version="1.1">
<defs>
<g>
<symbol overflow="visible" id="glyph0-0">
<path style="stroke:none;" d="M 1.125 3.984375 L 1.125 -15.921875 L 12.40625 -15.921875 L 12.40625 3.984375 Z M 2.390625 2.734375 L 11.15625 2.734375 L 11.15625 -14.65625 L 2.390625 -14.65625 Z M 2.390625 2.734375 "/>
</symbol>
<symbol overflow="visible" id="glyph0-1">
<path style="stroke:none;" d="M 4.09375 -1.859375 L 4.09375 4.703125 L 2.046875 4.703125 L 2.046875 -12.34375 L 4.09375 -12.34375 L 4.09375 -10.46875 C 4.519531 -11.207031 5.054688 -11.753906 5.703125 -12.109375 C 6.359375 -12.460938 7.132812 -12.640625 8.03125 -12.640625 C 9.53125 -12.640625 10.75 -12.046875 11.6875 -10.859375 C 12.625 -9.671875 13.09375 -8.101562 13.09375 -6.15625 C 13.09375 -4.21875 12.625 -2.65625 11.6875 -1.46875 C 10.75 -0.28125 9.53125 0.3125 8.03125 0.3125 C 7.132812 0.3125 6.359375 0.132812 5.703125 -0.21875 C 5.054688 -0.570312 4.519531 -1.117188 4.09375 -1.859375 Z M 10.984375 -6.15625 C 10.984375 -7.65625 10.675781 -8.828125 10.0625 -9.671875 C 9.457031 -10.523438 8.617188 -10.953125 7.546875 -10.953125 C 6.472656 -10.953125 5.628906 -10.523438 5.015625 -9.671875 C 4.398438 -8.828125 4.09375 -7.65625 4.09375 -6.15625 C 4.09375 -4.664062 4.398438 -3.492188 5.015625 -2.640625 C 5.628906 -1.796875 6.472656 -1.375 7.546875 -1.375 C 8.617188 -1.375 9.457031 -1.796875 10.0625 -2.640625 C 10.675781 -3.492188 10.984375 -4.664062 10.984375 -6.15625 Z M 10.984375 -6.15625 "/>
</symbol>
<symbol overflow="visible" id="glyph0-2">
<path style="stroke:none;" d="M 9.28125 -10.453125 C 9.050781 -10.585938 8.800781 -10.6875 8.53125 -10.75 C 8.269531 -10.8125 7.976562 -10.84375 7.65625 -10.84375 C 6.507812 -10.84375 5.628906 -10.46875 5.015625 -9.71875 C 4.398438 -8.96875 4.09375 -7.894531 4.09375 -6.5 L 4.09375 0 L 2.046875 0 L 2.046875 -12.34375 L 4.09375 -12.34375 L 4.09375 -10.421875 C 4.519531 -11.171875 5.070312 -11.726562 5.75 -12.09375 C 6.4375 -12.457031 7.269531 -12.640625 8.25 -12.640625 C 8.382812 -12.640625 8.535156 -12.628906 8.703125 -12.609375 C 8.878906 -12.597656 9.066406 -12.570312 9.265625 -12.53125 Z M 9.28125 -10.453125 "/>
</symbol>
<symbol overflow="visible" id="glyph0-3">
<path style="stroke:none;" d="M 6.90625 -10.921875 C 5.820312 -10.921875 4.960938 -10.492188 4.328125 -9.640625 C 3.703125 -8.796875 3.390625 -7.632812 3.390625 -6.15625 C 3.390625 -4.6875 3.703125 -3.523438 4.328125 -2.671875 C 4.953125 -1.828125 5.8125 -1.40625 6.90625 -1.40625 C 7.988281 -1.40625 8.84375 -1.828125 9.46875 -2.671875 C 10.101562 -3.523438 10.421875 -4.6875 10.421875 -6.15625 C 10.421875 -7.625 10.101562 -8.785156 9.46875 -9.640625 C 8.84375 -10.492188 7.988281 -10.921875 6.90625 -10.921875 Z M 6.90625 -12.640625 C 8.675781 -12.640625 10.0625 -12.066406 11.0625 -10.921875 C 12.070312 -9.773438 12.578125 -8.1875 12.578125 -6.15625 C 12.578125 -4.132812 12.070312 -2.550781 11.0625 -1.40625 C 10.0625 -0.257812 8.675781 0.3125 6.90625 0.3125 C 5.132812 0.3125 3.75 -0.257812 2.75 -1.40625 C 1.75 -2.550781 1.25 -4.132812 1.25 -6.15625 C 1.25 -8.1875 1.75 -9.773438 2.75 -10.921875 C 3.75 -12.066406 5.132812 -12.640625 6.90625 -12.640625 Z M 6.90625 -12.640625 "/>
</symbol>
<symbol overflow="visible" id="glyph0-4">
<path style="stroke:none;" d="M 0.671875 -12.34375 L 2.828125 -12.34375 L 6.6875 -1.984375 L 10.546875 -12.34375 L 12.6875 -12.34375 L 8.0625 0 L 5.296875 0 Z M 0.671875 -12.34375 "/>
</symbol>
<symbol overflow="visible" id="glyph0-5">
<path style="stroke:none;" d="M 2.125 -12.34375 L 4.15625 -12.34375 L 4.15625 0 L 2.125 0 Z M 2.125 -17.15625 L 4.15625 -17.15625 L 4.15625 -14.578125 L 2.125 -14.578125 Z M 2.125 -17.15625 "/>
</symbol>
<symbol overflow="visible" id="glyph0-6">
<path style="stroke:none;" d="M 10 -11.984375 L 10 -10.0625 C 9.425781 -10.351562 8.828125 -10.570312 8.203125 -10.71875 C 7.585938 -10.875 6.953125 -10.953125 6.296875 -10.953125 C 5.285156 -10.953125 4.53125 -10.796875 4.03125 -10.484375 C 3.53125 -10.171875 3.28125 -9.707031 3.28125 -9.09375 C 3.28125 -8.625 3.457031 -8.253906 3.8125 -7.984375 C 4.175781 -7.710938 4.898438 -7.457031 5.984375 -7.21875 L 6.6875 -7.0625 C 8.125 -6.757812 9.144531 -6.328125 9.75 -5.765625 C 10.351562 -5.203125 10.65625 -4.414062 10.65625 -3.40625 C 10.65625 -2.257812 10.203125 -1.351562 9.296875 -0.6875 C 8.390625 -0.0195312 7.144531 0.3125 5.5625 0.3125 C 4.894531 0.3125 4.203125 0.25 3.484375 0.125 C 2.773438 0 2.019531 -0.191406 1.21875 -0.453125 L 1.21875 -2.546875 C 1.96875 -2.160156 2.707031 -1.867188 3.4375 -1.671875 C 4.164062 -1.472656 4.882812 -1.375 5.59375 -1.375 C 6.550781 -1.375 7.285156 -1.535156 7.796875 -1.859375 C 8.316406 -2.191406 8.578125 -2.65625 8.578125 -3.25 C 8.578125 -3.800781 8.390625 -4.222656 8.015625 -4.515625 C 7.648438 -4.816406 6.835938 -5.101562 5.578125 -5.375 L 4.875 -5.53125 C 3.613281 -5.800781 2.703125 -6.207031 2.140625 -6.75 C 1.585938 -7.300781 1.3125 -8.050781 1.3125 -9 C 1.3125 -10.164062 1.722656 -11.0625 2.546875 -11.6875 C 3.367188 -12.320312 4.535156 -12.640625 6.046875 -12.640625 C 6.796875 -12.640625 7.5 -12.582031 8.15625 -12.46875 C 8.820312 -12.363281 9.4375 -12.203125 10 -11.984375 Z M 10 -11.984375 "/>
</symbol>
<symbol overflow="visible" id="glyph0-7">
<path style="stroke:none;" d="M 12.390625 -7.453125 L 12.390625 0 L 10.359375 0 L 10.359375 -7.390625 C 10.359375 -8.554688 10.128906 -9.425781 9.671875 -10 C 9.222656 -10.582031 8.539062 -10.875 7.625 -10.875 C 6.53125 -10.875 5.664062 -10.523438 5.03125 -9.828125 C 4.40625 -9.128906 4.09375 -8.179688 4.09375 -6.984375 L 4.09375 0 L 2.046875 0 L 2.046875 -12.34375 L 4.09375 -12.34375 L 4.09375 -10.421875 C 4.570312 -11.171875 5.140625 -11.726562 5.796875 -12.09375 C 6.460938 -12.457031 7.222656 -12.640625 8.078125 -12.640625 C 9.492188 -12.640625 10.566406 -12.203125 11.296875 -11.328125 C 12.023438 -10.453125 12.390625 -9.160156 12.390625 -7.453125 Z M 12.390625 -7.453125 "/>
</symbol>
<symbol overflow="visible" id="glyph0-8">
<path style="stroke:none;" d="M 1.921875 -4.875 L 1.921875 -12.34375 L 3.953125 -12.34375 L 3.953125 -4.953125 C 3.953125 -3.785156 4.175781 -2.90625 4.625 -2.3125 C 5.082031 -1.726562 5.769531 -1.4375 6.6875 -1.4375 C 7.78125 -1.4375 8.644531 -1.785156 9.28125 -2.484375 C 9.914062 -3.179688 10.234375 -4.132812 10.234375 -5.34375 L 10.234375 -12.34375 L 12.265625 -12.34375 L 12.265625 0 L 10.234375 0 L 10.234375 -1.890625 C 9.734375 -1.140625 9.160156 -0.582031 8.515625 -0.21875 C 7.867188 0.132812 7.113281 0.3125 6.25 0.3125 C 4.832031 0.3125 3.753906 -0.125 3.015625 -1 C 2.285156 -1.882812 1.921875 -3.175781 1.921875 -4.875 Z M 7.015625 -12.640625 Z M 7.015625 -12.640625 "/>
</symbol>
<symbol overflow="visible" id="glyph0-9">
<path style="stroke:none;" d="M 2.125 -17.15625 L 4.15625 -17.15625 L 4.15625 0 L 2.125 0 Z M 2.125 -17.15625 "/>
</symbol>
<symbol overflow="visible" id="glyph0-10">
<path style="stroke:none;" d="M 10.984375 -6.15625 C 10.984375 -7.65625 10.675781 -8.828125 10.0625 -9.671875 C 9.457031 -10.523438 8.617188 -10.953125 7.546875 -10.953125 C 6.472656 -10.953125 5.628906 -10.523438 5.015625 -9.671875 C 4.398438 -8.828125 4.09375 -7.65625 4.09375 -6.15625 C 4.09375 -4.664062 4.398438 -3.492188 5.015625 -2.640625 C 5.628906 -1.796875 6.472656 -1.375 7.546875 -1.375 C 8.617188 -1.375 9.457031 -1.796875 10.0625 -2.640625 C 10.675781 -3.492188 10.984375 -4.664062 10.984375 -6.15625 Z M 4.09375 -10.46875 C 4.519531 -11.207031 5.054688 -11.753906 5.703125 -12.109375 C 6.359375 -12.460938 7.132812 -12.640625 8.03125 -12.640625 C 9.53125 -12.640625 10.75 -12.046875 11.6875 -10.859375 C 12.625 -9.671875 13.09375 -8.101562 13.09375 -6.15625 C 13.09375 -4.21875 12.625 -2.65625 11.6875 -1.46875 C 10.75 -0.28125 9.53125 0.3125 8.03125 0.3125 C 7.132812 0.3125 6.359375 0.132812 5.703125 -0.21875 C 5.054688 -0.570312 4.519531 -1.117188 4.09375 -1.859375 L 4.09375 0 L 2.046875 0 L 2.046875 -17.15625 L 4.09375 -17.15625 Z M 4.09375 -10.46875 "/>
</symbol>
<symbol overflow="visible" id="glyph0-11">
<path style="stroke:none;" d="M 10.25 -10.46875 L 10.25 -17.15625 L 12.28125 -17.15625 L 12.28125 0 L 10.25 0 L 10.25 -1.859375 C 9.820312 -1.117188 9.28125 -0.570312 8.625 -0.21875 C 7.976562 0.132812 7.203125 0.3125 6.296875 0.3125 C 4.804688 0.3125 3.59375 -0.28125 2.65625 -1.46875 C 1.71875 -2.65625 1.25 -4.21875 1.25 -6.15625 C 1.25 -8.101562 1.71875 -9.671875 2.65625 -10.859375 C 3.59375 -12.046875 4.804688 -12.640625 6.296875 -12.640625 C 7.203125 -12.640625 7.976562 -12.460938 8.625 -12.109375 C 9.28125 -11.753906 9.820312 -11.207031 10.25 -10.46875 Z M 3.34375 -6.15625 C 3.34375 -4.664062 3.648438 -3.492188 4.265625 -2.640625 C 4.878906 -1.796875 5.722656 -1.375 6.796875 -1.375 C 7.867188 -1.375 8.710938 -1.796875 9.328125 -2.640625 C 9.941406 -3.492188 10.25 -4.664062 10.25 -6.15625 C 10.25 -7.65625 9.941406 -8.828125 9.328125 -9.671875 C 8.710938 -10.523438 7.867188 -10.953125 6.796875 -10.953125 C 5.722656 -10.953125 4.878906 -10.523438 4.265625 -9.671875 C 3.648438 -8.828125 3.34375 -7.65625 3.34375 -6.15625 Z M 3.34375 -6.15625 "/>
</symbol>
<symbol overflow="visible" id="glyph0-12">
<path style="stroke:none;" d="M 5.734375 -16.453125 L 7.609375 -16.453125 L 1.875 2.09375 L 0 2.09375 Z M 5.734375 -16.453125 "/>
</symbol>
<symbol overflow="visible" id="glyph0-13">
<path style="stroke:none;" d="M 4.140625 -15.859375 L 4.140625 -12.34375 L 8.3125 -12.34375 L 8.3125 -10.765625 L 4.140625 -10.765625 L 4.140625 -4.0625 C 4.140625 -3.0625 4.273438 -2.414062 4.546875 -2.125 C 4.828125 -1.84375 5.390625 -1.703125 6.234375 -1.703125 L 8.3125 -1.703125 L 8.3125 0 L 6.234375 0 C 4.660156 0 3.578125 -0.289062 2.984375 -0.875 C 2.390625 -1.457031 2.09375 -2.519531 2.09375 -4.0625 L 2.09375 -10.765625 L 0.609375 -10.765625 L 0.609375 -12.34375 L 2.09375 -12.34375 L 2.09375 -15.859375 Z M 4.140625 -15.859375 "/>
</symbol>
<symbol overflow="visible" id="glyph0-14">
<path style="stroke:none;" d="M 7.734375 -6.203125 C 6.097656 -6.203125 4.960938 -6.015625 4.328125 -5.640625 C 3.703125 -5.265625 3.390625 -4.625 3.390625 -3.71875 C 3.390625 -3 3.625 -2.425781 4.09375 -2 C 4.570312 -1.582031 5.21875 -1.375 6.03125 -1.375 C 7.15625 -1.375 8.054688 -1.769531 8.734375 -2.5625 C 9.410156 -3.363281 9.75 -4.425781 9.75 -5.75 L 9.75 -6.203125 Z M 11.78125 -7.046875 L 11.78125 0 L 9.75 0 L 9.75 -1.875 C 9.289062 -1.125 8.710938 -0.570312 8.015625 -0.21875 C 7.328125 0.132812 6.484375 0.3125 5.484375 0.3125 C 4.222656 0.3125 3.21875 -0.0390625 2.46875 -0.75 C 1.726562 -1.457031 1.359375 -2.40625 1.359375 -3.59375 C 1.359375 -4.976562 1.820312 -6.023438 2.75 -6.734375 C 3.675781 -7.441406 5.0625 -7.796875 6.90625 -7.796875 L 9.75 -7.796875 L 9.75 -8 C 9.75 -8.925781 9.441406 -9.644531 8.828125 -10.15625 C 8.222656 -10.664062 7.363281 -10.921875 6.25 -10.921875 C 5.539062 -10.921875 4.851562 -10.835938 4.1875 -10.671875 C 3.519531 -10.503906 2.878906 -10.25 2.265625 -9.90625 L 2.265625 -11.78125 C 3.003906 -12.070312 3.722656 -12.285156 4.421875 -12.421875 C 5.117188 -12.566406 5.796875 -12.640625 6.453125 -12.640625 C 8.242188 -12.640625 9.578125 -12.175781 10.453125 -11.25 C 11.335938 -10.320312 11.78125 -8.921875 11.78125 -7.046875 Z M 11.78125 -7.046875 "/>
</symbol>
<symbol overflow="visible" id="glyph0-15">
<path style="stroke:none;" d="M 11.015625 -11.875 L 11.015625 -9.984375 C 10.441406 -10.296875 9.863281 -10.53125 9.28125 -10.6875 C 8.707031 -10.84375 8.128906 -10.921875 7.546875 -10.921875 C 6.222656 -10.921875 5.195312 -10.503906 4.46875 -9.671875 C 3.75 -8.835938 3.390625 -7.664062 3.390625 -6.15625 C 3.390625 -4.65625 3.75 -3.488281 4.46875 -2.65625 C 5.195312 -1.820312 6.222656 -1.40625 7.546875 -1.40625 C 8.128906 -1.40625 8.707031 -1.484375 9.28125 -1.640625 C 9.863281 -1.796875 10.441406 -2.03125 11.015625 -2.34375 L 11.015625 -0.46875 C 10.453125 -0.207031 9.863281 -0.015625 9.25 0.109375 C 8.644531 0.242188 8 0.3125 7.3125 0.3125 C 5.457031 0.3125 3.984375 -0.269531 2.890625 -1.4375 C 1.796875 -2.601562 1.25 -4.175781 1.25 -6.15625 C 1.25 -8.175781 1.800781 -9.757812 2.90625 -10.90625 C 4.007812 -12.0625 5.523438 -12.640625 7.453125 -12.640625 C 8.078125 -12.640625 8.6875 -12.578125 9.28125 -12.453125 C 9.875 -12.328125 10.453125 -12.132812 11.015625 -11.875 Z M 11.015625 -11.875 "/>
</symbol>
<symbol overflow="visible" id="glyph0-16">
<path style="stroke:none;" d="M 12.390625 -7.453125 L 12.390625 0 L 10.359375 0 L 10.359375 -7.390625 C 10.359375 -8.554688 10.128906 -9.425781 9.671875 -10 C 9.222656 -10.582031 8.539062 -10.875 7.625 -10.875 C 6.53125 -10.875 5.664062 -10.523438 5.03125 -9.828125 C 4.40625 -9.128906 4.09375 -8.179688 4.09375 -6.984375 L 4.09375 0 L 2.046875 0 L 2.046875 -17.15625 L 4.09375 -17.15625 L 4.09375 -10.421875 C 4.570312 -11.171875 5.140625 -11.726562 5.796875 -12.09375 C 6.460938 -12.457031 7.222656 -12.640625 8.078125 -12.640625 C 9.492188 -12.640625 10.566406 -12.203125 11.296875 -11.328125 C 12.023438 -10.453125 12.390625 -9.160156 12.390625 -7.453125 Z M 12.390625 -7.453125 "/>
</symbol>
<symbol overflow="visible" id="glyph0-17">
<path style="stroke:none;" d="M 12.6875 -6.6875 L 12.6875 -5.6875 L 3.359375 -5.6875 C 3.453125 -4.289062 3.875 -3.226562 4.625 -2.5 C 5.375 -1.769531 6.421875 -1.40625 7.765625 -1.40625 C 8.546875 -1.40625 9.300781 -1.5 10.03125 -1.6875 C 10.769531 -1.875 11.5 -2.160156 12.21875 -2.546875 L 12.21875 -0.625 C 11.488281 -0.320312 10.738281 -0.09375 9.96875 0.0625 C 9.207031 0.226562 8.4375 0.3125 7.65625 0.3125 C 5.6875 0.3125 4.125 -0.257812 2.96875 -1.40625 C 1.820312 -2.550781 1.25 -4.097656 1.25 -6.046875 C 1.25 -8.066406 1.789062 -9.671875 2.875 -10.859375 C 3.96875 -12.046875 5.441406 -12.640625 7.296875 -12.640625 C 8.960938 -12.640625 10.273438 -12.101562 11.234375 -11.03125 C 12.203125 -9.96875 12.6875 -8.519531 12.6875 -6.6875 Z M 10.65625 -7.28125 C 10.644531 -8.382812 10.332031 -9.265625 9.71875 -9.921875 C 9.113281 -10.585938 8.3125 -10.921875 7.3125 -10.921875 C 6.1875 -10.921875 5.28125 -10.597656 4.59375 -9.953125 C 3.914062 -9.316406 3.523438 -8.421875 3.421875 -7.265625 Z M 10.65625 -7.28125 "/>
</symbol>
<symbol overflow="visible" id="glyph0-18">
<path style="stroke:none;" d="M 2.046875 -17.15625 L 4.09375 -17.15625 L 4.09375 -7.015625 L 10.140625 -12.34375 L 12.734375 -12.34375 L 6.1875 -6.578125 L 13.015625 0 L 10.359375 0 L 4.09375 -6.03125 L 4.09375 0 L 2.046875 0 Z M 2.046875 -17.15625 "/>
</symbol>
<symbol overflow="visible" id="glyph0-19">
<path style="stroke:none;" d="M 8.375 -17.15625 L 8.375 -15.46875 L 6.4375 -15.46875 C 5.707031 -15.46875 5.203125 -15.316406 4.921875 -15.015625 C 4.640625 -14.722656 4.5 -14.195312 4.5 -13.4375 L 4.5 -12.34375 L 7.84375 -12.34375 L 7.84375 -10.765625 L 4.5 -10.765625 L 4.5 0 L 2.453125 0 L 2.453125 -10.765625 L 0.515625 -10.765625 L 0.515625 -12.34375 L 2.453125 -12.34375 L 2.453125 -13.203125 C 2.453125 -14.578125 2.769531 -15.578125 3.40625 -16.203125 C 4.050781 -16.835938 5.066406 -17.15625 6.453125 -17.15625 Z M 8.375 -17.15625 "/>
</symbol>
<symbol overflow="visible" id="glyph1-0">
<path style="stroke:none;" d="M 1.6875 5.984375 L 1.6875 -23.875 L 18.609375 -23.875 L 18.609375 5.984375 Z M 3.59375 4.09375 L 16.734375 4.09375 L 16.734375 -21.96875 L 3.59375 -21.96875 Z M 3.59375 4.09375 "/>
</symbol>
<symbol overflow="visible" id="glyph1-1">
<path style="stroke:none;" d="M 3.328125 -24.6875 L 8.296875 -24.6875 L 14.59375 -7.890625 L 20.9375 -24.6875 L 25.90625 -24.6875 L 25.90625 0 L 22.65625 0 L 22.65625 -21.671875 L 16.28125 -4.75 L 12.921875 -4.75 L 6.5625 -21.671875 L 6.5625 0 L 3.328125 0 Z M 3.328125 -24.6875 "/>
</symbol>
<symbol overflow="visible" id="glyph1-2">
<path style="stroke:none;" d="M 11.609375 -9.3125 C 9.148438 -9.3125 7.445312 -9.03125 6.5 -8.46875 C 5.550781 -7.90625 5.078125 -6.945312 5.078125 -5.59375 C 5.078125 -4.507812 5.429688 -3.648438 6.140625 -3.015625 C 6.847656 -2.378906 7.816406 -2.0625 9.046875 -2.0625 C 10.734375 -2.0625 12.082031 -2.660156 13.09375 -3.859375 C 14.113281 -5.054688 14.625 -6.644531 14.625 -8.625 L 14.625 -9.3125 Z M 17.671875 -10.5625 L 17.671875 0 L 14.625 0 L 14.625 -2.8125 C 13.9375 -1.6875 13.070312 -0.851562 12.03125 -0.3125 C 11 0.21875 9.734375 0.484375 8.234375 0.484375 C 6.335938 0.484375 4.828125 -0.046875 3.703125 -1.109375 C 2.585938 -2.179688 2.03125 -3.609375 2.03125 -5.390625 C 2.03125 -7.472656 2.726562 -9.039062 4.125 -10.09375 C 5.519531 -11.15625 7.597656 -11.6875 10.359375 -11.6875 L 14.625 -11.6875 L 14.625 -11.984375 C 14.625 -13.390625 14.164062 -14.472656 13.25 -15.234375 C 12.332031 -16.003906 11.039062 -16.390625 9.375 -16.390625 C 8.3125 -16.390625 7.28125 -16.257812 6.28125 -16 C 5.28125 -15.75 4.316406 -15.367188 3.390625 -14.859375 L 3.390625 -17.671875 C 4.503906 -18.097656 5.582031 -18.421875 6.625 -18.640625 C 7.675781 -18.859375 8.695312 -18.96875 9.6875 -18.96875 C 12.363281 -18.96875 14.363281 -18.269531 15.6875 -16.875 C 17.007812 -15.488281 17.671875 -13.382812 17.671875 -10.5625 Z M 17.671875 -10.5625 "/>
</symbol>
<symbol overflow="visible" id="glyph1-3">
<path style="stroke:none;" d="M 13.921875 -15.671875 C 13.578125 -15.867188 13.203125 -16.015625 12.796875 -16.109375 C 12.398438 -16.203125 11.957031 -16.25 11.46875 -16.25 C 9.75 -16.25 8.429688 -15.6875 7.515625 -14.5625 C 6.597656 -13.445312 6.140625 -11.84375 6.140625 -9.75 L 6.140625 0 L 3.078125 0 L 3.078125 -18.515625 L 6.140625 -18.515625 L 6.140625 -15.640625 C 6.773438 -16.765625 7.601562 -17.597656 8.625 -18.140625 C 9.65625 -18.691406 10.898438 -18.96875 12.359375 -18.96875 C 12.578125 -18.96875 12.8125 -18.953125 13.0625 -18.921875 C 13.3125 -18.890625 13.59375 -18.847656 13.90625 -18.796875 Z M 13.921875 -15.671875 "/>
</symbol>
<symbol overflow="visible" id="glyph1-4">
<path style="stroke:none;" d="M 3.1875 -18.515625 L 6.234375 -18.515625 L 6.234375 0 L 3.1875 0 Z M 3.1875 -25.71875 L 6.234375 -25.71875 L 6.234375 -21.875 L 3.1875 -21.875 Z M 3.1875 -25.71875 "/>
</symbol>
<symbol overflow="visible" id="glyph1-5">
<path style="stroke:none;" d="M 6.65625 -21.9375 L 6.65625 -2.75 L 10.703125 -2.75 C 14.109375 -2.75 16.597656 -3.519531 18.171875 -5.0625 C 19.753906 -6.601562 20.546875 -9.035156 20.546875 -12.359375 C 20.546875 -15.671875 19.753906 -18.09375 18.171875 -19.625 C 16.597656 -21.164062 14.109375 -21.9375 10.703125 -21.9375 Z M 3.328125 -24.6875 L 10.1875 -24.6875 C 14.96875 -24.6875 18.476562 -23.691406 20.71875 -21.703125 C 22.957031 -19.710938 24.078125 -16.597656 24.078125 -12.359375 C 24.078125 -8.109375 22.953125 -4.984375 20.703125 -2.984375 C 18.453125 -0.992188 14.945312 0 10.1875 0 L 3.328125 0 Z M 3.328125 -24.6875 "/>
</symbol>
<symbol overflow="visible" id="glyph1-6">
<path style="stroke:none;" d="M 6.65625 -11.78125 L 6.65625 -2.75 L 12.015625 -2.75 C 13.816406 -2.75 15.148438 -3.117188 16.015625 -3.859375 C 16.878906 -4.597656 17.3125 -5.738281 17.3125 -7.28125 C 17.3125 -8.820312 16.878906 -9.957031 16.015625 -10.6875 C 15.148438 -11.414062 13.816406 -11.78125 12.015625 -11.78125 Z M 6.65625 -21.9375 L 6.65625 -14.5 L 11.609375 -14.5 C 13.234375 -14.5 14.445312 -14.800781 15.25 -15.40625 C 16.050781 -16.019531 16.453125 -16.957031 16.453125 -18.21875 C 16.453125 -19.46875 16.050781 -20.398438 15.25 -21.015625 C 14.445312 -21.628906 13.234375 -21.9375 11.609375 -21.9375 Z M 3.328125 -24.6875 L 11.859375 -24.6875 C 14.398438 -24.6875 16.359375 -24.15625 17.734375 -23.09375 C 19.117188 -22.039062 19.8125 -20.535156 19.8125 -18.578125 C 19.8125 -17.066406 19.457031 -15.863281 18.75 -14.96875 C 18.039062 -14.082031 17.003906 -13.53125 15.640625 -13.3125 C 17.285156 -12.957031 18.5625 -12.21875 19.46875 -11.09375 C 20.375 -9.976562 20.828125 -8.582031 20.828125 -6.90625 C 20.828125 -4.707031 20.078125 -3.003906 18.578125 -1.796875 C 17.078125 -0.597656 14.945312 0 12.1875 0 L 3.328125 0 Z M 3.328125 -24.6875 "/>
</symbol>
<symbol overflow="visible" id="glyph1-7">
<path style="stroke:none;" d="M 11.578125 -21.390625 L 7.046875 -9.109375 L 16.125 -9.109375 Z M 9.6875 -24.6875 L 13.46875 -24.6875 L 22.875 0 L 19.40625 0 L 17.15625 -6.328125 L 6.03125 -6.328125 L 3.78125 0 L 0.265625 0 Z M 9.6875 -24.6875 "/>
</symbol>
<symbol overflow="visible" id="glyph1-8">
<path style="stroke:none;" d="M 6.140625 -2.78125 L 6.140625 7.046875 L 3.078125 7.046875 L 3.078125 -18.515625 L 6.140625 -18.515625 L 6.140625 -15.703125 C 6.773438 -16.804688 7.578125 -17.625 8.546875 -18.15625 C 9.523438 -18.695312 10.691406 -18.96875 12.046875 -18.96875 C 14.296875 -18.96875 16.125 -18.070312 17.53125 -16.28125 C 18.9375 -14.5 19.640625 -12.148438 19.640625 -9.234375 C 19.640625 -6.328125 18.9375 -3.976562 17.53125 -2.1875 C 16.125 -0.40625 14.296875 0.484375 12.046875 0.484375 C 10.691406 0.484375 9.523438 0.21875 8.546875 -0.3125 C 7.578125 -0.851562 6.773438 -1.675781 6.140625 -2.78125 Z M 16.484375 -9.234375 C 16.484375 -11.472656 16.019531 -13.226562 15.09375 -14.5 C 14.175781 -15.78125 12.914062 -16.421875 11.3125 -16.421875 C 9.695312 -16.421875 8.429688 -15.78125 7.515625 -14.5 C 6.597656 -13.226562 6.140625 -11.472656 6.140625 -9.234375 C 6.140625 -7.003906 6.597656 -5.25 7.515625 -3.96875 C 8.429688 -2.695312 9.695312 -2.0625 11.3125 -2.0625 C 12.914062 -2.0625 14.175781 -2.695312 15.09375 -3.96875 C 16.019531 -5.25 16.484375 -7.003906 16.484375 -9.234375 Z M 16.484375 -9.234375 "/>
</symbol>
<symbol overflow="visible" id="glyph1-9">
<path style="stroke:none;" d="M 16.515625 -17.8125 L 16.515625 -14.96875 C 15.660156 -15.4375 14.796875 -15.789062 13.921875 -16.03125 C 13.054688 -16.269531 12.1875 -16.390625 11.3125 -16.390625 C 9.332031 -16.390625 7.796875 -15.757812 6.703125 -14.5 C 5.617188 -13.25 5.078125 -11.492188 5.078125 -9.234375 C 5.078125 -6.984375 5.617188 -5.226562 6.703125 -3.96875 C 7.796875 -2.71875 9.332031 -2.09375 11.3125 -2.09375 C 12.1875 -2.09375 13.054688 -2.210938 13.921875 -2.453125 C 14.796875 -2.691406 15.660156 -3.046875 16.515625 -3.515625 L 16.515625 -0.703125 C 15.671875 -0.304688 14.789062 -0.0078125 13.875 0.1875 C 12.96875 0.382812 12.003906 0.484375 10.984375 0.484375 C 8.191406 0.484375 5.972656 -0.390625 4.328125 -2.140625 C 2.691406 -3.898438 1.875 -6.265625 1.875 -9.234375 C 1.875 -12.253906 2.703125 -14.628906 4.359375 -16.359375 C 6.015625 -18.097656 8.285156 -18.96875 11.171875 -18.96875 C 12.109375 -18.96875 13.023438 -18.867188 13.921875 -18.671875 C 14.816406 -18.484375 15.679688 -18.195312 16.515625 -17.8125 Z M 16.515625 -17.8125 "/>
</symbol>
<symbol overflow="visible" id="glyph1-10">
<path style="stroke:none;" d="M 18.578125 -11.171875 L 18.578125 0 L 15.546875 0 L 15.546875 -11.078125 C 15.546875 -12.828125 15.203125 -14.132812 14.515625 -15 C 13.828125 -15.875 12.800781 -16.3125 11.4375 -16.3125 C 9.800781 -16.3125 8.507812 -15.785156 7.5625 -14.734375 C 6.613281 -13.691406 6.140625 -12.269531 6.140625 -10.46875 L 6.140625 0 L 3.078125 0 L 3.078125 -25.71875 L 6.140625 -25.71875 L 6.140625 -15.640625 C 6.859375 -16.753906 7.710938 -17.585938 8.703125 -18.140625 C 9.691406 -18.691406 10.832031 -18.96875 12.125 -18.96875 C 14.25 -18.96875 15.851562 -18.304688 16.9375 -16.984375 C 18.03125 -15.671875 18.578125 -13.734375 18.578125 -11.171875 Z M 18.578125 -11.171875 "/>
</symbol>
<symbol overflow="visible" id="glyph1-11">
<path style="stroke:none;" d="M 19.03125 -10.015625 L 19.03125 -8.53125 L 5.046875 -8.53125 C 5.171875 -6.4375 5.796875 -4.835938 6.921875 -3.734375 C 8.054688 -2.640625 9.632812 -2.09375 11.65625 -2.09375 C 12.820312 -2.09375 13.953125 -2.234375 15.046875 -2.515625 C 16.148438 -2.804688 17.238281 -3.238281 18.3125 -3.8125 L 18.3125 -0.9375 C 17.226562 -0.476562 16.113281 -0.128906 14.96875 0.109375 C 13.820312 0.359375 12.65625 0.484375 11.46875 0.484375 C 8.519531 0.484375 6.179688 -0.375 4.453125 -2.09375 C 2.734375 -3.8125 1.875 -6.140625 1.875 -9.078125 C 1.875 -12.109375 2.691406 -14.515625 4.328125 -16.296875 C 5.960938 -18.078125 8.164062 -18.96875 10.9375 -18.96875 C 13.4375 -18.96875 15.410156 -18.164062 16.859375 -16.5625 C 18.304688 -14.957031 19.03125 -12.773438 19.03125 -10.015625 Z M 15.984375 -10.90625 C 15.960938 -12.570312 15.492188 -13.898438 14.578125 -14.890625 C 13.671875 -15.890625 12.472656 -16.390625 10.984375 -16.390625 C 9.285156 -16.390625 7.925781 -15.90625 6.90625 -14.9375 C 5.882812 -13.976562 5.296875 -12.628906 5.140625 -10.890625 Z M 15.984375 -10.90625 "/>
</symbol>
<symbol overflow="visible" id="glyph2-0">
<path style="stroke:none;" d="M 1.125 3.984375 L 1.125 -15.921875 L 12.40625 -15.921875 L 12.40625 3.984375 Z M 2.390625 2.734375 L 11.15625 2.734375 L 11.15625 -14.65625 L 2.390625 -14.65625 Z M 2.390625 2.734375 "/>
</symbol>
<symbol overflow="visible" id="glyph2-1">
<path style="stroke:none;" d="M 20.28125 -7.453125 L 18.828125 0 L 16.796875 0 L 18.21875 -7.390625 C 18.28125 -7.703125 18.328125 -7.972656 18.359375 -8.203125 C 18.390625 -8.429688 18.40625 -8.625 18.40625 -8.78125 C 18.40625 -9.445312 18.21875 -9.960938 17.84375 -10.328125 C 17.476562 -10.691406 16.96875 -10.875 16.3125 -10.875 C 15.320312 -10.875 14.441406 -10.503906 13.671875 -9.765625 C 12.898438 -9.035156 12.398438 -8.078125 12.171875 -6.890625 L 10.8125 0 L 8.78125 0 L 10.234375 -7.390625 C 10.285156 -7.660156 10.328125 -7.910156 10.359375 -8.140625 C 10.390625 -8.367188 10.40625 -8.578125 10.40625 -8.765625 C 10.40625 -9.429688 10.21875 -9.945312 9.84375 -10.3125 C 9.476562 -10.6875 8.972656 -10.875 8.328125 -10.875 C 7.328125 -10.875 6.441406 -10.503906 5.671875 -9.765625 C 4.898438 -9.035156 4.398438 -8.078125 4.171875 -6.890625 L 2.828125 0 L 0.796875 0 L 3.203125 -12.34375 L 5.234375 -12.34375 L 4.84375 -10.421875 C 5.394531 -11.148438 6.039062 -11.703125 6.78125 -12.078125 C 7.519531 -12.453125 8.3125 -12.640625 9.15625 -12.640625 C 10.050781 -12.640625 10.785156 -12.40625 11.359375 -11.9375 C 11.941406 -11.46875 12.289062 -10.816406 12.40625 -9.984375 C 13.03125 -10.847656 13.75 -11.503906 14.5625 -11.953125 C 15.375 -12.410156 16.226562 -12.640625 17.125 -12.640625 C 18.1875 -12.640625 19.003906 -12.332031 19.578125 -11.71875 C 20.160156 -11.113281 20.453125 -10.253906 20.453125 -9.140625 C 20.453125 -8.898438 20.4375 -8.632812 20.40625 -8.34375 C 20.375 -8.050781 20.332031 -7.753906 20.28125 -7.453125 Z M 20.28125 -7.453125 "/>
</symbol>
<symbol overflow="visible" id="glyph2-2">
<path style="stroke:none;" d="M 9.4375 -1.859375 C 8.894531 -1.140625 8.25 -0.597656 7.5 -0.234375 C 6.757812 0.128906 5.9375 0.3125 5.03125 0.3125 C 3.800781 0.3125 2.828125 -0.101562 2.109375 -0.9375 C 1.390625 -1.78125 1.03125 -2.9375 1.03125 -4.40625 C 1.03125 -5.625 1.25 -6.785156 1.6875 -7.890625 C 2.125 -8.992188 2.753906 -9.984375 3.578125 -10.859375 C 4.117188 -11.441406 4.726562 -11.882812 5.40625 -12.1875 C 6.09375 -12.488281 6.8125 -12.640625 7.5625 -12.640625 C 8.351562 -12.640625 9.050781 -12.445312 9.65625 -12.0625 C 10.269531 -11.6875 10.738281 -11.140625 11.0625 -10.421875 L 12.390625 -17.15625 L 14.4375 -17.15625 L 11.09375 0 L 9.046875 0 Z M 3.140625 -4.765625 C 3.140625 -3.691406 3.378906 -2.859375 3.859375 -2.265625 C 4.347656 -1.671875 5.015625 -1.375 5.859375 -1.375 C 6.492188 -1.375 7.082031 -1.523438 7.625 -1.828125 C 8.164062 -2.140625 8.640625 -2.59375 9.046875 -3.1875 C 9.484375 -3.800781 9.828125 -4.507812 10.078125 -5.3125 C 10.328125 -6.125 10.453125 -6.925781 10.453125 -7.71875 C 10.453125 -8.738281 10.207031 -9.535156 9.71875 -10.109375 C 9.238281 -10.679688 8.578125 -10.96875 7.734375 -10.96875 C 7.097656 -10.96875 6.503906 -10.816406 5.953125 -10.515625 C 5.398438 -10.210938 4.929688 -9.78125 4.546875 -9.21875 C 4.117188 -8.601562 3.773438 -7.890625 3.515625 -7.078125 C 3.265625 -6.273438 3.140625 -5.503906 3.140625 -4.765625 Z M 3.140625 -4.765625 "/>
</symbol>
<symbol overflow="visible" id="glyph2-3">
<path style="stroke:none;" d="M 11.171875 -7.546875 C 11.171875 -8.609375 10.925781 -9.441406 10.4375 -10.046875 C 9.957031 -10.648438 9.285156 -10.953125 8.421875 -10.953125 C 7.796875 -10.953125 7.207031 -10.796875 6.65625 -10.484375 C 6.113281 -10.179688 5.640625 -9.738281 5.234375 -9.15625 C 4.804688 -8.550781 4.46875 -7.84375 4.21875 -7.03125 C 3.976562 -6.226562 3.859375 -5.425781 3.859375 -4.625 C 3.859375 -3.613281 4.097656 -2.816406 4.578125 -2.234375 C 5.054688 -1.660156 5.722656 -1.375 6.578125 -1.375 C 7.210938 -1.375 7.800781 -1.519531 8.34375 -1.8125 C 8.882812 -2.113281 9.363281 -2.554688 9.78125 -3.140625 C 10.195312 -3.742188 10.53125 -4.445312 10.78125 -5.25 C 11.039062 -6.050781 11.171875 -6.816406 11.171875 -7.546875 Z M 4.875 -10.46875 C 5.375 -11.144531 6 -11.675781 6.75 -12.0625 C 7.5 -12.445312 8.289062 -12.640625 9.125 -12.640625 C 10.382812 -12.640625 11.382812 -12.210938 12.125 -11.359375 C 12.875 -10.515625 13.25 -9.363281 13.25 -7.90625 C 13.25 -6.71875 13.03125 -5.5625 12.59375 -4.4375 C 12.15625 -3.320312 11.535156 -2.332031 10.734375 -1.46875 C 10.203125 -0.894531 9.585938 -0.453125 8.890625 -0.140625 C 8.203125 0.160156 7.476562 0.3125 6.71875 0.3125 C 5.914062 0.3125 5.222656 0.128906 4.640625 -0.234375 C 4.054688 -0.597656 3.578125 -1.144531 3.203125 -1.875 L 2.84375 0 L 0.8125 0 L 4.15625 -17.15625 L 6.1875 -17.15625 Z M 4.875 -10.46875 "/>
</symbol>
<symbol overflow="visible" id="glyph2-4">
<path style="stroke:none;" d="M 13.8125 -2.625 C 13.300781 -2.082031 12.75 -1.671875 12.15625 -1.390625 C 11.570312 -1.109375 10.957031 -0.96875 10.3125 -0.96875 C 9.238281 -0.96875 8.347656 -1.332031 7.640625 -2.0625 C 6.929688 -2.789062 6.578125 -3.710938 6.578125 -4.828125 C 6.578125 -6.441406 7.117188 -7.851562 8.203125 -9.0625 C 9.296875 -10.269531 10.570312 -10.875 12.03125 -10.875 C 12.707031 -10.875 13.3125 -10.726562 13.84375 -10.4375 C 14.382812 -10.144531 14.796875 -9.738281 15.078125 -9.21875 L 15.375 -10.65625 L 16.953125 -10.65625 L 15.375 -2.53125 C 16.675781 -2.726562 17.742188 -3.382812 18.578125 -4.5 C 19.421875 -5.625 19.84375 -6.953125 19.84375 -8.484375 C 19.84375 -10.203125 19.234375 -11.601562 18.015625 -12.6875 C 16.804688 -13.769531 15.238281 -14.3125 13.3125 -14.3125 C 12.007812 -14.3125 10.742188 -14.082031 9.515625 -13.625 C 8.296875 -13.164062 7.222656 -12.515625 6.296875 -11.671875 C 5.234375 -10.691406 4.398438 -9.550781 3.796875 -8.25 C 3.203125 -6.957031 2.90625 -5.632812 2.90625 -4.28125 C 2.90625 -2.363281 3.546875 -0.78125 4.828125 0.46875 C 6.117188 1.71875 7.753906 2.34375 9.734375 2.34375 C 10.679688 2.34375 11.613281 2.179688 12.53125 1.859375 C 13.445312 1.546875 14.410156 1.046875 15.421875 0.359375 L 16.328125 1.625 C 15.335938 2.375 14.265625 2.941406 13.109375 3.328125 C 11.960938 3.710938 10.78125 3.90625 9.5625 3.90625 C 7.195312 3.90625 5.226562 3.117188 3.65625 1.546875 C 2.09375 -0.0234375 1.3125 -2.015625 1.3125 -4.421875 C 1.3125 -6.078125 1.691406 -7.675781 2.453125 -9.21875 C 3.222656 -10.769531 4.300781 -12.109375 5.6875 -13.234375 C 6.707031 -14.066406 7.878906 -14.710938 9.203125 -15.171875 C 10.523438 -15.640625 11.882812 -15.875 13.28125 -15.875 C 15.632812 -15.875 17.582031 -15.175781 19.125 -13.78125 C 20.675781 -12.394531 21.453125 -10.660156 21.453125 -8.578125 C 21.453125 -6.410156 20.703125 -4.601562 19.203125 -3.15625 C 17.710938 -1.71875 15.804688 -0.972656 13.484375 -0.921875 Z M 12.0625 -9.328125 C 11.019531 -9.328125 10.132812 -8.914062 9.40625 -8.09375 C 8.6875 -7.28125 8.328125 -6.296875 8.328125 -5.140625 C 8.328125 -4.316406 8.535156 -3.675781 8.953125 -3.21875 C 9.378906 -2.757812 9.960938 -2.53125 10.703125 -2.53125 C 11.742188 -2.53125 12.617188 -2.945312 13.328125 -3.78125 C 14.035156 -4.613281 14.390625 -5.644531 14.390625 -6.875 C 14.390625 -7.625 14.175781 -8.21875 13.75 -8.65625 C 13.332031 -9.101562 12.769531 -9.328125 12.0625 -9.328125 Z M 12.0625 -9.328125 "/>
</symbol>
<symbol overflow="visible" id="glyph2-5">
<path style="stroke:none;" d="M 3.8125 -16.453125 L 6.046875 -16.453125 L 2.84375 0 L 0.609375 0 Z M 3.8125 -16.453125 "/>
</symbol>
<symbol overflow="visible" id="glyph2-6">
<path style="stroke:none;" d="M 3.8125 -16.453125 L 8.96875 -16.453125 C 10.46875 -16.453125 11.609375 -16.101562 12.390625 -15.40625 C 13.179688 -14.707031 13.578125 -13.6875 13.578125 -12.34375 C 13.578125 -10.539062 12.992188 -9.132812 11.828125 -8.125 C 10.671875 -7.113281 9.039062 -6.609375 6.9375 -6.609375 L 4.140625 -6.609375 L 2.84375 0 L 0.609375 0 Z M 5.6875 -14.625 L 4.5 -8.4375 L 7.296875 -8.4375 C 8.554688 -8.4375 9.523438 -8.757812 10.203125 -9.40625 C 10.878906 -10.0625 11.21875 -10.988281 11.21875 -12.1875 C 11.21875 -12.957031 10.988281 -13.554688 10.53125 -13.984375 C 10.070312 -14.410156 9.425781 -14.625 8.59375 -14.625 Z M 5.6875 -14.625 "/>
</symbol>
<symbol overflow="visible" id="glyph2-7">
<path style="stroke:none;" d=""/>
</symbol>
</g>
</defs>
<g id="surface14714">
<rect x="0" y="0" width="883" height="1042" style="fill:rgb(100%,100%,100%);fill-opacity:1;stroke:none;"/>
<path style="fill:none;stroke-width:0.1;stroke-linecap:butt;stroke-linejoin:miter;stroke:rgb(0%,0%,0%);stroke-opacity:1;stroke-miterlimit:10;" d="M 7 5 L 22 5 L 22 54.5 L 7 54.5 Z M 7 5 " transform="matrix(20,0,0,20,-138,-98)"/>
<path style="fill-rule:evenodd;fill:rgb(100%,100%,100%);fill-opacity:1;stroke-width:0.1;stroke-linecap:butt;stroke-linejoin:miter;stroke:rgb(0%,0%,0%);stroke-opacity:1;stroke-miterlimit:10;" d="M 16 31.45 L 17 31.45 L 17 32.45 L 16 32.45 Z M 16 31.45 " transform="matrix(20,0,0,20,-138,-98)"/>
<path style="fill-rule:evenodd;fill:rgb(100%,100%,100%);fill-opacity:1;stroke-width:0.1;stroke-linecap:butt;stroke-linejoin:miter;stroke:rgb(0%,0%,0%);stroke-opacity:1;stroke-miterlimit:10;" d="M 12 31.45 L 13 31.45 L 13 32.45 L 12 32.45 Z M 12 31.45 " transform="matrix(20,0,0,20,-138,-98)"/>
<path style="fill-rule:evenodd;fill:rgb(100%,100%,100%);fill-opacity:1;stroke-width:0.1;stroke-linecap:butt;stroke-linejoin:miter;stroke:rgb(0%,0%,0%);stroke-opacity:1;stroke-miterlimit:10;" d="M 14 16.5 L 15 16.5 L 15 17.5 L 14 17.5 Z M 14 16.5 " transform="matrix(20,0,0,20,-138,-98)"/>
<path style="fill-rule:evenodd;fill:rgb(100%,100%,100%);fill-opacity:1;stroke-width:0.1;stroke-linecap:butt;stroke-linejoin:miter;stroke:rgb(0%,0%,0%);stroke-opacity:1;stroke-miterlimit:10;" d="M 14 11.5 L 15 11.5 L 15 12.5 L 14 12.5 Z M 14 11.5 " transform="matrix(20,0,0,20,-138,-98)"/>
<path style="fill-rule:evenodd;fill:rgb(100%,100%,100%);fill-opacity:1;stroke-width:0.1;stroke-linecap:butt;stroke-linejoin:miter;stroke:rgb(0%,0%,0%);stroke-opacity:1;stroke-miterlimit:10;" d="M 14 26.45 L 15 26.45 L 15 27.45 L 14 27.45 Z M 14 26.45 " transform="matrix(20,0,0,20,-138,-98)"/>
<path style="fill-rule:evenodd;fill:rgb(100%,100%,100%);fill-opacity:1;stroke-width:0.1;stroke-linecap:butt;stroke-linejoin:miter;stroke:rgb(0%,0%,0%);stroke-opacity:1;stroke-miterlimit:10;" d="M 14 22.5 L 15 22.5 L 15 23.5 L 14 23.5 Z M 14 22.5 " transform="matrix(20,0,0,20,-138,-98)"/>
<path style="fill:none;stroke-width:0.1;stroke-linecap:butt;stroke-linejoin:miter;stroke:rgb(0%,0%,0%);stroke-opacity:1;stroke-miterlimit:10;" d="M 14.5 26.45 L 14.5 24.036719 " transform="matrix(20,0,0,20,-138,-98)"/>
<path style="fill-rule:evenodd;fill:rgb(0%,0%,0%);fill-opacity:1;stroke-width:0.1;stroke-linecap:butt;stroke-linejoin:miter;stroke:rgb(0%,0%,0%);stroke-opacity:1;stroke-miterlimit:10;" d="M 14.5 23.661719 L 14.75 24.161719 L 14.5 24.036719 L 14.25 24.161719 Z M 14.5 23.661719 " transform="matrix(20,0,0,20,-138,-98)"/>
<path style="fill-rule:evenodd;fill:rgb(100%,100%,100%);fill-opacity:1;stroke-width:0.1;stroke-linecap:butt;stroke-linejoin:miter;stroke:rgb(0%,0%,0%);stroke-opacity:1;stroke-miterlimit:10;" d="M 12 38.45 L 13 38.45 L 13 39.45 L 12 39.45 Z M 12 38.45 " transform="matrix(20,0,0,20,-138,-98)"/>
<path style="fill-rule:evenodd;fill:rgb(100%,100%,100%);fill-opacity:1;stroke-width:0.1;stroke-linecap:butt;stroke-linejoin:miter;stroke:rgb(0%,0%,0%);stroke-opacity:1;stroke-miterlimit:10;" d="M 16 38.45 L 17 38.45 L 17 39.45 L 16 39.45 Z M 16 38.45 " transform="matrix(20,0,0,20,-138,-98)"/>
<path style="fill-rule:evenodd;fill:rgb(100%,100%,100%);fill-opacity:1;stroke-width:0.1;stroke-linecap:butt;stroke-linejoin:miter;stroke:rgb(0%,0%,0%);stroke-opacity:1;stroke-miterlimit:10;" d="M 14 43.45 L 15 43.45 L 15 44.45 L 14 44.45 Z M 14 43.45 " transform="matrix(20,0,0,20,-138,-98)"/>
<path style="fill:none;stroke-width:0.1;stroke-linecap:butt;stroke-linejoin:miter;stroke:rgb(0%,0%,0%);stroke-opacity:1;stroke-miterlimit:10;" d="M 12.228125 32.851758 C 11.166016 34.598047 11.273633 36.814844 12.5 38.45 " transform="matrix(20,0,0,20,-138,-98)"/>
<path style="fill-rule:evenodd;fill:rgb(0%,0%,0%);fill-opacity:1;stroke-width:0.1;stroke-linecap:butt;stroke-linejoin:miter;stroke:rgb(0%,0%,0%);stroke-opacity:1;stroke-miterlimit:10;" d="M 12.433008 32.539453 L 12.333008 33.089453 L 12.208008 32.839453 L 11.933008 32.789453 Z M 12.433008 32.539453 " transform="matrix(20,0,0,20,-138,-98)"/>
<path style="fill:none;stroke-width:0.1;stroke-linecap:butt;stroke-linejoin:miter;stroke:rgb(0%,0%,0%);stroke-opacity:1;stroke-miterlimit:10;" d="M 16.5 38.45 C 17.726367 36.814844 17.833984 34.598047 16.771875 32.851758 " transform="matrix(20,0,0,20,-138,-98)"/>
<path style="fill-rule:evenodd;fill:rgb(0%,0%,0%);fill-opacity:1;stroke-width:0.1;stroke-linecap:butt;stroke-linejoin:miter;stroke:rgb(0%,0%,0%);stroke-opacity:1;stroke-miterlimit:10;" d="M 16.566992 32.539453 L 17.066992 32.789453 L 16.791992 32.839453 L 16.666992 33.089453 Z M 16.566992 32.539453 " transform="matrix(20,0,0,20,-138,-98)"/>
<path style="fill-rule:evenodd;fill:rgb(100%,100%,100%);fill-opacity:1;stroke-width:0.1;stroke-linecap:butt;stroke-linejoin:miter;stroke:rgb(0%,0%,0%);stroke-opacity:1;stroke-miterlimit:10;" d="M 14 47.45 L 15 47.45 L 15 48.45 L 14 48.45 Z M 14 47.45 " transform="matrix(20,0,0,20,-138,-98)"/>
<path style="fill:none;stroke-width:0.1;stroke-linecap:butt;stroke-linejoin:miter;stroke:rgb(0%,0%,0%);stroke-opacity:1;stroke-miterlimit:10;" d="M 14.5 47.401367 L 14.5 44.936719 " transform="matrix(20,0,0,20,-138,-98)"/>
<path style="fill-rule:evenodd;fill:rgb(0%,0%,0%);fill-opacity:1;stroke-width:0.1;stroke-linecap:butt;stroke-linejoin:miter;stroke:rgb(0%,0%,0%);stroke-opacity:1;stroke-miterlimit:10;" d="M 14.5 44.561719 L 14.75 45.061719 L 14.5 44.936719 L 14.25 45.061719 Z M 14.5 44.561719 " transform="matrix(20,0,0,20,-138,-98)"/>
<g style="fill:rgb(0%,0%,0%);fill-opacity:1;">
  <use xlink:href="#glyph0-1" x="162" y="830.999457"/>
  <use xlink:href="#glyph0-2" x="176.444444" y="830.999457"/>
  <use xlink:href="#glyph0-3" x="185.333333" y="830.999457"/>
  <use xlink:href="#glyph0-4" x="199.222222" y="830.999457"/>
  <use xlink:href="#glyph0-5" x="212.555556" y="830.999457"/>
  <use xlink:href="#glyph0-6" x="218.944444" y="830.999457"/>
  <use xlink:href="#glyph0-5" x="230.611111" y="830.999457"/>
  <use xlink:href="#glyph0-3" x="237" y="830.999457"/>
  <use xlink:href="#glyph0-7" x="250.888889" y="830.999457"/>
</g>
<g style="fill:rgb(0%,0%,0%);fill-opacity:1;">
  <use xlink:href="#glyph0-1" x="45" y="611.018989"/>
  <use xlink:href="#glyph0-8" x="59.444444" y="611.018989"/>
  <use xlink:href="#glyph0-9" x="73.888889" y="611.018989"/>
  <use xlink:href="#glyph0-9" x="80.277778" y="611.018989"/>
</g>
<g style="fill:rgb(0%,0%,0%);fill-opacity:1;">
  <use xlink:href="#glyph0-10" x="162" y="411.018989"/>
  <use xlink:href="#glyph0-8" x="176.444444" y="411.018989"/>
  <use xlink:href="#glyph0-5" x="190.888889" y="411.018989"/>
  <use xlink:href="#glyph0-9" x="197.277778" y="411.018989"/>
  <use xlink:href="#glyph0-11" x="203.666667" y="411.018989"/>
  <use xlink:href="#glyph0-12" x="218.111111" y="411.018989"/>
  <use xlink:href="#glyph0-6" x="225.611111" y="411.018989"/>
  <use xlink:href="#glyph0-13" x="237.277778" y="411.018989"/>
  <use xlink:href="#glyph0-14" x="246.166667" y="411.018989"/>
  <use xlink:href="#glyph0-2" x="260.055556" y="411.018989"/>
  <use xlink:href="#glyph0-13" x="269.222222" y="411.018989"/>
</g>
<path style="fill:none;stroke-width:0.1;stroke-linecap:butt;stroke-linejoin:miter;stroke:rgb(0%,0%,0%);stroke-opacity:1;stroke-dasharray:0.5,0.5;stroke-miterlimit:10;" d="M 17 20 L 22 20 " transform="matrix(20,0,0,20,-138,-98)"/>
<path style="fill:none;stroke-width:0.1;stroke-linecap:butt;stroke-linejoin:miter;stroke:rgb(0%,0%,0%);stroke-opacity:1;stroke-dasharray:0.5,0.5;stroke-miterlimit:10;" d="M 17 40.95 L 22 41 " transform="matrix(20,0,0,20,-138,-98)"/>
<path style="fill:none;stroke-width:0.1;stroke-linecap:butt;stroke-linejoin:miter;stroke:rgb(0%,0%,0%);stroke-opacity:1;stroke-miterlimit:10;" d="M 22 20 L 25.5 20 " transform="matrix(20,0,0,20,-138,-98)"/>
<path style="fill-rule:evenodd;fill:rgb(0%,0%,0%);fill-opacity:1;stroke-width:0.1;stroke-linecap:butt;stroke-linejoin:miter;stroke:rgb(0%,0%,0%);stroke-opacity:1;stroke-miterlimit:10;" d="M 25.5 20 C 25.5 20.25 25.25 20.5 25 20.5 C 24.75 20.5 24.5 20.25 24.5 20 C 24.5 19.75 24.75 19.5 25 19.5 C 25.25 19.5 25.5 19.75 25.5 20 Z M 25.5 20 " transform="matrix(20,0,0,20,-138,-98)"/>
<g style="fill:rgb(0%,0%,0%);fill-opacity:1;">
  <use xlink:href="#glyph1-1" x="90.203125" y="1033.446994"/>
  <use xlink:href="#glyph1-2" x="119.369792" y="1033.446994"/>
  <use xlink:href="#glyph1-3" x="140.203125" y="1033.446994"/>
  <use xlink:href="#glyph1-4" x="154.092014" y="1033.446994"/>
  <use xlink:href="#glyph1-2" x="163.536458" y="1033.446994"/>
  <use xlink:href="#glyph1-5" x="184.369792" y="1033.446994"/>
  <use xlink:href="#glyph1-6" x="210.480903" y="1033.446994"/>
</g>
<g style="fill:rgb(0%,0%,0%);fill-opacity:1;">
  <use xlink:href="#glyph2-1" x="336.589844" y="272.018989"/>
  <use xlink:href="#glyph2-2" x="358.534288" y="272.018989"/>
  <use xlink:href="#glyph2-3" x="372.978733" y="272.018989"/>
</g>
<g style="fill:rgb(0%,0%,0%);fill-opacity:1;">
  <use xlink:href="#glyph2-4" x="311.589844" y="692.018989"/>
  <use xlink:href="#glyph2-5" x="334.089844" y="692.018989"/>
  <use xlink:href="#glyph2-6" x="340.75651" y="692.018989"/>
  <use xlink:href="#glyph2-7" x="354.367622" y="692.018989"/>
  <use xlink:href="#glyph2-1" x="361.589844" y="692.018989"/>
  <use xlink:href="#glyph2-2" x="383.534288" y="692.018989"/>
  <use xlink:href="#glyph2-3" x="397.978733" y="692.018989"/>
</g>
<g style="fill:rgb(0%,0%,0%);fill-opacity:1;">
  <use xlink:href="#glyph0-15" x="162" y="202.018989"/>
  <use xlink:href="#glyph0-16" x="174.5" y="202.018989"/>
  <use xlink:href="#glyph0-17" x="188.944444" y="202.018989"/>
  <use xlink:href="#glyph0-15" x="202.833333" y="202.018989"/>
  <use xlink:href="#glyph0-18" x="215.333333" y="202.018989"/>
</g>
<path style="fill-rule:evenodd;fill:rgb(100%,100%,100%);fill-opacity:1;stroke-width:0.1;stroke-linecap:butt;stroke-linejoin:miter;stroke:rgb(0%,0%,0%);stroke-opacity:1;stroke-miterlimit:10;" d="M 14 37.5 L 15 37.5 L 15 38.5 L 14 38.5 Z M 14 37.5 " transform="matrix(20,0,0,20,-138,-98)"/>
<path style="fill-rule:evenodd;fill:rgb(100%,100%,100%);fill-opacity:1;stroke-width:0.1;stroke-linecap:butt;stroke-linejoin:miter;stroke:rgb(0%,0%,0%);stroke-opacity:1;stroke-miterlimit:10;" d="M 14 32.5 L 15 32.5 L 15 33.5 L 14 33.5 Z M 14 32.5 " transform="matrix(20,0,0,20,-138,-98)"/>
<path style="fill:none;stroke-width:0.1;stroke-linecap:butt;stroke-linejoin:miter;stroke:rgb(0%,0%,0%);stroke-opacity:1;stroke-miterlimit:10;" d="M 14.5 37.5 L 14.5 33.986719 " transform="matrix(20,0,0,20,-138,-98)"/>
<path style="fill-rule:evenodd;fill:rgb(0%,0%,0%);fill-opacity:1;stroke-width:0.1;stroke-linecap:butt;stroke-linejoin:miter;stroke:rgb(0%,0%,0%);stroke-opacity:1;stroke-miterlimit:10;" d="M 14.5 33.611719 L 14.75 34.111719 L 14.5 33.986719 L 14.25 34.111719 Z M 14.5 33.611719 " transform="matrix(20,0,0,20,-138,-98)"/>
<g style="fill:rgb(0%,0%,0%);fill-opacity:1;">
  <use xlink:href="#glyph0-15" x="156.90625" y="621.018989"/>
  <use xlink:href="#glyph0-3" x="169.40625" y="621.018989"/>
  <use xlink:href="#glyph0-7" x="183.295139" y="621.018989"/>
  <use xlink:href="#glyph0-19" x="197.739583" y="621.018989"/>
</g>
<path style="fill:none;stroke-width:0.1;stroke-linecap:butt;stroke-linejoin:miter;stroke:rgb(0%,0%,0%);stroke-opacity:1;stroke-miterlimit:10;" d="M 14.5 16.5 L 14.5 12.986719 " transform="matrix(20,0,0,20,-138,-98)"/>
<path style="fill-rule:evenodd;fill:rgb(0%,0%,0%);fill-opacity:1;stroke-width:0.1;stroke-linecap:butt;stroke-linejoin:miter;stroke:rgb(0%,0%,0%);stroke-opacity:1;stroke-miterlimit:10;" d="M 14.5 12.611719 L 14.75 13.111719 L 14.5 12.986719 L 14.25 13.111719 Z M 14.5 12.611719 " transform="matrix(20,0,0,20,-138,-98)"/>
<path style="fill-rule:evenodd;fill:rgb(100%,100%,100%);fill-opacity:1;stroke-width:0.1;stroke-linecap:butt;stroke-linejoin:miter;stroke:rgb(0%,0%,0%);stroke-opacity:1;stroke-miterlimit:10;" d="M 46 31.45 L 47 31.45 L 47 32.45 L 46 32.45 Z M 46 31.45 " transform="matrix(20,0,0,20,-138,-98)"/>
<path style="fill-rule:evenodd;fill:rgb(100%,100%,100%);fill-opacity:1;stroke-width:0.1;stroke-linecap:butt;stroke-linejoin:miter;stroke:rgb(0%,0%,0%);stroke-opacity:1;stroke-miterlimit:10;" d="M 42 31.45 L 43 31.45 L 43 32.45 L 42 32.45 Z M 42 31.45 " transform="matrix(20,0,0,20,-138,-98)"/>
<path style="fill-rule:evenodd;fill:rgb(100%,100%,100%);fill-opacity:1;stroke-width:0.1;stroke-linecap:butt;stroke-linejoin:miter;stroke:rgb(0%,0%,0%);stroke-opacity:1;stroke-miterlimit:10;" d="M 44 16.45 L 45 16.45 L 45 17.45 L 44 17.45 Z M 44 16.45 " transform="matrix(20,0,0,20,-138,-98)"/>
<path style="fill-rule:evenodd;fill:rgb(100%,100%,100%);fill-opacity:1;stroke-width:0.1;stroke-linecap:butt;stroke-linejoin:miter;stroke:rgb(0%,0%,0%);stroke-opacity:1;stroke-miterlimit:10;" d="M 44 11.45 L 45 11.45 L 45 12.45 L 44 12.45 Z M 44 11.45 " transform="matrix(20,0,0,20,-138,-98)"/>
<path style="fill-rule:evenodd;fill:rgb(100%,100%,100%);fill-opacity:1;stroke-width:0.1;stroke-linecap:butt;stroke-linejoin:miter;stroke:rgb(0%,0%,0%);stroke-opacity:1;stroke-miterlimit:10;" d="M 44 26.45 L 45 26.45 L 45 27.45 L 44 27.45 Z M 44 26.45 " transform="matrix(20,0,0,20,-138,-98)"/>
<path style="fill-rule:evenodd;fill:rgb(100%,100%,100%);fill-opacity:1;stroke-width:0.1;stroke-linecap:butt;stroke-linejoin:miter;stroke:rgb(0%,0%,0%);stroke-opacity:1;stroke-miterlimit:10;" d="M 44 22.45 L 45 22.45 L 45 23.45 L 44 23.45 Z M 44 22.45 " transform="matrix(20,0,0,20,-138,-98)"/>
<path style="fill:none;stroke-width:0.1;stroke-linecap:butt;stroke-linejoin:miter;stroke:rgb(0%,0%,0%);stroke-opacity:1;stroke-miterlimit:10;" d="M 44.5 26.45 L 44.5 23.985352 " transform="matrix(20,0,0,20,-138,-98)"/>
<path style="fill-rule:evenodd;fill:rgb(0%,0%,0%);fill-opacity:1;stroke-width:0.1;stroke-linecap:butt;stroke-linejoin:miter;stroke:rgb(0%,0%,0%);stroke-opacity:1;stroke-miterlimit:10;" d="M 44.5 23.610352 L 44.75 24.110352 L 44.5 23.985352 L 44.25 24.110352 Z M 44.5 23.610352 " transform="matrix(20,0,0,20,-138,-98)"/>
<path style="fill-rule:evenodd;fill:rgb(100%,100%,100%);fill-opacity:1;stroke-width:0.1;stroke-linecap:butt;stroke-linejoin:miter;stroke:rgb(0%,0%,0%);stroke-opacity:1;stroke-miterlimit:10;" d="M 42 38.45 L 43 38.45 L 43 39.45 L 42 39.45 Z M 42 38.45 " transform="matrix(20,0,0,20,-138,-98)"/>
<path style="fill-rule:evenodd;fill:rgb(100%,100%,100%);fill-opacity:1;stroke-width:0.1;stroke-linecap:butt;stroke-linejoin:miter;stroke:rgb(0%,0%,0%);stroke-opacity:1;stroke-miterlimit:10;" d="M 46 38.45 L 47 38.45 L 47 39.45 L 46 39.45 Z M 46 38.45 " transform="matrix(20,0,0,20,-138,-98)"/>
<path style="fill:none;stroke-width:0.1;stroke-linecap:butt;stroke-linejoin:miter;stroke:rgb(0%,0%,0%);stroke-opacity:1;stroke-miterlimit:10;" d="M 42.228125 32.851758 C 41.166016 34.598047 41.273633 36.814844 42.5 38.45 " transform="matrix(20,0,0,20,-138,-98)"/>
<path style="fill-rule:evenodd;fill:rgb(0%,0%,0%);fill-opacity:1;stroke-width:0.1;stroke-linecap:butt;stroke-linejoin:miter;stroke:rgb(0%,0%,0%);stroke-opacity:1;stroke-miterlimit:10;" d="M 42.433008 32.539453 L 42.333008 33.089453 L 42.208008 32.839453 L 41.933008 32.789453 Z M 42.433008 32.539453 " transform="matrix(20,0,0,20,-138,-98)"/>
<path style="fill:none;stroke-width:0.1;stroke-linecap:butt;stroke-linejoin:miter;stroke:rgb(0%,0%,0%);stroke-opacity:1;stroke-miterlimit:10;" d="M 46.5 38.45 C 47.726367 36.814844 47.833984 34.598047 46.771875 32.851758 " transform="matrix(20,0,0,20,-138,-98)"/>
<path style="fill-rule:evenodd;fill:rgb(0%,0%,0%);fill-opacity:1;stroke-width:0.1;stroke-linecap:butt;stroke-linejoin:miter;stroke:rgb(0%,0%,0%);stroke-opacity:1;stroke-miterlimit:10;" d="M 46.566992 32.539453 L 47.066992 32.789453 L 46.791992 32.839453 L 46.666992 33.089453 Z M 46.566992 32.539453 " transform="matrix(20,0,0,20,-138,-98)"/>
<g style="fill:rgb(0%,0%,0%);fill-opacity:1;">
  <use xlink:href="#glyph0-1" x="822" y="642.018989"/>
  <use xlink:href="#glyph0-8" x="836.444444" y="642.018989"/>
  <use xlink:href="#glyph0-9" x="850.888889" y="642.018989"/>
  <use xlink:href="#glyph0-9" x="857.277778" y="642.018989"/>
</g>
<g style="fill:rgb(0%,0%,0%);fill-opacity:1;">
  <use xlink:href="#glyph0-10" x="762" y="411.018989"/>
  <use xlink:href="#glyph0-8" x="776.444444" y="411.018989"/>
  <use xlink:href="#glyph0-5" x="790.888889" y="411.018989"/>
  <use xlink:href="#glyph0-9" x="797.277778" y="411.018989"/>
  <use xlink:href="#glyph0-11" x="803.666667" y="411.018989"/>
  <use xlink:href="#glyph0-12" x="818.111111" y="411.018989"/>
  <use xlink:href="#glyph0-6" x="825.611111" y="411.018989"/>
  <use xlink:href="#glyph0-13" x="837.277778" y="411.018989"/>
  <use xlink:href="#glyph0-14" x="846.166667" y="411.018989"/>
  <use xlink:href="#glyph0-2" x="860.055556" y="411.018989"/>
  <use xlink:href="#glyph0-13" x="869.222222" y="411.018989"/>
</g>
<g style="fill:rgb(0%,0%,0%);fill-opacity:1;">
  <use xlink:href="#glyph1-7" x="688.953125" y="833.446994"/>
  <use xlink:href="#glyph1-8" x="712.008681" y="833.446994"/>
  <use xlink:href="#glyph1-2" x="733.397569" y="833.446994"/>
  <use xlink:href="#glyph1-9" x="754.230903" y="833.446994"/>
  <use xlink:href="#glyph1-10" x="772.842014" y="833.446994"/>
  <use xlink:href="#glyph1-11" x="794.230903" y="833.446994"/>
</g>
<g style="fill:rgb(0%,0%,0%);fill-opacity:1;">
  <use xlink:href="#glyph0-10" x="698" y="603.018989"/>
  <use xlink:href="#glyph0-3" x="712.444444" y="603.018989"/>
  <use xlink:href="#glyph0-3" x="726.333333" y="603.018989"/>
  <use xlink:href="#glyph0-13" x="740.222222" y="603.018989"/>
  <use xlink:href="#glyph0-6" x="749.111111" y="603.018989"/>
  <use xlink:href="#glyph0-13" x="760.777778" y="603.018989"/>
  <use xlink:href="#glyph0-2" x="769.666667" y="603.018989"/>
  <use xlink:href="#glyph0-14" x="778.833333" y="603.018989"/>
  <use xlink:href="#glyph0-1" x="792.722222" y="603.018989"/>
</g>
<g style="fill:rgb(0%,0%,0%);fill-opacity:1;">
  <use xlink:href="#glyph0-15" x="772" y="201.018989"/>
  <use xlink:href="#glyph0-16" x="784.5" y="201.018989"/>
  <use xlink:href="#glyph0-17" x="798.944444" y="201.018989"/>
  <use xlink:href="#glyph0-15" x="812.833333" y="201.018989"/>
  <use xlink:href="#glyph0-18" x="825.333333" y="201.018989"/>
</g>
<path style="fill-rule:evenodd;fill:rgb(100%,100%,100%);fill-opacity:1;stroke-width:0.1;stroke-linecap:butt;stroke-linejoin:miter;stroke:rgb(0%,0%,0%);stroke-opacity:1;stroke-miterlimit:10;" d="M 44 37.5 L 45 37.5 L 45 38.5 L 44 38.5 Z M 44 37.5 " transform="matrix(20,0,0,20,-138,-98)"/>
<path style="fill-rule:evenodd;fill:rgb(100%,100%,100%);fill-opacity:1;stroke-width:0.1;stroke-linecap:butt;stroke-linejoin:miter;stroke:rgb(0%,0%,0%);stroke-opacity:1;stroke-miterlimit:10;" d="M 44 32.5 L 45 32.5 L 45 33.5 L 44 33.5 Z M 44 32.5 " transform="matrix(20,0,0,20,-138,-98)"/>
<path style="fill:none;stroke-width:0.1;stroke-linecap:butt;stroke-linejoin:miter;stroke:rgb(0%,0%,0%);stroke-opacity:1;stroke-miterlimit:10;" d="M 44.5 37.5 L 44.5 33.986719 " transform="matrix(20,0,0,20,-138,-98)"/>
<path style="fill-rule:evenodd;fill:rgb(0%,0%,0%);fill-opacity:1;stroke-width:0.1;stroke-linecap:butt;stroke-linejoin:miter;stroke:rgb(0%,0%,0%);stroke-opacity:1;stroke-miterlimit:10;" d="M 44.5 33.611719 L 44.75 34.111719 L 44.5 33.986719 L 44.25 34.111719 Z M 44.5 33.611719 " transform="matrix(20,0,0,20,-138,-98)"/>
<g style="fill:rgb(0%,0%,0%);fill-opacity:1;">
  <use xlink:href="#glyph0-15" x="637" y="641.018989"/>
  <use xlink:href="#glyph0-3" x="649.5" y="641.018989"/>
  <use xlink:href="#glyph0-7" x="663.388889" y="641.018989"/>
  <use xlink:href="#glyph0-19" x="677.833333" y="641.018989"/>
</g>
<path style="fill:none;stroke-width:0.1;stroke-linecap:butt;stroke-linejoin:miter;stroke:rgb(0%,0%,0%);stroke-opacity:1;stroke-miterlimit:10;" d="M 44.5 16.45 L 44.5 12.936719 " transform="matrix(20,0,0,20,-138,-98)"/>
<path style="fill-rule:evenodd;fill:rgb(0%,0%,0%);fill-opacity:1;stroke-width:0.1;stroke-linecap:butt;stroke-linejoin:miter;stroke:rgb(0%,0%,0%);stroke-opacity:1;stroke-miterlimit:10;" d="M 44.5 12.561719 L 44.75 13.061719 L 44.5 12.936719 L 44.25 13.061719 Z M 44.5 12.561719 " transform="matrix(20,0,0,20,-138,-98)"/>
<path style="fill:none;stroke-width:0.1;stroke-linecap:butt;stroke-linejoin:miter;stroke:rgb(0%,0%,0%);stroke-opacity:1;stroke-dasharray:0.5,0.5;stroke-miterlimit:10;" d="M 38 35.5 L 41.5 35.5 " transform="matrix(20,0,0,20,-138,-98)"/>
<path style="fill:none;stroke-width:0.1;stroke-linecap:butt;stroke-linejoin:miter;stroke:rgb(0%,0%,0%);stroke-opacity:1;stroke-miterlimit:10;" d="M 38 14.5 L 35.5 14.5 " transform="matrix(20,0,0,20,-138,-98)"/>
<path style="fill:none;stroke-width:0.1;stroke-linecap:butt;stroke-linejoin:miter;stroke:rgb(0%,0%,0%);stroke-opacity:1;stroke-miterlimit:10;" d="M 34.5 15.5 C 35.052344 15.5 35.5 15.052344 35.5 14.5 C 35.5 13.947656 35.052344 13.5 34.5 13.5 " transform="matrix(20,0,0,20,-138,-98)"/>
<path style="fill:none;stroke-width:0.1;stroke-linecap:butt;stroke-linejoin:miter;stroke:rgb(0%,0%,0%);stroke-opacity:1;stroke-dasharray:0.5,0.5;stroke-miterlimit:10;" d="M 38 14.5 L 44.5 14.45 " transform="matrix(20,0,0,20,-138,-98)"/>
<path style="fill:none;stroke-width:0.1;stroke-linecap:butt;stroke-linejoin:miter;stroke:rgb(0%,0%,0%);stroke-opacity:1;stroke-miterlimit:10;" d="M 29 20 L 26 20 " transform="matrix(20,0,0,20,-138,-98)"/>
<path style="fill:none;stroke-width:0.1;stroke-linecap:butt;stroke-linejoin:miter;stroke:rgb(0%,0%,0%);stroke-opacity:1;stroke-miterlimit:10;" d="M 25 21 C 25.552344 21 26 20.552344 26 20 C 26 19.447656 25.552344 19 25 19 " transform="matrix(20,0,0,20,-138,-98)"/>
<path style="fill:none;stroke-width:0.1;stroke-linecap:butt;stroke-linejoin:miter;stroke:rgb(0%,0%,0%);stroke-opacity:1;stroke-miterlimit:10;" d="M 29 14.5 L 35 14.5 " transform="matrix(20,0,0,20,-138,-98)"/>
<path style="fill-rule:evenodd;fill:rgb(0%,0%,0%);fill-opacity:1;stroke-width:0.1;stroke-linecap:butt;stroke-linejoin:miter;stroke:rgb(0%,0%,0%);stroke-opacity:1;stroke-miterlimit:10;" d="M 35 14.5 C 35 14.75 34.75 15 34.5 15 C 34.25 15 34 14.75 34 14.5 C 34 14.25 34.25 14 34.5 14 C 34.75 14 35 14.25 35 14.5 Z M 35 14.5 " transform="matrix(20,0,0,20,-138,-98)"/>
<path style="fill:none;stroke-width:0.1;stroke-linecap:butt;stroke-linejoin:miter;stroke:rgb(0%,0%,0%);stroke-opacity:1;stroke-miterlimit:10;" d="M 29 20 L 29 16.5 " transform="matrix(20,0,0,20,-138,-98)"/>
<path style="fill:none;stroke-width:0.1;stroke-linecap:butt;stroke-linejoin:miter;stroke:rgb(0%,0%,0%);stroke-opacity:1;stroke-miterlimit:10;" d="M 29 14.5 L 29 17 " transform="matrix(20,0,0,20,-138,-98)"/>
<path style="fill-rule:evenodd;fill:rgb(100%,100%,100%);fill-opacity:1;stroke-width:0.2;stroke-linecap:butt;stroke-linejoin:miter;stroke:rgb(0%,0%,0%);stroke-opacity:1;stroke-miterlimit:10;" d="M 17 9 C 17 10.380664 15.880664 11.5 14.5 11.5 C 13.119336 11.5 12 10.380664 12 9 C 12 7.619336 13.119336 6.5 14.5 6.5 C 15.880664 6.5 17 7.619336 17 9 " transform="matrix(20,0,0,20,-138,-98)"/>
<path style="fill-rule:evenodd;fill:rgb(100%,100%,100%);fill-opacity:1;stroke-width:0.2;stroke-linecap:butt;stroke-linejoin:miter;stroke:rgb(0%,0%,0%);stroke-opacity:1;stroke-miterlimit:10;" d="M 17 20 C 17 21.380664 15.880664 22.5 14.5 22.5 C 13.119336 22.5 12 21.380664 12 20 C 12 18.619336 13.119336 17.5 14.5 17.5 C 15.880664 17.5 17 18.619336 17 20 " transform="matrix(20,0,0,20,-138,-98)"/>
<path style="fill-rule:evenodd;fill:rgb(100%,100%,100%);fill-opacity:1;stroke-width:0.2;stroke-linecap:butt;stroke-linejoin:miter;stroke:rgb(0%,0%,0%);stroke-opacity:1;stroke-miterlimit:10;" d="M 17 29.95 C 17 31.330664 15.880664 32.45 14.5 32.45 C 13.119336 32.45 12 31.330664 12 29.95 C 12 28.569336 13.119336 27.45 14.5 27.45 C 15.880664 27.45 17 28.569336 17 29.95 " transform="matrix(20,0,0,20,-138,-98)"/>
<path style="fill-rule:evenodd;fill:rgb(100%,100%,100%);fill-opacity:1;stroke-width:0.2;stroke-linecap:butt;stroke-linejoin:miter;stroke:rgb(0%,0%,0%);stroke-opacity:1;stroke-miterlimit:10;" d="M 17 40.95 C 17 42.330664 15.880664 43.45 14.5 43.45 C 13.119336 43.45 12 42.330664 12 40.95 C 12 39.569336 13.119336 38.45 14.5 38.45 C 15.880664 38.45 17 39.569336 17 40.95 " transform="matrix(20,0,0,20,-138,-98)"/>
<path style="fill-rule:evenodd;fill:rgb(100%,100%,100%);fill-opacity:1;stroke-width:0.2;stroke-linecap:butt;stroke-linejoin:miter;stroke:rgb(0%,0%,0%);stroke-opacity:1;stroke-miterlimit:10;" d="M 17 50.95 C 17 52.330664 15.880664 53.45 14.5 53.45 C 13.119336 53.45 12 52.330664 12 50.95 C 12 49.569336 13.119336 48.45 14.5 48.45 C 15.880664 48.45 17 49.569336 17 50.95 " transform="matrix(20,0,0,20,-138,-98)"/>
<path style="fill-rule:evenodd;fill:rgb(100%,0%,0%);fill-opacity:1;stroke-width:0.1;stroke-linecap:butt;stroke-linejoin:miter;stroke:rgb(100%,0%,0%);stroke-opacity:1;stroke-miterlimit:10;" d="M 15 50.95 C 15 51.226172 14.776172 51.45 14.5 51.45 C 14.223828 51.45 14 51.226172 14 50.95 C 14 50.673828 14.223828 50.45 14.5 50.45 C 14.776172 50.45 15 50.673828 15 50.95 " transform="matrix(20,0,0,20,-138,-98)"/>
<path style="fill-rule:evenodd;fill:rgb(100%,100%,100%);fill-opacity:1;stroke-width:0.2;stroke-linecap:butt;stroke-linejoin:miter;stroke:rgb(0%,0%,0%);stroke-opacity:1;stroke-miterlimit:10;" d="M 47 8.95 C 47 10.330664 45.880664 11.45 44.5 11.45 C 43.119336 11.45 42 10.330664 42 8.95 C 42 7.569336 43.119336 6.45 44.5 6.45 C 45.880664 6.45 47 7.569336 47 8.95 " transform="matrix(20,0,0,20,-138,-98)"/>
<path style="fill-rule:evenodd;fill:rgb(100%,100%,100%);fill-opacity:1;stroke-width:0.2;stroke-linecap:butt;stroke-linejoin:miter;stroke:rgb(0%,0%,0%);stroke-opacity:1;stroke-miterlimit:10;" d="M 47 19.95 C 47 21.330664 45.880664 22.45 44.5 22.45 C 43.119336 22.45 42 21.330664 42 19.95 C 42 18.569336 43.119336 17.45 44.5 17.45 C 45.880664 17.45 47 18.569336 47 19.95 " transform="matrix(20,0,0,20,-138,-98)"/>
<path style="fill-rule:evenodd;fill:rgb(100%,100%,100%);fill-opacity:1;stroke-width:0.2;stroke-linecap:butt;stroke-linejoin:miter;stroke:rgb(0%,0%,0%);stroke-opacity:1;stroke-miterlimit:10;" d="M 47 29.95 C 47 31.330664 45.880664 32.45 44.5 32.45 C 43.119336 32.45 42 31.330664 42 29.95 C 42 28.569336 43.119336 27.45 44.5 27.45 C 45.880664 27.45 47 28.569336 47 29.95 " transform="matrix(20,0,0,20,-138,-98)"/>
<path style="fill-rule:evenodd;fill:rgb(100%,100%,100%);fill-opacity:1;stroke-width:0.2;stroke-linecap:butt;stroke-linejoin:miter;stroke:rgb(0%,0%,0%);stroke-opacity:1;stroke-miterlimit:10;" d="M 47 40.95 C 47 42.330664 45.880664 43.45 44.5 43.45 C 43.119336 43.45 42 42.330664 42 40.95 C 42 39.569336 43.119336 38.45 44.5 38.45 C 45.880664 38.45 47 39.569336 47 40.95 " transform="matrix(20,0,0,20,-138,-98)"/>
<path style="fill-rule:evenodd;fill:rgb(100%,0%,0%);fill-opacity:1;stroke-width:0.1;stroke-linecap:butt;stroke-linejoin:miter;stroke:rgb(100%,0%,0%);stroke-opacity:1;stroke-miterlimit:10;" d="M 45 41 C 45 41.276172 44.776172 41.5 44.5 41.5 C 44.223828 41.5 44 41.276172 44 41 C 44 40.723828 44.223828 40.5 44.5 40.5 C 44.776172 40.5 45 40.723828 45 41 " transform="matrix(20,0,0,20,-138,-98)"/>
<path style="fill:none;stroke-width:0.1;stroke-linecap:butt;stroke-linejoin:miter;stroke:rgb(0%,0%,0%);stroke-opacity:1;stroke-miterlimit:10;" d="M 38 5 L 51 5 L 51 44.5 L 38 44.5 Z M 38 5 " transform="matrix(20,0,0,20,-138,-98)"/>
<path style="fill:none;stroke-width:0.1;stroke-linecap:butt;stroke-linejoin:miter;stroke:rgb(0%,0%,0%);stroke-opacity:1;stroke-miterlimit:10;" d="M 22 41 L 25.5 41 " transform="matrix(20,0,0,20,-138,-98)"/>
<path style="fill-rule:evenodd;fill:rgb(0%,0%,0%);fill-opacity:1;stroke-width:0.1;stroke-linecap:butt;stroke-linejoin:miter;stroke:rgb(0%,0%,0%);stroke-opacity:1;stroke-miterlimit:10;" d="M 25.5 41 C 25.5 41.25 25.25 41.5 25 41.5 C 24.75 41.5 24.5 41.25 24.5 41 C 24.5 40.75 24.75 40.5 25 40.5 C 25.25 40.5 25.5 40.75 25.5 41 Z M 25.5 41 " transform="matrix(20,0,0,20,-138,-98)"/>
<path style="fill:none;stroke-width:0.1;stroke-linecap:butt;stroke-linejoin:miter;stroke:rgb(0%,0%,0%);stroke-opacity:1;stroke-miterlimit:10;" d="M 38 35.5 L 35.5 35.5 " transform="matrix(20,0,0,20,-138,-98)"/>
<path style="fill:none;stroke-width:0.1;stroke-linecap:butt;stroke-linejoin:miter;stroke:rgb(0%,0%,0%);stroke-opacity:1;stroke-miterlimit:10;" d="M 34.5 36.5 C 35.052344 36.5 35.5 36.052344 35.5 35.5 C 35.5 34.947656 35.052344 34.5 34.5 34.5 " transform="matrix(20,0,0,20,-138,-98)"/>
<path style="fill:none;stroke-width:0.1;stroke-linecap:butt;stroke-linejoin:miter;stroke:rgb(0%,0%,0%);stroke-opacity:1;stroke-miterlimit:10;" d="M 29 41 L 26 41 " transform="matrix(20,0,0,20,-138,-98)"/>
<path style="fill:none;stroke-width:0.1;stroke-linecap:butt;stroke-linejoin:miter;stroke:rgb(0%,0%,0%);stroke-opacity:1;stroke-miterlimit:10;" d="M 25 42 C 25.552344 42 26 41.552344 26 41 C 26 40.447656 25.552344 40 25 40 " transform="matrix(20,0,0,20,-138,-98)"/>
<path style="fill:none;stroke-width:0.1;stroke-linecap:butt;stroke-linejoin:miter;stroke:rgb(0%,0%,0%);stroke-opacity:1;stroke-miterlimit:10;" d="M 29 35.5 L 35 35.5 " transform="matrix(20,0,0,20,-138,-98)"/>
<path style="fill-rule:evenodd;fill:rgb(0%,0%,0%);fill-opacity:1;stroke-width:0.1;stroke-linecap:butt;stroke-linejoin:miter;stroke:rgb(0%,0%,0%);stroke-opacity:1;stroke-miterlimit:10;" d="M 35 35.5 C 35 35.75 34.75 36 34.5 36 C 34.25 36 34 35.75 34 35.5 C 34 35.25 34.25 35 34.5 35 C 34.75 35 35 35.25 35 35.5 Z M 35 35.5 " transform="matrix(20,0,0,20,-138,-98)"/>
<path style="fill:none;stroke-width:0.1;stroke-linecap:butt;stroke-linejoin:miter;stroke:rgb(0%,0%,0%);stroke-opacity:1;stroke-miterlimit:10;" d="M 29 41 L 29 37.5 " transform="matrix(20,0,0,20,-138,-98)"/>
<path style="fill:none;stroke-width:0.1;stroke-linecap:butt;stroke-linejoin:miter;stroke:rgb(0%,0%,0%);stroke-opacity:1;stroke-miterlimit:10;" d="M 29 35.5 L 29 38 " transform="matrix(20,0,0,20,-138,-98)"/>
</g>
</svg>
